,Sum X,Sum X_square,Mean,StdDev
0,102.08414830402253,124.78106183886774,1.0208414830402253,0.45353421579072833
1,99.36330223311806,116.3261636432511,0.9936330223311807,0.4194699671794328
2,95.93962589147483,108.44313040078481,0.9593962589147483,0.40495693893083656
3,92.42347734484815,100.1379851585654,0.9242347734484815,0.38362733887757283
4,87.88612871539482,88.78533791823926,0.8788612871539482,0.33978848880516543
5,86.77860409685039,86.17414341247247,0.8677860409685039,0.3296798768880728
6,82.99277731950852,79.04617943073183,0.8299277731950851,0.3188756585046364
7,81.31922598714908,75.4145319147698,0.8131922598714908,0.30473540593898135
8,80.42174099261412,73.91879288904204,0.8042174099261412,0.30401033940001015
9,77.90940634398098,69.01966386544159,0.7790940634398098,0.28845983943568554
10,75.39260540460185,64.86092663310967,0.7539260540460185,0.28320446917677106
11,73.60621118015075,60.818642153197786,0.7360621118015075,0.25768001300505033
12,72.7841841734437,59.365426853831906,0.727841841734437,0.25278552561201323
13,72.33954760275235,58.760111449336456,0.7233954760275235,0.2535746433622204
14,70.67873737324227,56.084960305652295,0.7067873737324227,0.2475908144276511
15,70.08712942656273,55.07591122794213,0.7008712942656272,0.2440052072269071
16,68.80944182845215,53.271540494186084,0.6880944182845216,0.24339571990391848
17,68.31995279576127,52.48879590680178,0.6831995279576126,0.2410940979503919
18,67.09313647554868,50.63897403177779,0.6709313647554868,0.23715152140586812
19,66.60443890694687,49.95178956128697,0.6660443890694687,0.23643766070985378
20,65.44435751333471,48.169712738390764,0.654443575133347,0.2310859890832648
21,64.42148669825707,46.891998003938944,0.6442148669825707,0.23217920922860036
22,62.96576249417262,44.573881831727824,0.6296576249417263,0.22196867722726693
23,61.54743724856574,42.86898725392672,0.6154743724856574,0.2233409262823395
24,61.034576237062666,42.27718421049836,0.6103457623706267,0.22416487784932368
25,58.94650431269814,39.39510593670158,0.5894650431269813,0.21559689770106127
26,58.39627721484283,38.621313236298775,0.5839627721484283,0.21260435815784826
27,58.05915666925993,38.126068274965355,0.5805915666925993,0.21017639124099227
28,57.82618180379491,37.85620813742638,0.5782618180379491,0.21017933098596941
29,57.503557196127176,37.403086234634976,0.5750355719612718,0.20824253486145144
30,57.363937744926375,37.2450661940514,0.5736393774492637,0.20829912765092198
31,56.80467738636223,36.39568091290646,0.5680467738636223,0.20317399398593136
32,56.00448094542975,35.596447874851364,0.5600448094542975,0.20570437562631796
33,55.554530373471195,34.95904070413623,0.555545303734712,0.2023853318293322
34,54.63331162296922,33.79237466446671,0.5463331162296922,0.19860481553935386
35,54.444489321484234,33.62962017051551,0.5444448932148424,0.1996896591149226
36,54.185614374284285,33.208370216385376,0.5418561437428429,0.19615203708345566
37,53.72477323586538,32.76700377959291,0.5372477323586538,0.197572548375055
38,53.22048168221704,32.09237783666949,0.5322048168221705,0.1941180344995666
39,52.29902950719512,31.01758140856914,0.5229902950719513,0.1914600881286874
40,51.88648425148421,30.441261299964467,0.5188648425148421,0.18759501113220675
41,51.77984559312344,30.275948389630805,0.5177984559312344,0.18612964012090488
42,51.76719959418622,30.26503161518111,0.5176719959418622,0.18618813272971962
43,51.47627863986402,29.874028451981516,0.5147627863986401,0.18373774315290564
44,51.27990740884323,29.604351306148885,0.5127990740884323,0.18188079248654984
45,50.595462432647764,28.789307871538362,0.5059546243264776,0.1786141003337544
46,49.971382149003155,28.07672343233142,0.4997138214900316,0.17621955321457106
47,49.971382149003155,28.07672343233142,0.4997138214900316,0.17621955321457106
48,49.58284990300363,27.743014124374106,0.4958284990300363,0.17771955658666932
49,49.55433954724684,27.696417297898126,0.4955433954724684,0.17720303660659437
50,48.902317853671256,27.10596289203337,0.48902317853671257,0.17865038419825532
51,48.39538272901177,26.590652662517538,0.4839538272901177,0.17803151315545881
52,47.804196505526846,26.18292676202459,0.47804196505526847,0.18249697878689217
53,47.77329114821252,26.185117218789202,0.4777329114821252,0.18336422081394158
54,47.31638725794006,25.734665521986976,0.47316387257940057,0.18292786803965802
55,47.02641203889091,25.439643328858608,0.4702641203889091,0.1823405889083166
56,46.798376803355644,25.174504887506576,0.46798376803355646,0.18093159406853238
57,46.44102193632151,24.795899627724317,0.46441021936321514,0.17967232515959033
58,45.9128641405848,24.38724548025744,0.459128641405848,0.18186078588688281
59,45.60419431706542,24.11400162996225,0.4560419431706542,0.18211469564193958
60,45.46667848835599,23.972152507293387,0.4546667848835599,0.18165802981586185
61,45.025642561905315,23.71725455532134,0.45025642561905316,0.18558474275103395
62,44.44428725128326,23.172077369557076,0.44444287251283254,0.1849089147881
63,44.15330520884474,22.988699337724267,0.4415330520884474,0.18691055960192043
64,43.916135663887886,22.765833264410297,0.43916135663887884,0.1865358825513269
65,43.88425429143314,22.746314878687425,0.4388425429143314,0.18676287456386362
66,43.82237103915479,22.689668664911068,0.4382237103915479,0.1866994009089891
67,43.56136668959894,22.407875000610044,0.4356136668959894,0.1852551840557517
68,42.8767205755487,21.689828799975793,0.42876720575548705,0.18181576188105852
69,42.8011114391842,21.633114061848453,0.428011114391842,0.18203743179779838
70,42.744371769328,21.57902586756157,0.42744371769328,0.18188492757829947
71,42.42764254084983,21.368242389385117,0.4242764254084983,0.18349915186844365
72,42.10422761307153,21.17916282102894,0.4210422761307153,0.1857822109916766
73,42.02432574509281,21.161266826958613,0.4202432574509281,0.18710497811821866
74,41.36712268662346,20.641807343294897,0.4136712268662346,0.18786747854786692
75,40.978345396581794,20.247614771261198,0.40978345396581795,0.18588617099842666
76,40.58638766007996,19.990368827864643,0.4058638766007996,0.18755852939607243
77,40.50516956107786,19.94302106854396,0.4050516956107786,0.18805141469362244
78,40.05045860490097,19.634205561712417,0.4005045860490097,0.18957355345837557
79,39.65873052355314,19.369118571617538,0.3965873052355314,0.19081324650609258
80,39.54304190764972,19.340904916153555,0.39543041907649723,0.1924677449094298
81,39.117381411222446,18.9733666014593,0.39117381411222446,0.1916160566536319
82,38.443169599984074,18.28155192549341,0.38443169599984073,0.18715712747747584
83,38.08127196215538,18.058234085034464,0.3808127196215538,0.18858423429539523
84,37.91441628822361,17.957946492958865,0.3791441628822361,0.18928594422702666
85,37.761106099669206,17.838026515250462,0.37761106099669206,0.1891828527257614
86,37.31212199793573,17.412668691459675,0.3731212199793573,0.18683479899556402
87,37.22347640931752,17.361670203105046,0.3722347640931752,0.18723776977829198
88,37.03557614467682,17.17361081792882,0.3703557614467682,0.1859374038284733
89,36.72973781048512,16.893215209494997,0.3672973781048512,0.18445809316007786
90,36.53989610573562,16.79279200253034,0.3653989610573562,0.18550342121779886
91,35.84358628012056,16.148933542477952,0.3584358628012056,0.18169498529881017
92,35.699416427550105,16.067237177030336,0.35699416427550107,0.1822842243408351
93,35.49457259903258,15.945120647456672,0.3549457259903258,0.18293369857893124
94,35.31078446534947,15.714834064151187,0.3531078446534947,0.18017544418059672
95,35.05279660558077,15.557770030265814,0.35052796605580766,0.18085310424606124
96,34.59714900524452,15.210047019939232,0.34597149005244515,0.1800116614841471
97,34.3152989129092,15.01446549616022,0.343152989129092,0.17997411206440633
98,33.997651692883316,14.905493275230164,0.3399765169288332,0.18295054164784658
99,33.90082243020646,14.841539166922988,0.3390082243020646,0.18299949596867995
100,33.64010782309097,14.70164471482138,0.3364010782309097,0.18398576497461744
101,33.2041216106211,14.371405993150319,0.332041216106211,0.1829281026474928
102,33.081162157702266,14.325828595057885,0.33081162157702265,0.1839074685274081
103,32.918753246173424,14.251249513634656,0.3291875324617342,0.18479194681614575
104,32.84267467227888,14.216060691237416,0.3284267467227888,0.18519308558760852
105,32.80096424231147,14.170841121223106,0.3280096424231147,0.18471081638521195
106,32.61122506180336,14.061619288617866,0.3261122506180336,0.18511345948639035
107,32.475003053090276,13.987859975106119,0.3247500305309028,0.1855155449584721
108,31.733627432747454,13.449173876402305,0.3173362743274745,0.18381900815742888
109,31.576579941178547,13.354211403075173,0.31576579941178545,0.18394040869963238
110,31.459090414821674,13.298183908648697,0.3145909041482167,0.18442993822504658
111,31.03879922045541,13.094698323805796,0.3103879922045541,0.186027625726083
112,30.931150290615882,13.067380068224958,0.30931150290615883,0.1870833901023361
113,30.670493729452655,12.794981982640738,0.3067049372945265,0.18407037041731603
114,30.416167721486016,12.627591450838832,0.30416167721486015,0.18374326823650314
115,30.24687923357244,12.517633655452236,0.3024687923357244,0.18354554262495948
116,29.960541200142384,12.3440388786636,0.2996054120014238,0.18351290386807434
117,29.96033103736255,12.316225644411489,0.29960331037362553,0.18275697758849016
118,29.622846809291275,12.075267864303685,0.29622846809291276,0.18166280118495098
119,29.329726197028016,11.850855028007976,0.29329726197028017,0.18023669548906127
120,28.688123356851804,11.371168710625014,0.286881233568518,0.17723104957217725
121,28.470821562994445,11.244719618630096,0.28470821562994447,0.17716779656335405
122,28.330602846055875,11.175579124836716,0.28330602846055875,0.1774640399807021
123,28.27807549063609,11.153241518762542,0.2827807549063609,0.17767233842726912
124,28.14453563046364,11.0942358159494,0.2814453563046364,0.17813160745373138
125,27.666067408859238,10.632187756859164,0.2766606740885924,0.1725709969300673
126,27.60031281321803,10.577529190507995,0.2760031281321803,0.17203942910371217
127,27.25560871141965,10.332573961759184,0.2725560871141965,0.17040809544910235
128,27.152168696437403,10.260443673645302,0.271521686964374,0.1699423733048162
129,27.00926736435519,10.190414008439287,0.2700926736435519,0.17015900719171656
130,27.01385020179814,10.192512822114637,0.2701385020179814,0.17014792960429295
131,26.79711790010043,10.055529666939114,0.2679711790010043,0.1695486475740896
132,26.799866836259305,10.063207985953591,0.26799866836259306,0.16973153394526538
133,26.75719411273976,10.04378638213504,0.26757194112739763,0.16983262390561735
134,26.506770469181646,9.886281131675814,0.26506770469181645,0.1691210313537915
135,26.461473519400045,9.865259359762895,0.26461473519400047,0.16920885176561526
136,26.46263810801102,9.858668946951568,0.2646263810801102,0.16899576298227115
137,26.41477928745183,9.823251286175159,0.2641477928745183,0.16869634371044379
138,26.29832698140642,9.759679541159564,0.26298326981406417,0.16863153681769838
139,26.25333082484738,9.74299528773847,0.2625333082484738,0.16883783621421042
140,26.221203036196854,9.726337602913492,0.26221203036196855,0.16884379515572673
141,26.088290700133786,9.64608101626728,0.26088290700133787,0.16852572206403418
142,25.984582466996237,9.598246527696947,0.25984582466996237,0.16870866213255512
143,25.908580327578264,9.564067252495462,0.2590858032757826,0.1688644991284346
144,25.79833846900373,9.504287865512913,0.2579833846900373,0.16878226174275948
145,25.76215750259304,9.487950041917369,0.2576215750259304,0.1688508942834849
146,25.749617596237123,9.479380663210407,0.25749617596237123,0.16878840599063558
147,25.378278381867087,9.251104550804397,0.25378278381867087,0.1676464856335788
148,25.343759130010966,9.218095843653176,0.2534375913001097,0.16718356902677467
149,25.150868037658373,9.121716566932632,0.25150868037658375,0.16721408243493058
150,25.03597798533726,9.092148639382039,0.2503597798533726,0.1680519771546625
151,24.776056315456678,8.99623813594727,0.2477605631545668,0.16904758118590343
152,24.536741801242936,8.850964375093444,0.24536741801242937,0.1682393352603611
153,24.41126506387642,8.793576688648958,0.2441126506387642,0.16835908257235851
154,24.24138072538061,8.699528418304746,0.2424138072538061,0.16802032685291982
155,24.228260923001322,8.692994632708999,0.2422826092300132,0.16801512905624513
156,24.095891947745447,8.601095377057277,0.24095891947745446,0.16718179594330954
157,24.079505361208543,8.598750104857178,0.24079505361208542,0.1673476716435717
158,23.889305870692823,8.493054926203325,0.23889305870692823,0.16691511544399265
159,23.862306811527084,8.48764651086661,0.23862306811527084,0.1671391530190365
160,23.7012670893825,8.415073399284932,0.23701267089382502,0.16725946259815827
161,23.54006726557484,8.335679393019483,0.2354006726557484,0.16716254737056385
162,23.455388204780455,8.296778231656758,0.23455388204780456,0.16718929012610875
163,23.372296823456935,8.267372326070184,0.23372296823456934,0.16747327362992678
164,23.29951537237353,8.231813420646802,0.2329951537237353,0.1674257822072842
165,22.91061423421664,7.844661974042131,0.22910614234216642,0.16111174780726661
166,22.90305823034234,7.838547289623461,0.22903058230342338,0.16102939255300389
167,22.85708723438853,7.82659656804189,0.2285708723438853,0.16131125812036246
168,22.82273171922013,7.8115048325496454,0.2282273171922013,0.1613299104715142
169,22.69758110495537,7.719331833168235,0.2269758110495537,0.16023513825025915
170,22.615356046223447,7.673551051626581,0.22615356046223448,0.15996898951521907
171,22.50248847436038,7.6171515303344135,0.2250248847436038,0.15979773637155179
172,22.493923505867247,7.616747449871,0.22493923505867247,0.15990564414656944
173,22.385742033680202,7.58679177956183,0.22385742033680203,0.16048605283877673
174,22.315462826905335,7.525552869759022,0.22315462826905336,0.1595541932375669
175,22.216730696068247,7.473591983492007,0.22216730696068246,0.15930350765993181
176,21.99182193514039,7.379327301899263,0.2199182193514039,0.15946551293712516
177,21.72411138217353,7.123007028586288,0.21724111382173528,0.15503666905398458
178,21.737579141266167,7.12768390827641,0.21737579141266167,0.15499872383501453
179,21.608302390449353,7.030350833147359,0.21608302390449352,0.1536607793542766
180,21.561834758387725,6.991682026938591,0.21561834758387724,0.15305407036268
181,21.520316862486666,6.959294603746137,0.21520316862486666,0.15257962593766763
182,21.40462755758472,6.896428953347718,0.2140462755758472,0.1521462501857527
183,21.41633698028331,6.899344078176713,0.21416336980283313,0.15207725607881697
184,21.41849177435283,6.901616488455513,0.2141849177435283,0.15212161547838343
185,21.40931344525534,6.881141959635036,0.2140931344525534,0.15157687612769716
186,21.41499558513123,6.881175031220485,0.2141499558513123,0.15149767892969793
187,21.42597748664221,6.887048804874677,0.21425977486642211,0.15153625613343127
188,21.31121204971896,6.824124041940629,0.2131121204971896,0.15107767709558428
189,21.241402303403035,6.80500653822574,0.21241402303403034,0.15142769958219607
190,21.18042662910987,6.786193074173393,0.21180426629109872,0.15166042174088556
191,21.15084453482643,6.774997329683385,0.2115084453482643,0.15170415565565154
192,20.94796870241741,6.628155966602997,0.20947968702417408,0.14966569543580804
193,20.943916373602843,6.627971738002397,0.20943916373602842,0.1497162451892815
194,20.790178900553368,6.545797874053846,0.2079017890055337,0.14911346307036466
195,20.59377946142994,6.385778678525305,0.2059377946142994,0.1464493480171615
196,20.57627650546829,6.376992185086608,0.20576276505468288,0.14639537686661233
197,20.320135380298,6.167900676783393,0.20320135380298002,0.14278731239318873
198,20.264598021735363,6.144707676966347,0.20264598021735364,0.1427644334959215
199,20.177407139146826,6.09977373340632,0.20177407139146827,0.14242528373913763
200,20.178636374759787,6.100690307468645,0.20178636374759787,0.14244004521274406
201,20.178252965292753,6.100585766718472,0.20178252965292753,0.14244180704431597
202,20.059779632083696,6.035248116252557,0.20059779632083696,0.1418203274349258
203,19.920626140865455,5.967907144546146,0.19920626140865455,0.14140699014210098
204,19.816611709367134,5.895669625649443,0.19816611709367135,0.1403099650506398
205,19.70232169562673,5.8280059894213085,0.1970232169562673,0.1395059564119637
206,19.717452989851814,5.84555763759445,0.19717452989851814,0.13992062440985198
207,19.623900085187127,5.814794106227941,0.19623900085187126,0.14013634648776413
208,19.595341315034347,5.80817757006636,0.19595341315034345,0.14029980604189873
209,19.58146463979563,5.795376562241288,0.19581464639795632,0.14003710179254716
210,19.325545772925384,5.548997565017734,0.19325545772925384,0.13469336920588898
211,19.32672726850888,5.545677681480978,0.19326727268508878,0.13455310521752115
212,19.262251718632477,5.514951326977875,0.19262251718632478,0.13433569571257956
213,19.122947989550717,5.4510232578418965,0.19122947989550718,0.1339459540162105
214,19.10906024204298,5.446217358062661,0.1910906024204298,0.1339647537497227
215,19.02343575112306,5.367087173042718,0.1902343575112306,0.13221861046281072
216,19.01369757171885,5.365165597729234,0.19013697571718852,0.13228600244324268
217,18.95288571108238,5.336312364914272,0.18952885711082382,0.13206792181073967
218,18.830833261216828,5.256124455695105,0.18830833261216828,0.13077161934370948
219,18.830451752717746,5.257918276024784,0.18830451752717747,0.130845677953476
220,18.829227716111095,5.256205836306098,0.18829227716111097,0.13079784678863926
221,18.84687223189684,5.258309314759661,0.18846872231896838,0.13062401714482752
222,18.820029487683335,5.227158517432451,0.18820029487683335,0.12981615532204566
223,18.793269161104273,5.21539938027537,0.18793269161104273,0.12975090453088337
224,18.788563364806382,5.21441930865015,0.18788563364806382,0.12978128430234867
225,18.77930763494911,5.213754766750597,0.1877930763494911,0.12988959982500592
226,18.76960774407267,5.212381028811232,0.1876960774407267,0.12997689333676604
227,18.76134149912995,5.206604524757537,0.18761341499129952,0.12987398416495047
228,18.730525654806172,5.184097397320964,0.1873052565480617,0.12945159266179165
229,18.720824890644078,5.182694306514489,0.18720824890644078,0.12953769569715606
230,18.57752262271378,5.103813828973508,0.1857752262271378,0.1285523380183762
231,18.52749584705859,5.079420833740481,0.1852749584705859,0.1283253603194921
232,18.52749584705859,5.079420833740481,0.1852749584705859,0.1283253603194921
233,18.511631251285465,5.074048428070531,0.18511631251285465,0.12834498479624531
234,18.47240113628574,5.061307895113215,0.1847240113628574,0.12841385663995564
235,18.435673164521102,5.029658613608185,0.18435673164521102,0.12770740633642788
236,18.353501889328754,4.9749414505196174,0.18353501889328755,0.1267450643813666
237,18.360919178619646,4.9826146540935445,0.18360919178619647,0.12694018761824472
238,18.34651928460203,4.980318637377854,0.1834651928460203,0.12705789777794657
239,18.336466286850655,4.97347770250829,0.18336466286850656,0.1269337521552161
240,18.293110422623013,4.954888159599068,0.18293110422623013,0.12682701881918856
241,18.26534368648172,4.944505910882887,0.18265343686481722,0.12681790532215512
242,18.238233628628898,4.926661598776443,0.18238233628628897,0.12650414775223548
243,18.20387668749794,4.908519991605047,0.18203876687497939,0.12628177727086112
244,18.18633348650077,4.902787988157943,0.18186333486500772,0.12630759008609696
245,18.176128418585538,4.897635583072043,0.18176128418585538,0.12625051050126154
246,18.16610925997536,4.897084140426946,0.1816610925997536,0.12637281685446916
247,18.162870650885836,4.892004790289565,0.18162870650885835,0.1262183064171543
248,18.122078239490005,4.876708318330403,0.18122078239490005,0.12619869734464104
249,18.038265629649857,4.803417408698774,0.18038265629649858,0.12448402063882338
250,17.91941018645361,4.752370927238284,0.1791941018645361,0.12414984143906549
251,17.842352183722753,4.703897809429822,0.17842352183722754,0.12330460230461236
252,17.83227053347505,4.70215110681862,0.1783227053347505,0.12337959243846588
253,17.632971879196635,4.616006570896323,0.17632971879196635,0.1227513583619721
254,17.6177693071321,4.61095600425223,0.176177693071321,0.12276392184428501
255,17.608632880762176,4.607894571199512,0.17608632880762176,0.12277031611529407
256,17.628288312096775,4.613908918514396,0.17628288312096774,0.12273318338454027
257,17.62170899120531,4.617203341244108,0.1762170899120531,0.12296166327505688
258,17.495241455081555,4.506259850351414,0.17495241455081556,0.12022583393910696
259,17.48694256524805,4.501361851145798,0.1748694256524805,0.12014284199830455
260,17.48694256524805,4.501361851145798,0.1748694256524805,0.12014284199830455
261,17.40256121769452,4.45876725390827,0.17402561217694518,0.11959414218732528
262,17.41877538864437,4.472291174207896,0.1741877538864437,0.11992305090379698
263,17.34463822764542,4.452504167539176,0.17344638227645418,0.1201723518559984
264,17.361666928511667,4.4648747460336855,0.17361666928511668,0.12044085522230102
265,17.349968985166896,4.462956625548581,0.17349968985166897,0.120529763448123
266,17.349968985166896,4.462956625548581,0.17349968985166897,0.120529763448123
267,17.3351488579564,4.451771553092452,0.173351488579564,0.12027874682658532
268,17.315611230634097,4.447288144520748,0.17315611230634098,0.12037376049688446
269,17.315611230634097,4.447288144520748,0.17315611230634098,0.12037376049688446
270,17.29258438805153,4.428167744660667,0.1729258438805153,0.11990967419194465
271,17.270211533608215,4.420562193398569,0.17270211533608215,0.11991497526342682
272,17.240293540244934,4.39725772119267,0.17240293540244933,0.11937254741583418
273,17.240293540244934,4.39725772119267,0.17240293540244933,0.11937254741583418
274,17.227150001195184,4.396615152816187,0.17227150001195185,0.11953527434106614
275,17.225105181960412,4.395978720313665,0.17225105181960412,0.1195381209078372
276,17.228788179719725,4.396765485835071,0.17228788179719726,0.1195179511378341
277,17.22560326124711,4.395531759208438,0.17225603261247108,0.11951224548428367
278,17.187000991346256,4.385167214382184,0.17187000991346257,0.11963432549301273
279,17.187000991346256,4.385167214382184,0.17187000991346257,0.11963432549301273
280,17.19065562303814,4.390046844664605,0.1719065562303814,0.11978566012531204
281,17.193149322165844,4.390641666491077,0.17193149322165843,0.11977469809388622
282,17.154022754437086,4.360633697344152,0.17154022754437087,0.11908101153192724
283,17.083252342415157,4.31810896085562,0.17083252342415156,0.11831034844464328
284,17.05859871886793,4.300855896375246,0.17058598718867932,0.11793633849927763
285,17.064836828229907,4.303341302181941,0.17064836828229907,0.11795146215460085
286,17.055756849625002,4.297129475035813,0.17055756849625003,0.11781939814396061
287,17.055756849625002,4.297129475035813,0.17055756849625003,0.11781939814396061
288,17.055756849625002,4.297129475035813,0.17055756849625003,0.11781939814396061
289,17.018038838057063,4.276891598497353,0.17018038838057062,0.11750553772317149
290,17.009222246220375,4.271029173141377,0.17009222246220376,0.1173836768434264
291,16.998757096450813,4.27001631224319,0.16998757096450812,0.11749207990336291
292,16.998757096450813,4.27001631224319,0.16998757096450812,0.11749207990336291
293,17.025475009972133,4.285452362045292,0.17025475009972132,0.11776180912729882
294,17.014616668714098,4.284406765618014,0.17014616668714097,0.11787429583183849
295,17.014616668714098,4.284406765618014,0.17014616668714097,0.11787429583183849
296,16.986646495756332,4.269703068881747,0.16986646495756333,0.11765379199855133
297,16.92949942517413,4.239704361132327,0.1692949942517413,0.11720174287367126
298,16.915268049599163,4.234085817593762,0.16915268049599164,0.11716752475391205
299,16.865568167064843,4.208519058580158,0.16865568167064843,0.11679234403851345
300,16.858328789462057,4.206851982024148,0.16858328789462057,0.11682548892635099
301,16.84383613478849,4.202239852647976,0.1684383613478849,0.11683713858580719
302,16.8222250278914,4.191262632006325,0.168222250278914,0.11667862199718365
303,16.794880183003706,4.177969838545762,0.16794880183003705,0.11650278258184461
304,16.757568455146213,4.161099250345726,0.16757568455146213,0.11631587359671126
305,16.745447835850655,4.1584649266768325,0.16745447835850655,0.11637717535861053
306,16.74293851023381,4.156983288002976,0.1674293851023381,0.11634961918408983
307,16.71773361819175,4.154188447823838,0.16717733618191752,0.11659169243713942
308,16.719860808153694,4.155592185882476,0.16719860808153694,0.1166213844645199
309,16.713962683185525,4.1535531404385795,0.16713962683185524,0.11661850859487946
310,16.71604963996819,4.154462132006497,0.1671604963996819,0.11662756862541938
311,16.68411438927619,4.13656064370752,0.1668411438927619,0.11631697701380449
312,16.653137439418696,4.123031013832776,0.16653137439418697,0.11617922138106662
313,16.66713118945554,4.129277981209174,0.1666713118945554,0.11624738106056232
314,16.644879881306505,4.117022673012412,0.16644879881306504,0.11603889047992455
315,16.655165903489156,4.123049228104858,0.16655165903489155,0.11615092403323272
316,16.61810995374649,4.11370384779471,0.1661810995374649,0.1162793216116532
317,16.61810995374649,4.11370384779471,0.1661810995374649,0.1162793216116532
318,16.613881986728536,4.113643028911091,0.16613881986728538,0.11633710853470879
319,16.597953942006086,4.102996741760272,0.16597953942006086,0.11610667470695722
320,16.597953942006086,4.102996741760272,0.16597953942006086,0.11610667470695722
321,16.597953942006086,4.102996741760272,0.16597953942006086,0.11610667470695722
322,16.551071311446634,4.085497762983952,0.16551071311446633,0.11602233179082523
323,16.552883879015877,4.086181115885634,0.16552883879015876,0.11602592248130578
324,16.536880299030656,4.079388432380776,0.16536880299030657,0.11596138720005437
325,16.504278075809072,4.068039911116136,0.16504278075809073,0.11593653277029704
326,16.504278075809072,4.068039911116136,0.16504278075809073,0.11593653277029704
327,16.504278075809072,4.068039911116136,0.16504278075809073,0.11593653277029704
328,16.504278075809072,4.068039911116136,0.16504278075809073,0.11593653277029704
329,16.411670539854256,4.022487920735116,0.16411670539854256,0.11528480479438366
330,16.411670539854256,4.022487920735116,0.16411670539854256,0.11528480479438366
331,16.412279125973875,4.022498282860013,0.16412279125973875,0.1152765900680288
332,16.412279125973875,4.022498282860013,0.16412279125973875,0.1152765900680288
333,16.4103218305878,4.022074222034418,0.164103218305878,0.11528606143848236
334,16.39624018551479,4.019238362310834,0.1639624018551479,0.11536340147984252
335,16.364758917014257,4.006895419043456,0.16364758917014258,0.11527541259624619
336,16.348311319040494,3.999381333953127,0.16348311319040496,0.11518283310070347
337,16.348311319040494,3.999381333953127,0.16348311319040496,0.11518283310070347
338,16.348311319040494,3.999381333953127,0.16348311319040496,0.11518283310070347
339,16.334503801777572,3.9915125671821547,0.16334503801777572,0.11503705588545349
340,16.33104979134805,3.9894097749017554,0.1633104979134805,0.11499469126993919
341,16.32430495625053,3.9878295214906645,0.1632430495625053,0.11502174570245438
342,16.340648050743994,3.9944770743440627,0.16340648050743994,0.11507863777266517
343,16.31746595667503,3.9882021345141463,0.16317465956675029,0.11513492875933268
344,16.317987529306617,3.9873061126473526,0.16317987529306616,0.11508861553521663
345,16.247577914708558,3.961417558098587,0.16247577914708558,0.11495997899936022
346,16.247743750541794,3.9558266141455687,0.16247743750541793,0.11471420331906898
347,16.241974088514283,3.9545258457543477,0.16241974088514283,0.11473920963797223
348,16.241974088514283,3.9545258457543477,0.16241974088514283,0.11473920963797223
349,16.250776676788263,3.9599140239935235,0.16250776676788262,0.11484931858766383
350,16.245732435426,3.959738339864329,0.16245732435426,0.11491301563486207
351,16.170168796680162,3.927132792234336,0.16170168796680162,0.11455955669882144
352,16.154483216054185,3.9213907488044177,0.16154483216054186,0.11453023483022524
353,16.14530230402853,3.9186979077228026,0.1614530230402853,0.11454213385641604
354,16.156355801120014,3.919062911625127,0.16156355801120015,0.11440212340255243
355,16.064030385555295,3.8468981960842923,0.16064030385555295,0.11253299399748745
356,16.064030385555295,3.8468981960842923,0.16064030385555295,0.11253299399748745
357,16.059190162526214,3.843717252299072,0.16059190162526213,0.11246072049997212
358,16.046656683767395,3.8354273060392208,0.16046656683767396,0.11227089555055006
359,16.043983536280308,3.8344815571697506,0.16043983536280307,0.11226698000950303
360,16.043983536280308,3.8344815571697506,0.16043983536280307,0.11226698000950303
361,16.02865202712438,3.8293333692228186,0.1602865202712438,0.11225669294774515
362,16.005400249522552,3.8238351558689985,0.16005400249522553,0.1123435260437749
363,15.992323196470537,3.819578650713655,0.15992323196470537,0.11234031504806985
364,15.958080571627367,3.8082174860113556,0.15958080571627367,0.11232159768743707
365,15.952759846912222,3.804645752579739,0.15952759846912223,0.11223815239245477
366,15.952759846912222,3.804645752579739,0.15952759846912223,0.11223815239245477
367,15.942920489221626,3.7983038651237644,0.15942920489221626,0.11209534905014289
368,15.91843606955076,3.7886295311661513,0.1591843606955076,0.11201176108616477
369,15.897922564891196,3.7824765808822907,0.15897922564891195,0.11202844112498951
370,15.897922564891196,3.7824765808822907,0.15897922564891195,0.11202844112498951
371,15.88023996049906,3.7744516663120615,0.1588023996049906,0.11192101921809637
372,15.852253543480142,3.7586371616552836,0.1585225354348014,0.1116108300115852
373,15.868437609688849,3.76267634492819,0.15868437609688849,0.11156178661182845
374,15.867784354514919,3.762356951175942,0.1586778435451492,0.11155676348666888
375,15.867784354514919,3.762356951175942,0.1586778435451492,0.11155676348666888
376,15.835633843837124,3.7531284612789353,0.15835633843837124,0.11159997620600723
377,15.81428987252446,3.750225604218236,0.1581428987252446,0.11177244573220806
378,15.81428987252446,3.750225604218236,0.1581428987252446,0.11177244573220806
379,15.805460260826397,3.746753776128587,0.15805460260826398,0.11174202591518387
380,15.814982925635245,3.7521216955711774,0.15814982925635246,0.11184743386371607
381,15.806088866043348,3.7506455928164755,0.15806088866043347,0.11190715528525783
382,15.797682514386738,3.750060856364632,0.15797682514386738,0.11199969321882214
383,15.78973427462283,3.7469010572016908,0.1578973427462283,0.11197070923101728
384,15.7962150584358,3.7487540014430802,0.157962150584358,0.11196204266266051
385,15.803774523190278,3.7535985275850887,0.15803774523190278,0.11207165724600968
386,15.803774523190278,3.7535985275850887,0.15803774523190278,0.11207165724600968
387,15.75989078266322,3.741478238897027,0.1575989078266322,0.11214885929345406
388,15.75989078266322,3.741478238897027,0.1575989078266322,0.11214885929345406
389,15.739916097043208,3.7346417483851657,0.15739916097043208,0.11212458075576323
390,15.738409833397826,3.7283789513444043,0.15738409833397826,0.11186614816397632
391,15.750581718162415,3.7364350580225745,0.15750581718162415,0.11205475507168153
392,15.724662928333501,3.726901834032942,0.15724662928333502,0.11199337444402156
393,15.721802513710296,3.726517643061636,0.15721802513710295,0.11201637827838225
394,15.703598395764912,3.7175339600645945,0.15703598395764912,0.11187063664384374
395,15.681582487955435,3.709096823048487,0.15681582487955434,0.11180234925004848
396,15.675263675081704,3.7033446813966067,0.15675263675081705,0.1116335867274382
397,15.649246716002423,3.6928787561465897,0.15649246716002424,0.11152979549714342
398,15.649855208452665,3.6948512209363438,0.15649855208452665,0.11160965641381637
399,15.649985518209679,3.694920884793384,0.15649985518209678,0.11161095007174061
400,15.632413325651912,3.684731435929605,0.15632413325651912,0.11140053734562552
401,15.624806808334657,3.683184689974609,0.15624806808334657,0.11143782176607715
402,15.609747462723575,3.6735762122231943,0.15609747462723575,0.11121753700397899
403,15.582163832094892,3.6672791665251814,0.15582163832094892,0.11132119607795812
404,15.564386681002064,3.6608992905460043,0.15564386681002065,0.11128333042232602
405,15.564386681002064,3.6608992905460043,0.15564386681002065,0.11128333042232602
406,15.564386681002064,3.6608992905460043,0.15564386681002065,0.11128333042232602
407,15.513209829029808,3.6379181944121317,0.1551320982902981,0.11096492249432076
408,15.50394942169675,3.6317430830346633,0.1550394942169675,0.1108160009353051
409,15.50394942169675,3.6317430830346633,0.1550394942169675,0.1108160009353051
410,15.458092445747283,3.6094428008166495,0.15458092445747285,0.11044983387058384
411,15.44288151643157,3.6073378967321585,0.1544288151643157,0.11056726465942442
412,15.437988303496107,3.606980830499972,0.15437988303496109,0.1106194377996537
413,15.439496444000007,3.6073094169107165,0.15439496444000006,0.1106132411815072
414,15.441349175147968,3.6085551194123626,0.15441349175147967,0.11064368377471596
415,15.435128372589544,3.6075920446502856,0.15435128372589543,0.11068695342573569
416,15.424733342591216,3.6042189786504073,0.15424733342591215,0.11067949185598729
417,15.426335095529122,3.605347510870688,0.15426335095529123,0.11070814631612043
418,15.425614428846371,3.6049508847057776,0.1542561442884637,0.11070027459909232
419,15.400919689948065,3.5976681884347066,0.15400919689948064,0.1107151712942904
420,15.39137320238478,3.594263690216388,0.1539137320238478,0.11069417327328047
421,15.39137320238478,3.594263690216388,0.1539137320238478,0.11069417327328047
422,15.39137320238478,3.594263690216388,0.1539137320238478,0.11069417327328047
423,15.39272864840153,3.5948749510852114,0.1539272864840153,0.11070293576287847
424,15.35034251683244,3.577643390575484,0.15350342516832438,0.1105130416165779
425,15.320479986463729,3.572694623829001,0.15320479986463728,0.11070336732334046
426,15.320479986463729,3.572694623829001,0.15320479986463728,0.11070336732334046
427,15.324765414179154,3.574900964049288,0.15324765414179153,0.11074369571461268
428,15.324765414179154,3.574900964049288,0.15324765414179153,0.11074369571461268
429,15.31920088582913,3.5739373010059707,0.1531920088582913,0.11077717017518056
430,15.31920088582913,3.5739373010059707,0.1531920088582913,0.11077717017518056
431,15.299477386408423,3.568476370879635,0.15299477386408422,0.1108032620416659
432,15.254020701322771,3.555301401054564,0.1525402070132277,0.11083546027741878
433,15.195714511016416,3.537816622109772,0.15195714511016414,0.11084760832361805
434,15.179410436762568,3.533093065291026,0.1517941043676257,0.11085792949600229
435,15.136571349981988,3.515799724652971,0.1513657134998199,0.110663535201168
436,15.12625365317428,3.5141707009772807,0.1512625365317428,0.11073098957272975
437,15.101582696023875,3.5060708934095457,0.15101582696023874,0.11070198255501429
438,15.063553065190323,3.495853500969467,0.15063553065190324,0.11075862004789601
439,15.058652848363595,3.494911379953722,0.15058652848363596,0.11078272084934687
440,15.0522366249466,3.494080867125355,0.150522366249466,0.11083242273773126
441,15.030536505459413,3.493178890768526,0.15030536505459413,0.11108594035021017
442,14.985433797119157,3.470308420497666,0.14985433797119158,0.11066508752173176
443,14.974790389162958,3.4673974409250574,0.1497479038916296,0.11067763861464448
444,14.955914114781347,3.4610920009211616,0.14955914114781346,0.11064801538364809
445,14.923829734156161,3.4460255968292812,0.1492382973415616,0.11040012035720095
446,14.921635440852924,3.4452288064837657,0.14921635440852923,0.11039369385008303
447,14.90536079737605,3.4383734733585585,0.1490536079737605,0.11030302209636011
448,14.898292532026383,3.435581932430079,0.14898292532026383,0.11027196963561266
449,14.897531904039736,3.4351201440279038,0.14897531904039737,0.11026130670861313
450,14.842818266582933,3.4126512086830774,0.14842818266582933,0.1099799376129573
451,14.862805078557173,3.4236208927485303,0.14862805078557173,0.11020849081249054
452,14.762688023021305,3.3875364796564282,0.14762688023021306,0.10991664582791187
453,14.75347686579746,3.3838912373953836,0.1475347686579746,0.10987449390550909
454,14.744158190892959,3.3819792611144113,0.1474415819089296,0.10991256768603182
455,14.745053402853694,3.382261744182183,0.14745053402853694,0.10991340890228589
456,14.74467457407129,3.3822666312498835,0.1474467457407129,0.10991871307003369
457,14.722070750133156,3.37463692092095,0.14722070750133157,0.10987462169225828
458,14.722070750133156,3.37463692092095,0.14722070750133157,0.10987462169225828
459,14.720336412312523,3.3740458726263043,0.14720336412312524,0.10987096211965039
460,14.71578780443723,3.3711545873891575,0.1471578780443723,0.10980029509691319
461,14.693202931750896,3.36274253971291,0.14693202931750896,0.10971966167359333
462,14.693202931750896,3.36274253971291,0.14693202931750896,0.10971966167359333
463,14.692883943955641,3.3625405572438183,0.1469288394395564,0.10971472878963535
464,14.692883943955641,3.3625405572438183,0.1469288394395564,0.10971472878963535
465,14.68828707432848,3.3597285806947355,0.1468828707432848,0.1096481102853982
466,14.686086814800012,3.358179681103527,0.14686086814800012,0.10960694420451195
467,14.665027241169085,3.352883440900547,0.14665027241169085,0.1096473073567351
468,14.65438083721612,3.345049604477608,0.1465438083721612,0.10943220857023485
469,14.65438083721612,3.345049604477608,0.1465438083721612,0.10943220857023485
470,14.655143628106918,3.345147617868878,0.14655143628106918,0.10942647167228092
471,14.655143628106918,3.345147617868878,0.14655143628106918,0.10942647167228092
472,14.652021024124638,3.3441452222149115,0.14652021024124637,0.10942248495172315
473,14.649621433449528,3.3426366149431295,0.14649621433449528,0.10938567243973459
474,14.649621433449528,3.3426366149431295,0.14649621433449528,0.10938567243973459
475,14.579835416545976,3.3136021412971397,0.14579835416545975,0.10899018917138625
476,14.556789624071065,3.3020482229115826,0.14556789624071065,0.1087679631746845
477,14.556789624071065,3.3020482229115826,0.14556789624071065,0.1087679631746845
478,14.53630221824986,3.2963071322990696,0.1453630221824986,0.108778045142212
479,14.533818112011073,3.2946561508981045,0.14533818112011074,0.10873534208195113
480,14.530262626181829,3.2944305387639217,0.14530262626181828,0.10877247900575576
481,14.540317959064636,3.297393326080785,0.14540317959064636,0.10877430131119249
482,14.503359269606609,3.281153607172249,0.14503359269606608,0.10852093374733789
483,14.501368068352129,3.2806222705256998,0.14501368068352127,0.10852306261746729
484,14.492013354720111,3.279391082904376,0.14492013354720112,0.1085912782948297
485,14.492013354720111,3.279391082904376,0.14492013354720112,0.1085912782948297
486,14.506689555526714,3.284869224646562,0.14506689555526714,0.10864754051713657
487,14.503877523385098,3.282979451234417,0.14503877523385098,0.1085981039936178
488,14.496171397658934,3.2768529071934664,0.14496171397658933,0.10841877398727662
489,14.381864969538023,3.237550069568406,0.14381864969538025,0.10812814941300698
490,14.37798942366972,3.2371957840753254,0.14377989423669718,0.10816330178964316
491,14.36444436278856,3.23444328266417,0.14364444362788562,0.10821601841445143
492,14.336383627989601,3.2147516665172335,0.14336383627989602,0.10767695720201007
493,14.315753715868345,3.2049016304026106,0.14315753715868346,0.10749388754104239
494,14.315753715868345,3.2049016304026106,0.14315753715868346,0.10749388754104239
495,14.315753715868345,3.2049016304026106,0.14315753715868346,0.10749388754104239
496,14.315753715868345,3.2049016304026106,0.14315753715868346,0.10749388754104239
497,14.312203677809826,3.204216168589806,0.14312203677809826,0.10750927529467748
498,14.312203677809826,3.204216168589806,0.14312203677809826,0.10750927529467748
499,14.312203677809826,3.204216168589806,0.14312203677809826,0.10750927529467748
500,14.289099363383107,3.1987781385898124,0.14289099363383106,0.1075636803211687
501,14.289099363383107,3.1987781385898124,0.14289099363383106,0.1075636803211687
502,14.27806923346164,3.195892091041202,0.1427806923346164,0.10757599549555481
503,14.277097071574348,3.1952833428092555,0.1427709707157435,0.1075606031452821
504,14.277097071574348,3.1952833428092555,0.1427709707157435,0.1075606031452821
505,14.255468276651225,3.189990934194979,0.14255468276651226,0.10760144870441496
506,14.255468276651225,3.189990934194979,0.14255468276651226,0.10760144870441496
507,14.236986987945206,3.180725215403646,0.14236986987945208,0.10741541930535085
508,14.213922362507121,3.176218571627384,0.14213922362507123,0.10751105442481643
509,14.213922362507121,3.176218571627384,0.14213922362507123,0.10751105442481643
510,14.223077667697192,3.182429297213865,0.14223077667697193,0.1076786846966659
511,14.232231243183382,3.184554917615106,0.14232231243183383,0.10765643761618039
512,14.212818066665841,3.1717036277078936,0.14212818066665842,0.10731549998702256
513,14.208770947273415,3.170993006250855,0.14208770947273414,0.10733598128912993
514,14.214577594395198,3.173034304732705,0.14214577594395197,0.10735418682389083
515,14.203649592814637,3.163928545569486,0.14203649592814638,0.10707436331890335
516,14.20460633020839,3.1640898245656235,0.1420460633020839,0.10706920260297358
517,14.203974491296721,3.1640217546758524,0.14203974491296723,0.107074405960611
518,14.192493124870264,3.1603111880791257,0.14192493124870265,0.10705337813839544
519,14.192493124870264,3.1603111880791257,0.14192493124870265,0.10705337813839544
520,14.178258607744548,3.1503699101338922,0.14178258607744548,0.10677732618178207
521,14.178258607744548,3.1503699101338922,0.14178258607744548,0.10677732618178207
522,14.178258607744548,3.1503699101338922,0.14178258607744548,0.10677732618178207
523,14.178258607744548,3.1503699101338922,0.14178258607744548,0.10677732618178207
524,14.116307197366535,3.123577781440259,0.14116307197366534,0.1063426768769734
525,14.116307197366535,3.123577781440259,0.14116307197366534,0.1063426768769734
526,14.097161993387038,3.1194794921912568,0.1409716199338704,0.10640393458483086
527,14.082436933801603,3.1144246551603914,0.14082436933801604,0.1063613818646315
528,14.034678198050141,3.0987070242183297,0.1403467819805014,0.10625371066414999
529,14.034678198050141,3.0987070242183297,0.1403467819805014,0.10625371066414999
530,14.036568329126599,3.0994519978147137,0.14036568329126597,0.10626379878549022
531,14.036568329126599,3.0994519978147137,0.14036568329126597,0.10626379878549022
532,14.011080939761033,3.096610482075283,0.14011080939761034,0.10646626653874613
533,14.011080939761033,3.096610482075283,0.14011080939761034,0.10646626653874613
534,13.97175397360961,3.0816115705478735,0.1397175397360961,0.1062785246207866
535,13.965484640548919,3.0804288674078233,0.1396548464054892,0.10630527997017578
536,13.916770307988678,3.0625777512580594,0.13916770307988677,0.10610432569904522
537,13.913738633588824,3.0616232029265316,0.13913738633588824,0.10609910344994955
538,13.916050764778795,3.0615630994353804,0.13916050764778795,0.10606594225086466
539,13.943981521764805,3.070998607820827,0.13943981521764803,0.10614388352739144
540,13.943981521764805,3.070998607820827,0.13943981521764803,0.10614388352739144
541,13.937945595484042,3.068827408573726,0.13937945595484041,0.10612088080801989
542,13.934551500732171,3.067897180621122,0.1393455150073217,0.10612162481584751
543,13.934551500732171,3.067897180621122,0.1393455150073217,0.10612162481584751
544,13.945761665746625,3.070166586918561,0.13945761665746625,0.10608128499129711
545,13.945761665746625,3.070166586918561,0.13945761665746625,0.10608128499129711
546,13.945761665746625,3.070166586918561,0.13945761665746625,0.10608128499129711
547,13.904734841610946,3.054872032416383,0.13904734841610947,0.10589879707821467
548,13.898917270468374,3.0512295265156766,0.13898917270468375,0.10580314331826045
549,13.890574930735944,3.0493364280841186,0.13890574930735944,0.1058232351149888
550,13.890520435959878,3.0493252588185076,0.13890520435959877,0.10582342269083522
551,13.890520435959878,3.0493252588185076,0.13890520435959877,0.10582342269083522
552,13.882294260245008,3.0463238879857752,0.13882294260245007,0.10578955282566709
553,13.861176504135802,3.042451811617494,0.13861176504135803,0.10588341092113673
554,13.856813675444606,3.0406250305379006,0.13856813675444607,0.10585424782114386
555,13.856813675444606,3.0406250305379006,0.13856813675444607,0.10585424782114386
556,13.796615542689832,3.0228565566335153,0.13796615542689833,0.10580125482741727
557,13.797895167048013,3.0231965550583793,0.13797895167048013,0.10580063537852266
558,13.797895167048013,3.0231965550583793,0.13797895167048013,0.10580063537852266
559,13.797895167048013,3.0231965550583793,0.13797895167048013,0.10580063537852266
560,13.797895167048013,3.0231965550583793,0.13797895167048013,0.10580063537852266
561,13.787612085446009,3.0207655722856273,0.13787612085446008,0.1058198044837666
562,13.786686897859457,3.0204582036660437,0.13786686897859457,0.10581733541674292
563,13.779571069175883,3.0144246917258717,0.13779571069175883,0.1056247557735014
564,13.766514505526084,3.0117829083930836,0.13766514505526084,0.10566994331807332
565,13.766514505526084,3.0117829083930836,0.13766514505526084,0.10566994331807332
566,13.77758628716059,3.0136625678814237,0.1377758628716059,0.10561456949113927
567,13.754022291932204,3.008622606056508,0.13754022291932202,0.10568307877739126
568,13.735835056135794,3.001750713879737,0.13735835056135795,0.10559446325381112
569,13.753098303816214,3.0035240666468823,0.13753098303816214,0.10545363612045619
570,13.75026808804758,3.0024912600606024,0.1375026808804758,0.10544157316394735
571,13.752721382086373,3.002931425515146,0.13752721382086372,0.10543044965199518
572,13.752359001209104,3.002909917644435,0.13752359001209105,0.10543415654630449
573,13.74801478544727,2.999999863843061,0.13748014785447268,0.10535277682312386
574,13.698823378159746,2.986096696649118,0.13698823378159747,0.10533371146926125
575,13.673124119553211,2.981018739394489,0.13673124119553212,0.10542653876076036
576,13.656925171090782,2.9754045792614963,0.1365692517109078,0.10537022957048954
577,13.643907857596991,2.972718248020803,0.1364390785759699,0.10541138609063226
578,13.648424772094721,2.974363178028641,0.13648424772094722,0.10543093428559534
579,13.623944122661301,2.959777039176215,0.13623944122661302,0.10505515240111932
580,13.623944122661301,2.959777039176215,0.13623944122661302,0.10505515240111932
581,13.63025034215118,2.9621608588301833,0.13630250342151182,0.10508680292658347
582,13.63025034215118,2.9621608588301833,0.13630250342151182,0.10508680292658347
583,13.63025034215118,2.9621608588301833,0.13630250342151182,0.10508680292658347
584,13.583355036168738,2.944617314974384,0.13583355036168737,0.10485904703878811
585,13.577814003666019,2.9420300109087956,0.1357781400366602,0.10480742720472176
586,13.521495114922999,2.916868766990455,0.13521495114923,0.10433410111567501
587,13.518593011165944,2.9168992944518983,0.13518593011165944,0.10437316342989951
588,13.49761842888163,2.911339286592603,0.1349761842888163,0.10437826661119415
589,13.48161966219802,2.909718299590101,0.1348161966219802,0.10450730177496971
590,13.48161966219802,2.909718299590101,0.1348161966219802,0.10450730177496971
591,13.47230352320712,2.9045186949348807,0.13472303523207121,0.10437859324213422
592,13.470613385386326,2.904420313645904,0.13470613385386326,0.10439569262476356
593,13.469832052020571,2.9032803213056795,0.13469832052020572,0.10435116512091622
594,13.454278015079224,2.8964791081050905,0.13454278015079224,0.10422586718443023
595,13.454278015079224,2.8964791081050905,0.13454278015079224,0.10422586718443023
596,13.45714561249541,2.8978527774475404,0.1345714561249541,0.10425474075976093
597,13.426981625780074,2.8919217793551346,0.13426981625780074,0.10435915980711886
598,13.381708071740322,2.8666836079024125,0.13381708071740323,0.10372957624176489
599,13.372529015354626,2.86540912686576,0.13372529015354626,0.10378650221491939
600,13.348970376445157,2.8612069228364554,0.13348970376445157,0.10388728611934916
601,13.354151116132869,2.8618820555381075,0.13354151116132867,0.10385319134301942
602,13.310831132045347,2.8451811509401583,0.13310831132045348,0.10360496593705738
603,13.233175745987523,2.8200780696396546,0.13233175745987524,0.10338803926943049
604,13.23333356063315,2.817428080210293,0.1323333356063315,0.10325777980087004
605,13.209151373117214,2.8134754263480657,0.13209151373117214,0.10337594625292779
606,13.209151373117214,2.8134754263480657,0.13209151373117214,0.10337594625292779
607,13.209151373117214,2.8134754263480657,0.13209151373117214,0.10337594625292779
608,13.195746680959394,2.8063552658962196,0.13195746680959394,0.1032026143668711
609,13.157960154536353,2.7940762296220303,0.13157960154536352,0.1030901098718188
610,13.152188781209425,2.7934893026452032,0.13152188781209426,0.10313528034962104
611,13.15716764094632,2.794684190494844,0.13157167640946318,0.10312970411938525
612,13.147179544132753,2.789016314478718,0.13147179544132753,0.10298218364465238
613,13.147179544132753,2.789016314478718,0.13147179544132753,0.10298218364465238
614,13.120749475471433,2.7787416186289855,0.13120749475471433,0.10282027770085755
615,13.097599007740302,2.7735217160826124,0.13097599007740302,0.10286159236600487
616,13.097599007740302,2.7735217160826124,0.13097599007740302,0.10286159236600487
617,13.043360332742141,2.7491876285210406,0.1304336033274214,0.10236674952461512
618,13.043360332742141,2.7491876285210406,0.1304336033274214,0.10236674952461512
619,13.016947374784834,2.734278276066406,0.13016947374784835,0.10197397150681285
620,13.016947374784834,2.734278276066406,0.13016947374784835,0.10197397150681285
621,13.011021054061198,2.7400040089493025,0.13011021054061198,0.10232972785349646
622,13.011021054061198,2.7400040089493025,0.13011021054061198,0.10232972785349646
623,12.994847265993608,2.7348694761456867,0.1299484726599361,0.10228435469223389
624,12.995286146754536,2.7350301278515516,0.12995286146754537,0.1022866319462738
625,12.98490012728291,2.73258992963136,0.12984900127282908,0.10229924811435531
626,12.984924423059203,2.7325932088253784,0.12984924423059202,0.10229910000091813
627,12.984924423059203,2.7325932088253784,0.12984924423059202,0.10229910000091813
628,12.99447311210818,2.7316380537940645,0.1299447311210818,0.10213103050400696
629,12.99447311210818,2.7316380537940645,0.1299447311210818,0.10213103050400696
630,12.982411027079127,2.7311823858117656,0.12982411027079127,0.10226203719130127
631,12.937831113201739,2.724211861329705,0.1293783111320174,0.10248595621802996
632,12.937831113201739,2.724211861329705,0.1293783111320174,0.10248595621802996
633,12.918571993174545,2.720711729579595,0.12918571993174546,0.10255811553218289
634,12.906748270689082,2.7166915901612834,0.12906748270689083,0.10251097896966582
635,12.906748270689082,2.7166915901612834,0.12906748270689083,0.10251097896966582
636,12.89817099845084,2.7147815361081826,0.12898170998450842,0.10252577164086105
637,12.891362305461405,2.713487072031071,0.12891362305461404,0.1025482740529727
638,12.881842629810814,2.71141647055107,0.12881842629810814,0.10256694278172467
639,12.881842629810814,2.71141647055107,0.12881842629810814,0.10256694278172467
640,12.872871275646016,2.708612700421944,0.12872871275646017,0.10254289598155597
641,12.872871275646016,2.708612700421944,0.12872871275646017,0.10254289598155597
642,12.873038819596932,2.7086635870265208,0.12873038819596933,0.10254327391487095
643,12.859378585672008,2.704898358839421,0.12859378585672007,0.10253107737379057
644,12.846761781888993,2.7007249134703692,0.12846761781888993,0.10248570781647227
645,12.8298397353883,2.6898492125903086,0.128298397353883,0.1021665961179496
646,12.831262078726386,2.690606729062592,0.12831262078726385,0.10218580448051355
647,12.82141605768748,2.6896881632843543,0.12821416057687482,0.10226441541616957
648,12.782141218962876,2.669453776610456,0.12782141218962875,0.10176553616993125
649,12.769928405369123,2.6629879169708994,0.12769928405369124,0.10160104340942407
650,12.772694267827426,2.663857815420358,0.12772694267827425,0.10160908555963105
651,12.774430935860813,2.6642039631201935,0.12774430935860814,0.10160428661082244
652,12.774430935860813,2.6642039631201935,0.12774430935860814,0.10160428661082244
653,12.766236760041076,2.661234037774679,0.12766236760041078,0.10156111596671423
654,12.766236760041076,2.661234037774679,0.12766236760041078,0.10156111596671423
655,12.708397355285927,2.6351547248707208,0.12708397355285928,0.1010010441268969
656,12.678753474636952,2.6327198829155147,0.12678753474636953,0.10125275236798892
657,12.66169386994938,2.624751126168369,0.1266169386994938,0.10107255857082235
658,12.632971795006231,2.6170822101664926,0.12632971795006231,0.10105258267022486
659,12.632971795006231,2.6170822101664926,0.12632971795006231,0.10105258267022486
660,12.632971795006231,2.6170822101664926,0.12632971795006231,0.10105258267022486
661,12.632971795006231,2.6170822101664926,0.12632971795006231,0.10105258267022486
662,12.632971795006231,2.6170822101664926,0.12632971795006231,0.10105258267022486
663,12.642128147673612,2.61743634099134,0.12642128147673612,0.10095554962305568
664,12.611595606801776,2.606143891150334,0.12611595606801776,0.1007779962916169
665,12.611595606801776,2.606143891150334,0.12611595606801776,0.1007779962916169
666,12.475348242514226,2.505162099818891,0.12475348242514225,0.09740733864031308
667,12.48040763046885,2.505312907168957,0.1248040763046885,0.09735025223091648
668,12.480859317336716,2.5053745889471233,0.12480859317336716,0.0973476294501112
669,12.480859317336716,2.5053745889471233,0.12480859317336716,0.0973476294501112
670,12.461288181135346,2.5024003884148804,0.12461288181135347,0.09744554156460139
671,12.466961382880003,2.5039241782015984,0.12466961382880003,0.09745116299867261
672,12.466961382880003,2.5039241782015984,0.12466961382880003,0.09745116299867261
673,12.466961382880003,2.5039241782015984,0.12466961382880003,0.09745116299867261
674,12.466961382880003,2.5039241782015984,0.12466961382880003,0.09745116299867261
675,12.466961382880003,2.5039241782015984,0.12466961382880003,0.09745116299867261
676,12.466961382880003,2.5039241782015984,0.12466961382880003,0.09745116299867261
677,12.463020409822775,2.500792376582389,0.12463020409822775,0.09734082387291564
678,12.446312076129121,2.4956053022354925,0.12446312076129122,0.09728815237589397
679,12.400812430020132,2.4776147603794256,0.12400812430020132,0.09694396686406058
680,12.400812430020132,2.4776147603794256,0.12400812430020132,0.09694396686406058
681,12.37947136461645,2.4631744718667186,0.1237947136461645,0.09647079139268692
682,12.37947136461645,2.4631744718667186,0.1237947136461645,0.09647079139268692
683,12.385826457970467,2.465412128738784,0.12385826457970467,0.096505189408092
684,12.385826457970467,2.465412128738784,0.12385826457970467,0.096505189408092
685,12.385826457970467,2.465412128738784,0.12385826457970467,0.096505189408092
686,12.390785657445932,2.466149657565701,0.12390785657445931,0.09647973701653749
687,12.390785657445932,2.466149657565701,0.12390785657445931,0.09647973701653749
688,12.401571161850189,2.4692699467313077,0.12401571161850189,0.09650286389050665
689,12.376412880514007,2.459349520231299,0.12376412880514007,0.09631165881355012
690,12.376412880514007,2.459349520231299,0.12376412880514007,0.09631165881355012
691,12.342558993607986,2.4472603882549144,0.12342558993607985,0.09611830019033736
692,12.342558993607986,2.4472603882549144,0.12342558993607985,0.09611830019033736
693,12.337976100447449,2.4457263370630384,0.1233797610044745,0.09609733578569772
694,12.337976100447449,2.4457263370630384,0.1233797610044745,0.09609733578569772
695,12.328600027288546,2.4450781263765315,0.12328600027288546,0.0961839040613314
696,12.328600027288546,2.4450781263765315,0.12328600027288546,0.0961839040613314
697,12.328600027288546,2.4450781263765315,0.12328600027288546,0.0961839040613314
698,12.31680961859937,2.4419056968813333,0.1231680961859937,0.0961700423766733
699,12.316518900723981,2.441699538600934,0.12316518900723981,0.09616304697138206
700,12.309214721075904,2.4407122123237786,0.12309214721075903,0.0962052255248259
701,12.30929391579927,2.440717610055217,0.1230929391579927,0.09620449277450027
702,12.30929391579927,2.440717610055217,0.1230929391579927,0.09620449277450027
703,12.3079275440689,2.440573789562982,0.123079275440689,0.09621449918086583
704,12.3079275440689,2.440573789562982,0.123079275440689,0.09621449918086583
705,12.30609556488496,2.4403305671152697,0.1230609556488496,0.09622529223621286
706,12.30609556488496,2.4403305671152697,0.1230609556488496,0.09622529223621286
707,12.295843415507303,2.4370838005728714,0.12295843415507303,0.09618763681399645
708,12.297457085593704,2.4381548699541935,0.12297457085593705,0.09622267727692912
709,12.297457085593704,2.4381548699541935,0.12297457085593705,0.09622267727692912
710,12.297457085593704,2.4381548699541935,0.12297457085593705,0.09622267727692912
711,12.290037761219082,2.434876435213889,0.12290037761219082,0.0961470828206441
712,12.290037761219082,2.434876435213889,0.12290037761219082,0.0961470828206441
713,12.290037761219082,2.434876435213889,0.12290037761219082,0.0961470828206441
714,12.29058690330477,2.4352659931114555,0.1229058690330477,0.09616032075833504
715,12.29058690330477,2.4352659931114555,0.1229058690330477,0.09616032075833504
716,12.29058690330477,2.4352659931114555,0.1229058690330477,0.09616032075833504
717,12.29058690330477,2.4352659931114555,0.1229058690330477,0.09616032075833504
718,12.293975057528263,2.4359853141009893,0.12293975057528263,0.09615441159664588
719,12.293975057528263,2.4359853141009893,0.12293975057528263,0.09615441159664588
720,12.293975057528263,2.4359853141009893,0.12293975057528263,0.09615441159664588
721,12.293975057528263,2.4359853141009893,0.12293975057528263,0.09615441159664588
722,12.269512799699989,2.433232132388375,0.12269512799699989,0.09632355314087811
723,12.269512799699989,2.433232132388375,0.12269512799699989,0.09632355314087811
724,12.258128403706477,2.429151360955754,0.12258128403706477,0.09625664867105019
725,12.258128403706477,2.429151360955754,0.12258128403706477,0.09625664867105019
726,12.258128403706477,2.429151360955754,0.12258128403706477,0.09625664867105019
727,12.247466021408979,2.425396673680754,0.12247466021408979,0.09619731982883303
728,12.247466021408979,2.425396673680754,0.12247466021408979,0.09619731982883303
729,12.247466021408979,2.425396673680754,0.12247466021408979,0.09619731982883303
730,12.227609424625884,2.416652354445099,0.12227609424625883,0.09599520988221766
731,12.227609424625884,2.416652354445099,0.12227609424625883,0.09599520988221766
732,12.226629791273165,2.4128273880173956,0.12226629791273165,0.09580827873878701
733,12.226629791273165,2.4128273880173956,0.12226629791273165,0.09580827873878701
734,12.22429925430049,2.412616123269982,0.1222429925430049,0.09582698997062712
735,12.22429925430049,2.412616123269982,0.1222429925430049,0.09582698997062712
736,12.207961621632926,2.4073944552355933,0.12207961621632926,0.09576278952092869
737,12.20237758158277,2.4062150320283227,0.1220237758158277,0.0957723783558279
738,12.188190750583212,2.3965358211790053,0.12188190750583212,0.09544715205038774
739,12.177462747634955,2.392444677610114,0.12177462747634955,0.0953697377531124
740,12.172141444244804,2.3909738381612122,0.12172141444244805,0.09536055603729418
741,12.166577391140551,2.3901837401132533,0.12166577391140551,0.09539012978118486
742,12.14447176355033,2.383602945624428,0.1214447176355033,0.09532685883148126
743,12.142700635819635,2.3824924200031026,0.12142700635819635,0.09529116604868244
744,12.108632070326845,2.3617638278434607,0.12108632070326845,0.09463477805215073
745,12.108632070326845,2.3617638278434607,0.12108632070326845,0.09463477805215073
746,12.108632070326845,2.3617638278434607,0.12108632070326845,0.09463477805215073
747,12.108632070326845,2.3617638278434607,0.12108632070326845,0.09463477805215073
748,12.108632070326845,2.3617638278434607,0.12108632070326845,0.09463477805215073
749,12.108632070326845,2.3617638278434607,0.12108632070326845,0.09463477805215073
750,12.108632070326845,2.3617638278434607,0.12108632070326845,0.09463477805215073
751,12.108632070326845,2.3617638278434607,0.12108632070326845,0.09463477805215073
752,12.108632070326845,2.3617638278434607,0.12108632070326845,0.09463477805215073
753,12.108632070326845,2.3617638278434607,0.12108632070326845,0.09463477805215073
754,12.11070356850805,2.3604113206280397,0.12110703568508051,0.0945367606481893
755,12.117109272062912,2.361284697790211,0.12117109272062912,0.09450086384150576
756,12.117109272062912,2.361284697790211,0.12117109272062912,0.09450086384150576
757,12.117109272062912,2.361284697790211,0.12117109272062912,0.09450086384150576
758,12.117109272062912,2.361284697790211,0.12117109272062912,0.09450086384150576
759,12.117109272062912,2.361284697790211,0.12117109272062912,0.09450086384150576
760,12.117109272062912,2.361284697790211,0.12117109272062912,0.09450086384150576
761,12.117109272062912,2.361284697790211,0.12117109272062912,0.09450086384150576
762,12.117109272062912,2.361284697790211,0.12117109272062912,0.09450086384150576
763,12.09947976364075,2.352181238343528,0.1209947976364075,0.09424474164832794
764,12.09947976364075,2.352181238343528,0.1209947976364075,0.09424474164832794
765,12.086766844242522,2.3484471204058694,0.12086766844242522,0.09420975495855331
766,12.077198048668773,2.3464842691733185,0.12077198048668773,0.09422829416399461
767,12.07955271570043,2.3466863037045913,0.1207955271570043,0.09420883003151748
768,12.07955271570043,2.3466863037045913,0.1207955271570043,0.09420883003151748
769,12.049464248632635,2.339016132419333,0.12049464248632635,0.0941870609812501
770,12.049464248632635,2.339016132419333,0.12049464248632635,0.0941870609812501
771,12.0503261888583,2.339288245833651,0.120503261888583,0.09419047899096857
772,12.0503261888583,2.339288245833651,0.120503261888583,0.09419047899096857
773,12.028057070247257,2.335712344504228,0.12028057070247257,0.09428524675965894
774,12.028057070247257,2.335712344504228,0.12028057070247257,0.09428524675965894
775,12.028057070247257,2.335712344504228,0.12028057070247257,0.09428524675965894
776,12.028057070247257,2.335712344504228,0.12028057070247257,0.09428524675965894
777,12.014551051403174,2.331844210489654,0.12014551051403174,0.09425231248207776
778,12.014551051403174,2.331844210489654,0.12014551051403174,0.09425231248207776
779,12.017142263528635,2.3331432834739942,0.12017142263528635,0.09428818598611033
780,12.021433607179103,2.3337181472187765,0.12021433607179104,0.09426396381972404
781,12.021433607179103,2.3337181472187765,0.12021433607179104,0.09426396381972404
782,12.013568107570682,2.3298074969518825,0.12013568107570682,0.09415674751176828
783,12.013568107570682,2.3298074969518825,0.12013568107570682,0.09415674751176828
784,11.995781694298174,2.3231024974842405,0.11995781694298174,0.0940273743604302
785,11.995781694298174,2.3231024974842405,0.11995781694298174,0.0940273743604302
786,11.964896655155993,2.3076757233780767,0.11964896655155993,0.09359958352965284
787,11.961339456488808,2.306712245381366,0.11961339456488808,0.09359358041275087
788,11.954925126293807,2.3049508768243343,0.11954925126293807,0.09358143667797714
789,11.954925126293807,2.3049508768243343,0.11954925126293807,0.09358143667797714
790,11.954925126293807,2.3049508768243343,0.11954925126293807,0.09358143667797714
791,11.908233213544403,2.284539454729476,0.11908233213544403,0.09308486837546988
792,11.908233213544403,2.284539454729476,0.11908233213544403,0.09308486837546988
793,11.912460597723971,2.288449739071412,0.11912460597723971,0.09324068662060306
794,11.905941131348355,2.2869292634995975,0.11905941131348355,0.0932424217439826
795,11.905941131348355,2.2869292634995975,0.11905941131348355,0.0932424217439826
796,11.885469075471303,2.2753967419982892,0.11885469075471303,0.09288449766018238
797,11.860957277921013,2.259621717069817,0.11860957277921014,0.09234709749543525
798,11.843793878030672,2.25265608485647,0.11843793878030671,0.09219010525016781
799,11.843793878030672,2.25265608485647,0.11843793878030671,0.09219010525016781
800,11.830165415788906,2.2475447252956227,0.11830165415788907,0.09208781611300941
801,11.799994380832201,2.2337001336642968,0.11799994380832202,0.0917224868714091
802,11.80063677472056,2.2339327215472977,0.1180063677472056,0.09172690110640526
803,11.80063677472056,2.2339327215472977,0.1180063677472056,0.09172690110640526
804,11.778814588411265,2.227480570930134,0.11778814588411265,0.09165565120866437
805,11.778814588411265,2.227480570930134,0.11778814588411265,0.09165565120866437
806,11.758490121748643,2.2224475419354777,0.11758490121748644,0.09164205598429541
807,11.758083483646317,2.2223957110445562,0.11758083483646317,0.09164444549238067
808,11.761691104518405,2.2231412312177223,0.11761691104518406,0.09163882664223984
809,11.777152613156208,2.2322694410814092,0.11777152613156208,0.09193781617733195
810,11.777152613156208,2.2322694410814092,0.11777152613156208,0.09193781617733195
811,11.777152613156208,2.2322694410814092,0.11777152613156208,0.09193781617733195
812,11.777152613156208,2.2322694410814092,0.11777152613156208,0.09193781617733195
813,11.777152613156208,2.2322694410814092,0.11777152613156208,0.09193781617733195
814,11.777152613156208,2.2322694410814092,0.11777152613156208,0.09193781617733195
815,11.766329522486904,2.227103315575659,0.11766329522486904,0.09179532729165413
816,11.735029083715164,2.2169292099680113,0.11735029083715164,0.09164170087965434
817,11.706872233749953,2.2131365407653005,0.11706872233749953,0.09179476922961594
818,11.701220714961583,2.2111385300837147,0.11701220714961583,0.09175798972739399
819,11.70086743408548,2.2109190288007485,0.1170086743408548,0.09175053360609559
820,11.693739342012524,2.211057683679903,0.11693739342012524,0.09184891320481633
821,11.698087361915714,2.2116520419907766,0.11698087361915714,0.09182589845575458
822,11.683010789832071,2.2077877981852234,0.11683010789832071,0.09180742818704254
823,11.673848437590381,2.202143373376404,0.11673848437590381,0.09161637407898711
824,11.64409243198214,2.1938344237856233,0.11644092431982139,0.0915415500273065
825,11.607701448409962,2.171584352341004,0.11607701448409963,0.09078529744329841
826,11.599658988455502,2.1711791136533174,0.11599658988455502,0.09086573761153058
827,11.599658988455502,2.1711791136533174,0.11599658988455502,0.09086573761153058
828,11.575731257937846,2.1666187900122336,0.11575731257937846,0.09091992347402413
829,11.5592629010253,2.1636001715292092,0.115592629010253,0.09096343129956186
830,11.5592629010253,2.1636001715292092,0.115592629010253,0.09096343129956186
831,11.553487028300895,2.1629645469741217,0.11553487028300895,0.09100186381843788
832,11.553487028300895,2.1629645469741217,0.11553487028300895,0.09100186381843788
833,11.521854019155603,2.1491828527238983,0.11521854019155603,0.09064500274899753
834,11.521854019155603,2.1491828527238983,0.11521854019155603,0.09064500274899753
835,11.521854019155603,2.1491828527238983,0.11521854019155603,0.09064500274899753
836,11.512301120942801,2.1447010980118133,0.11512301120942801,0.09051907683020217
837,11.512301120942801,2.1447010980118133,0.11512301120942801,0.09051907683020217
838,11.519933218946006,2.1466004477011356,0.11519933218946006,0.09052689291096755
839,11.519933218946006,2.1466004477011356,0.11519933218946006,0.09052689291096755
840,11.519933218946006,2.1466004477011356,0.11519933218946006,0.09052689291096755
841,11.515491353183759,2.145977704740509,0.11515491353183759,0.09054900848093313
842,11.501935131221519,2.142684366291134,0.11501935131221519,0.0905394526525788
843,11.475417211016152,2.1310169212841874,0.11475417211016152,0.09023108774781173
844,11.476195693985044,2.1310833998628746,0.11476195693985045,0.09022487039594271
845,11.480213992145908,2.135188139545506,0.11480213992145907,0.09040105123785228
846,11.48602243927732,2.137242541426233,0.1148602243927732,0.090440888245882
847,11.48602243927732,2.137242541426233,0.1148602243927732,0.090440888245882
848,11.48602243927732,2.137242541426233,0.1148602243927732,0.090440888245882
849,11.464986972694366,2.1344740667733104,0.11464986972694366,0.09055466878813015
850,11.443795764476405,2.1327748196465754,0.11443795764476405,0.09072872779093148
851,11.438147595264024,2.130079359163452,0.11438147595264024,0.09065137368253226
852,11.438147595264024,2.130079359163452,0.11438147595264024,0.09065137368253226
853,11.41939416727542,2.122677154901571,0.1141939416727542,0.09047936358228499
854,11.41939416727542,2.122677154901571,0.1141939416727542,0.09047936358228499
855,11.41939416727542,2.122677154901571,0.1141939416727542,0.09047936358228499
856,11.41939416727542,2.122677154901571,0.1141939416727542,0.09047936358228499
857,11.41939416727542,2.122677154901571,0.1141939416727542,0.09047936358228499
858,11.41939416727542,2.122677154901571,0.1141939416727542,0.09047936358228499
859,11.41939416727542,2.122677154901571,0.1141939416727542,0.09047936358228499
860,11.41463408279532,2.120558817785458,0.1141463408279532,0.09042234819691049
861,11.41463408279532,2.120558817785458,0.1141463408279532,0.09042234819691049
862,11.41463408279532,2.120558817785458,0.1141463408279532,0.09042234819691049
863,11.354193568971224,2.1014887403808356,0.11354193568971224,0.09012833208065932
864,11.348738225696922,2.099830178928795,0.11348738225696922,0.09010502681731192
865,11.347387179318764,2.0997129008590525,0.11347387179318763,0.09011553378221615
866,11.355465341091733,2.102029864938013,0.11355465341091733,0.09014232822656941
867,11.342054900762648,2.0981316116990008,0.11342054900762648,0.09009492316328711
868,11.322027305704445,2.0885645857031636,0.11322027305704445,0.08981545315768288
869,11.272885725839075,2.0763613484336094,0.11272885725839074,0.08975421007146941
870,11.245391037239145,2.061307140964748,0.11245391037239144,0.08925911410946018
871,11.245391037239145,2.061307140964748,0.11245391037239144,0.08925911410946018
872,11.245391037239145,2.061307140964748,0.11245391037239144,0.08925911410946018
873,11.212138411032427,2.045120289163785,0.11212138411032427,0.08876935347755428
874,11.162232651755259,2.037260472509245,0.11162232651755259,0.08895538740234527
875,11.130630810465123,2.0276997158739896,0.11130630810465122,0.08881386679371835
876,11.130630810465123,2.0276997158739896,0.11130630810465122,0.08881386679371835
877,11.121942047813864,2.026872527532825,0.11121942047813864,0.08887612606226289
878,11.128339431488136,2.027730320047161,0.11128339431488136,0.08884429835521376
879,11.134954915809738,2.0284858275651096,0.11134954915809737,0.0888039198343156
880,11.134954915809738,2.0284858275651096,0.11134954915809737,0.0888039198343156
881,11.117692121382962,2.021495442087069,0.11117692121382962,0.0886264441929417
882,11.0919129796087,2.0168587171623713,0.11091912979608701,0.08868784480921
883,11.090244980687991,2.0166599744421907,0.11090244980687991,0.08869749923901117
884,11.07484629508282,2.0141056582383112,0.1107484629508282,0.08874589870192394
885,11.063065842186914,2.012747668033735,0.11063065842186914,0.08881629409900564
886,11.063065842186914,2.012747668033735,0.11063065842186914,0.08881629409900564
887,11.063065842186914,2.012747668033735,0.11063065842186914,0.08881629409900564
888,11.02392201568218,2.0026372390903084,0.1102392201568218,0.08873379700046008
889,10.978635251438732,1.9841491543421417,0.10978635251438731,0.08825218606362167
890,10.958284800567041,1.9795245055879773,0.1095828480056704,0.08824309876044648
891,10.97241030447833,1.9849918095905594,0.1097241030447833,0.08837725559737283
892,10.96752848936334,1.9837379988005814,0.1096752848936334,0.08836691615930797
893,10.936857111062665,1.9646079482996133,0.10936857111062664,0.08766182256955382
894,10.931942393849138,1.9639661751281285,0.10931942393849138,0.08768651721352425
895,10.931942393849138,1.9639661751281285,0.10931942393849138,0.08768651721352425
896,10.931942393849138,1.9639661751281285,0.10931942393849138,0.08768651721352425
897,10.931942393849138,1.9639661751281285,0.10931942393849138,0.08768651721352425
898,10.921031732138026,1.9627595542402434,0.10921031732138026,0.0877536445565987
899,10.921031732138026,1.9627595542402434,0.10921031732138026,0.0877536445565987
900,10.921031732138026,1.9627595542402434,0.10921031732138026,0.0877536445565987
901,10.921031732138026,1.9627595542402434,0.10921031732138026,0.0877536445565987
902,10.921031732138026,1.9627595542402434,0.10921031732138026,0.0877536445565987
903,10.914479992972236,1.9610636489222117,0.10914479992972236,0.0877385270991199
904,10.914479992972236,1.9610636489222117,0.10914479992972236,0.0877385270991199
905,10.914262141979027,1.9610519440315117,0.10914262141979027,0.08774057003422907
906,10.914262141979027,1.9610519440315117,0.10914262141979027,0.08774057003422907
907,10.886938689028497,1.9542223364669378,0.10886938689028497,0.08769082028811696
908,10.859834373344809,1.9382432478095095,0.10859834373344808,0.08711390369193057
909,10.863865785675626,1.9404144074971001,0.10863865785675626,0.08718822222097232
910,10.863865785675626,1.9404144074971001,0.10863865785675626,0.08718822222097232
911,10.866745510182287,1.9419609070340758,0.10866745510182288,0.08724100682611399
912,10.868301156520792,1.942591872676806,0.10868301156520792,0.08725778890096256
913,10.846847932675486,1.941010263294805,0.10846847932675485,0.08743392719928235
914,10.821379302209518,1.932413296898056,0.10821379302209518,0.08725771008198477
915,10.821379302209518,1.932413296898056,0.10821379302209518,0.08725771008198477
916,10.821379302209518,1.932413296898056,0.10821379302209518,0.08725771008198477
917,10.834975252496282,1.9402449995771422,0.10834975252496282,0.08753731275033942
918,10.831060563042287,1.9377567353402592,0.10831060563042287,0.0874435821622925
919,10.831060563042287,1.9377567353402592,0.10831060563042287,0.0874435821622925
920,10.831060563042287,1.9377567353402592,0.10831060563042287,0.0874435821622925
921,10.837984913454443,1.939287258425964,0.10837984913454443,0.08744530225136755
922,10.843464368837601,1.9400797467409978,0.10843464368837602,0.0874226830724436
923,10.843589732083514,1.9397375049707728,0.10843589732083514,0.08740155159911651
924,10.843589732083514,1.9397375049707728,0.10843589732083514,0.08740155159911651
925,10.843589732083514,1.9397375049707728,0.10843589732083514,0.08740155159911651
926,10.84075210957494,1.9383717733531385,0.1084075210957494,0.08735861207348725
927,10.838287566871223,1.9367380364661804,0.10838287566871223,0.08729566212843723
928,10.812745220729518,1.9307649429726075,0.10812745220729518,0.08727028995531738
929,10.812745220729518,1.9307649429726075,0.10812745220729518,0.08727028995531738
930,10.8143543659892,1.9308773354219795,0.108143543659892,0.08725678952895773
931,10.8143543659892,1.9308773354219795,0.108143543659892,0.08725678952895773
932,10.779711930439149,1.9220921564679396,0.10779711930439148,0.08718200866207537
933,10.767568500321678,1.9183218495927536,0.10767568500321678,0.08711581575704594
934,10.756111549887958,1.9155054871055048,0.10756111549887958,0.08709570198173809
935,10.745488059259301,1.912775922840165,0.10745488059259302,0.0870701318778904
936,10.745488059259301,1.912775922840165,0.10745488059259302,0.0870701318778904
937,10.745488059259301,1.912775922840165,0.10745488059259302,0.0870701318778904
938,10.746416019333552,1.9129871537945378,0.10746416019333552,0.0870708091835978
939,10.745985328740806,1.9123710448507238,0.10745985328740806,0.08704073977141952
940,10.745985328740806,1.9123710448507238,0.10745985328740806,0.08704073977141952
941,10.74398433310428,1.9121287152301927,0.1074398433310428,0.08705152047668613
942,10.746652724260358,1.9125465752670354,0.10746652724260358,0.08704258311358354
943,10.746652724260358,1.9125465752670354,0.10746652724260358,0.08704258311358354
944,10.746652724260358,1.9125465752670354,0.10746652724260358,0.08704258311358354
945,10.746652724260358,1.9125465752670354,0.10746652724260358,0.08704258311358354
946,10.746652724260358,1.9125465752670354,0.10746652724260358,0.08704258311358354
947,10.746652724260358,1.9125465752670354,0.10746652724260358,0.08704258311358354
948,10.737384916412944,1.9111564334789584,0.10737384916412944,0.0870770971637684
949,10.722537336858217,1.9088434742988416,0.10722537336858216,0.08712722909031691
950,10.697511151777446,1.9033793809964739,0.10697511151777446,0.08712129088646733
951,10.697511151777446,1.9033793809964739,0.10697511151777446,0.08712129088646733
952,10.697511151777446,1.9033793809964739,0.10697511151777446,0.08712129088646733
953,10.715154495847607,1.907103849350155,0.10715154495847606,0.08711822373368981
954,10.65449170685759,1.8922454299429057,0.1065449170685759,0.08700939573562927
955,10.656673291542713,1.8930035503504934,0.10656673291542713,0.08702624281926086
956,10.656673291542713,1.8930035503504934,0.10656673291542713,0.08702624281926086
957,10.656673291542713,1.8930035503504934,0.10656673291542713,0.08702624281926086
958,10.663927650168727,1.895990774934793,0.10663927650168727,0.087108968863973
959,10.663927650168727,1.895990774934793,0.10663927650168727,0.087108968863973
960,10.663927650168727,1.895990774934793,0.10663927650168727,0.087108968863973
961,10.663927650168727,1.895990774934793,0.10663927650168727,0.087108968863973
962,10.663927650168727,1.895990774934793,0.10663927650168727,0.087108968863973
963,10.666836685483919,1.8970773952261457,0.10666836685483919,0.08713571865075137
964,10.604458317508849,1.8894738776340718,0.10604458317508848,0.08746019183355624
965,10.609538006495109,1.890181855135836,0.10609538006495109,0.08743905809323393
966,10.57387769303947,1.8824894850613707,0.10573877693039471,0.08743114950564206
967,10.591547153238569,1.8838437376256167,0.10591547153238569,0.08729461762519247
968,10.591547153238569,1.8838437376256167,0.10591547153238569,0.08729461762519247
969,10.593872352614962,1.8841850282305468,0.10593872352614962,0.08728595041560526
970,10.601947960012035,1.886952200102459,0.10601947960012036,0.08734639057422038
971,10.565440294849362,1.882564499165805,0.10565440294849361,0.08753737561325102
972,10.57292616509128,1.886033143700762,0.1057292616509128,0.08764504930548239
973,10.558687525716799,1.8832899083326016,0.10558687525716799,0.08766020109920614
974,10.559474306240238,1.8834544202493086,0.10559474306240238,0.0876601074610242
975,10.561449859743483,1.8835940875581065,0.10561449859743482,0.08764427283966422
976,10.51273182289116,1.862798582257212,0.1051273182289116,0.08704155780182977
977,10.51273182289116,1.862798582257212,0.1051273182289116,0.08704155780182977
978,10.493484914980613,1.8573220029244668,0.10493484914980612,0.08695917124232555
979,10.493842909369752,1.8573498964316801,0.10493842909369752,0.08695645498560656
980,10.474018257047053,1.8534776292408588,0.10474018257047053,0.0869728144164203
981,10.474018257047053,1.8534776292408588,0.10474018257047053,0.0869728144164203
982,10.463021235489634,1.8523055234491332,0.10463021235489635,0.08703777281767168
983,10.469555435473765,1.853578021233394,0.10469555435473765,0.08703229923820302
984,10.484400577057293,1.8562344349166777,0.10484400577057293,0.08700619979718024
985,10.483468736299864,1.8560457416724618,0.10483468736299864,0.0870065844762737
986,10.483468736299864,1.8560457416724618,0.10483468736299864,0.0870065844762737
987,10.483468736299864,1.8560457416724618,0.10483468736299864,0.0870065844762737
988,10.465405686347625,1.8504161450071628,0.10465405686347624,0.08690045933185801
989,10.461588576374075,1.8490395807019926,0.10461588576374074,0.0868672104587679
990,10.440151684564588,1.8428019563909848,0.10440151684564589,0.08676602355898398
991,10.448869631172276,1.8431637710950852,0.10448869631172275,0.08668189000031915
992,10.42080090764403,1.8378970004647313,0.1042080090764403,0.08671597804886852
993,10.42080090764403,1.8378970004647313,0.1042080090764403,0.08671597804886852
994,10.42080090764403,1.8378970004647313,0.1042080090764403,0.08671597804886852
995,10.42080090764403,1.8378970004647313,0.1042080090764403,0.08671597804886852
996,10.405334003932488,1.8338030466452908,0.10405334003932488,0.08666563847981239
997,10.405334003932488,1.8338030466452908,0.10405334003932488,0.08666563847981239
998,10.370881724891918,1.8281716012500526,0.10370881724891917,0.08675365835128113
999,10.370881724891918,1.8281716012500526,0.10370881724891917,0.08675365835128113
