,Sum X,Sum X_square,Mean,StdDev
0,180.1168827616472,330.1596548531878,1.801168827616472,0.23955668004583475
1,153.16182190808323,249.43199988341024,1.5316182190808323,0.38531237952311154
2,133.82258748170568,200.3185193456118,1.3382258748170568,0.46080006665173234
3,115.01448967469288,156.8702217929125,1.1501448967469288,0.4958517262409415
4,105.69758940720466,137.18815616228233,1.0569758940720466,0.5046617886995419
5,88.79257001005473,103.22050499086876,0.8879257001005473,0.49375398834808476
6,81.93648926943536,90.90992319477152,0.8193648926943535,0.4875863047376185
7,77.80523397698425,84.01146443153976,0.7780523397698426,0.4845092371607286
8,72.61615426319838,76.3725641664424,0.7261615426319838,0.4862253136836477
9,67.68047470201742,69.54448108336115,0.6768047470201742,0.4872167333380182
10,61.27455476509516,59.50508327951978,0.6127455476509516,0.468608286982991
11,56.210836819813515,52.069510971627935,0.5621083681981351,0.452470211304467
12,51.481754199476164,47.01877725977151,0.5148175419947616,0.45293561468732724
13,49.38420534390888,43.911663473089774,0.4938420534390888,0.4418559278610641
14,47.57170743386106,42.439198952207654,0.47571707433861055,0.44506769676622165
15,43.79010205809321,37.548977569554125,0.4379010205809321,0.42864025927311045
16,41.23901652167547,34.165733023601824,0.41239016521675464,0.4142362633431748
17,39.67281078141129,32.27295241960261,0.39672810781411294,0.40661570636936756
18,36.1458976332414,27.48797112114287,0.361458976332414,0.3797724577166597
19,34.76555358857204,26.450433367978682,0.3476555358857204,0.3789986306674463
20,34.06974241699579,25.899602445059138,0.34069742416995785,0.3780493216692065
21,31.624338652139315,22.48123119540588,0.31624338652139317,0.35327387737496174
22,28.66582532781655,19.609581976431226,0.28665825327816546,0.3375246147939782
23,27.599233174722766,18.51764385771181,0.27599233174722765,0.3301585549305763
24,26.476936280017988,16.800638232538834,0.2647693628001799,0.3128954567387885
25,25.055248321508323,15.825037582658876,0.2505524832150832,0.3089883961920645
26,23.11386028273151,13.975273866769635,0.23113860282731508,0.2938157329870765
27,22.70446184427781,13.648915950088172,0.2270446184427781,0.2914445071313835
28,22.019707421027654,13.284737793311688,0.22019707421027654,0.2904490083342528
29,20.47478393982712,12.039463601230949,0.2047478393982712,0.28013025233638944
30,19.432121711536762,10.183168676485396,0.19432121711536762,0.25312240387539015
31,18.407267913699705,9.570764464593575,0.18407267913699704,0.24864612090532173
32,18.26819659694965,9.531629603670249,0.1826819659694965,0.24888470291727896
33,17.469198916936513,8.679409570172705,0.17469198916936513,0.2372273268866331
34,17.13380188019747,8.578668012182472,0.17133801880197472,0.23754991777485185
35,16.697638893092158,8.426110410965183,0.1669763889309216,0.23744470861495617
36,16.466320561445396,8.373128396814007,0.16466320561445397,0.23794392760672026
37,16.08494126508912,8.266519261984737,0.1608494126508912,0.23831210432898847
38,15.77255178718081,8.173638684621109,0.1577255178718081,0.23845135323222855
39,14.534846954246863,7.014616480776768,0.14534846954246863,0.22140457811307732
40,14.217549479560217,6.914185716491795,0.14217549479560218,0.22119671300573984
41,13.798833804586522,6.444196855991323,0.13798833804586522,0.2130755432311584
42,13.540020160101783,6.3574919503625535,0.13540020160101782,0.21270097533868826
43,13.07814521388358,6.225429380639813,0.1307814521388358,0.2124864832944805
44,12.677668315842983,6.1447747876064405,0.12677668315842983,0.21301507102412146
45,12.224291915377464,5.836251098639802,0.12224291915377464,0.20837269423598126
46,11.938628454630047,5.778772513832726,0.11938628454630047,0.20864956314489863
47,11.775389627877443,5.741991026809263,0.11775389627877443,0.2086957838080594
48,11.44767583922024,5.6851097662333485,0.11447675839220241,0.20915584966800904
49,11.10494393205124,5.176872004364767,0.11104943932051241,0.19858686278363807
50,9.962150570317373,3.615384953877228,0.09962150570317373,0.16195494787194617
51,9.354596511667188,2.877038687210764,0.09354596511667188,0.14149042116870686
52,8.50949046621369,2.0289328711641708,0.0850949046621369,0.11422865626533273
53,8.314156175947925,1.976182244435464,0.08314156175947925,0.1133547667835338
54,8.076086543053068,1.9464639743466985,0.08076086543053068,0.11376432814541955
55,7.785527047653252,1.8999174450668381,0.07785527047653253,0.11374414846353348
56,7.599816163074113,1.8645529315739457,0.07599816163074113,0.1134451794678258
57,7.216363870114902,1.6096946319504994,0.07216363870114902,0.10435207505802183
58,7.103586386647541,1.5964274441570627,0.07103586386647541,0.10449009755146274
59,6.865299756956148,1.562931576606804,0.06865299756956147,0.10448005403320686
60,6.713682112345046,1.5286211212695595,0.06713682112345046,0.10382128135470786
61,6.328158076450874,1.0355297735085385,0.06328158076450874,0.07969152571654242
62,5.929931122095185,0.7934404224375904,0.059299311220951854,0.06646800668815485
63,5.787406879126849,0.7791907781223056,0.057874068791268496,0.06665208130858764
64,5.672194032981459,0.7675814548836742,0.056721940329814584,0.06677152113032693
65,5.101339293503757,0.4763998396958335,0.051013392935037566,0.04649335585020503
66,5.068259000180774,0.4727539158616273,0.05068259000180774,0.04646304154190652
67,5.03127876516857,0.4692385806555454,0.050312787651685696,0.04648665620661307
68,4.754149499106688,0.39820630765473486,0.047541494991066885,0.04149541336776525
69,4.611620243160392,0.3678564195863463,0.046116202431603914,0.03939365518901226
70,4.497115779622771,0.3595704517597582,0.044971157796227706,0.039664839392897715
71,4.466941108084283,0.35549098995278033,0.04466941108084283,0.039491183993626715
72,4.420996635962314,0.35063739879454686,0.04420996635962313,0.03939356371828347
73,4.277025988883103,0.29847075720611227,0.04277025988883103,0.0339913583297722
74,4.260268934569403,0.29799571008812,0.04260268934569403,0.03413162699602069
75,4.1581819121622665,0.2860029775908943,0.04158181912162266,0.03363007722925416
76,4.09940514003136,0.28295921170933747,0.0409940514003136,0.0338980805781363
77,4.037471806810393,0.2856598082077871,0.04037471806810393,0.03502113965876886
78,4.05103613461756,0.2862612954545048,0.0405103613461756,0.03495030154587125
79,4.061287747903369,0.2781872842202652,0.040612877479033686,0.03365214740660171
80,3.981021539822454,0.2723917416617102,0.03981021539822454,0.03375002468982901
81,3.9134279839007564,0.26665163778669904,0.039134279839007566,0.03369012495300717
82,3.8974627259482566,0.2676495363774924,0.038974627259482565,0.034021666534126783
83,3.782101107476584,0.2562808496788501,0.03782101107476584,0.03365084869763229
84,3.7105361618965143,0.25036706374617224,0.03710536161896514,0.03356877681101221
85,3.6119881030681276,0.21052338906952833,0.036119881030681276,0.028294665310349833
86,3.5812243818451055,0.20850413616666535,0.03581224381845106,0.028328864332240137
87,3.4671804031431153,0.17665924791735843,0.03467180403143115,0.023758335050664197
88,3.422466509222435,0.17293778955772887,0.03422466509222435,0.02362308605797238
89,3.4289462554792554,0.1732098982809151,0.03428946255479255,0.02358668566188625
90,3.377246471955509,0.16890877719748668,0.03377246471955509,0.023420256163015667
91,3.371659039296067,0.16712123643751736,0.03371659039296067,0.02311717752340207
92,3.371537711026244,0.16695641825911198,0.03371537711026244,0.023083273790862315
93,3.3081689573119224,0.15983534768388996,0.03308168957311922,0.022448948568400136
94,3.2916562426187914,0.15837583988184142,0.032916562426187915,0.02236645516976904
95,3.2746186058041147,0.15770206100397194,0.032746186058041145,0.022465705167919195
96,3.2438994593740773,0.1565688512218451,0.03243899459374077,0.022658334933655388
97,3.1571138246396675,0.1471763960824155,0.03157113824639667,0.021795118505093393
98,3.086441012244517,0.14253277890236188,0.03086441012244517,0.021742032490480803
99,3.0559482643500875,0.14083966567294665,0.030559482643500877,0.02178335780569734
100,3.0235578672013412,0.13997348612461857,0.030235578672013413,0.02203507757224089
101,3.019238427613537,0.1389131232538415,0.03019238427613537,0.02185294406391479
102,2.9693492238113706,0.13045059958626384,0.029693492238113704,0.02056216220555902
103,2.9612682648731115,0.13009674266696672,0.029612682648731115,0.020592631036737544
104,2.9408297117235893,0.1289915198177765,0.029408297117235895,0.020617159330085708
105,2.9192018097691754,0.12762094021213982,0.029192018097691754,0.02059212183106528
106,2.8744133185241934,0.12096040883375235,0.028744133185241934,0.019580063732444714
107,2.864764191164248,0.1196745038391302,0.02864764191164248,0.019392205941914063
108,2.8252087129273784,0.11731912222833382,0.028252087129273785,0.019365195457915235
109,2.791498316691224,0.11458077201717451,0.027914983166912242,0.019145794184696318
110,2.7822440918559197,0.11442315874025746,0.027822440918559198,0.019239110393566992
111,2.769115832494517,0.11402208665190824,0.027691158324945172,0.019324094212715432
112,2.728718148915651,0.11231112209860566,0.02728718148915651,0.01945561480303028
113,2.7331335887131285,0.11248145401667668,0.027331335887131283,0.01943740257317259
114,2.719430998961797,0.11212912744700305,0.027194309989617967,0.019538699512981796
115,2.718888520207659,0.11252617936970741,0.027188885202076588,0.01964755239630053
116,2.7040206077090607,0.11223714898058204,0.02704020607709061,0.019778744781059607
117,2.6886519996474663,0.11154112962955481,0.026886519996474664,0.019812277475714804
118,2.631166773656725,0.1054331852391667,0.02631166773656725,0.01902703322413016
119,2.6313601792459838,0.1054406488711839,0.026313601792459836,0.019026319912681312
120,2.613128016050225,0.10299291841821584,0.026131280160502247,0.018630227624897664
121,2.540138292584392,0.09866283846474078,0.02540138292584392,0.018476962144845475
122,2.5354958738335833,0.0986645868994145,0.025354958738335834,0.01854108778824566
123,2.5392385761936813,0.09903051138353153,0.025392385761936812,0.018588487274447694
124,2.5229855709349147,0.09865859208193156,0.025229855709349148,0.01870936401123079
125,2.5188128643574332,0.09836410161971827,0.025188128643574333,0.018686872173585736
126,2.4922565218181805,0.09673647725280583,0.024922565218181803,0.01860727050035907
127,2.4968352459730845,0.0969564081468196,0.024968352459730846,0.018604984732991547
128,2.4906578504724486,0.09669343604671929,0.024906578504724487,0.018617107929407
129,2.4919898645955625,0.09668805011325404,0.024919898645955625,0.018597826556020988
130,2.4782891559746916,0.09617361443790873,0.024782891559746917,0.0186425435581337
131,2.4582699058633244,0.09437914838301348,0.024582699058633244,0.018425047919145475
132,2.408951927961418,0.09191129113804039,0.02408951927961418,0.018406737143163116
133,2.3677176032170895,0.08995508404084301,0.023677176032170896,0.018410382276042567
134,2.3677176032170895,0.08995508404084301,0.023677176032170896,0.018410382276042567
135,2.3691653139027804,0.08951882663610497,0.023691653139027803,0.01827276218586133
136,2.3637108554993547,0.08938063805053828,0.023637108554993548,0.018305558709442157
137,2.358863271861953,0.0887154152526119,0.02358863271861953,0.01818599898251925
138,2.3476681922121285,0.08841736924015495,0.023476681922121285,0.01824881087438557
139,2.342007577590321,0.08817342552020446,0.023420075775903212,0.018254706402815582
140,2.32190290617701,0.08773530382096027,0.0232190290617701,0.018391023017719218
141,2.297180554629447,0.08623651444449434,0.02297180554629447,0.018293750145560044
142,2.3118801228791304,0.08651737290525738,0.023118801228791303,0.01818501467682145
143,2.3118801228791304,0.08651737290525738,0.023118801228791303,0.01818501467682145
144,2.3055566638856706,0.08521450472124073,0.023055566638856707,0.017904912570957863
145,2.3080446582503846,0.08500203297063931,0.023080446582503845,0.01781329041077419
146,2.301851173237249,0.08451316165784521,0.02301851173237249,0.01775611821894307
147,2.292893664654066,0.08396734699558724,0.02292893664654066,0.017718276841013555
148,2.276141600314311,0.08255213584243261,0.02276141600314311,0.01753394707292647
149,2.269965158977288,0.08278054854352748,0.022699651589772878,0.017678554893944147
150,2.267676606130706,0.08258954645124597,0.022676766061307058,0.017653887546747658
151,2.274811976856119,0.0830867805856926,0.022748119768561188,0.017702848721381587
152,2.274811976856119,0.0830867805856926,0.022748119768561188,0.017702848721381587
153,2.2609293249995654,0.08242383899891531,0.022609293249995655,0.017693452142667185
154,2.2662676259381582,0.08308470475524675,0.022662676259381582,0.01781151740630006
155,2.2757175328893013,0.08347237198407373,0.022757175328893015,0.01779985086709325
156,2.25562217990572,0.08293722688120099,0.0225562217990572,0.01790500284735377
157,2.245062738175851,0.08273936827522363,0.02245062738175851,0.01798229720913519
158,2.245062738175851,0.08273936827522363,0.02245062738175851,0.01798229720913519
159,2.243863099996205,0.08269451288923071,0.02243863099996205,0.017984798240176323
160,2.213021249947761,0.08125218566029732,0.022130212499477612,0.01796595534144895
161,2.216047847218738,0.0813638878699775,0.02216047847218738,0.017959734758160956
162,2.2076221033845265,0.08101441240465375,0.022076221033845263,0.01796620685930521
163,2.1972570028735214,0.0804271881865608,0.021972570028735216,0.017929808928093323
164,2.2136221475606184,0.08207961115439723,0.022136221475606184,0.01818746299863958
165,2.2228840535354033,0.08226162875643525,0.02222884053535403,0.018124429260480288
166,2.2228840535354033,0.08226162875643525,0.02222884053535403,0.018124429260480288
167,2.2228840535354033,0.08226162875643525,0.02222884053535403,0.018124429260480288
168,2.2229433575908706,0.08226276609418791,0.022229433575908706,0.018124015665302813
169,2.207957127292357,0.08162633835469008,0.022079571272923572,0.018131627504192473
170,2.210083203960413,0.08168895450316294,0.02210083203960413,0.01812299004548744
171,2.210083203960413,0.08168895450316294,0.02210083203960413,0.01812299004548744
172,2.210083203960413,0.08168895450316294,0.02210083203960413,0.01812299004548744
173,2.200063176686255,0.08138809839866769,0.022000631766862552,0.018161860748436412
174,2.202049722181468,0.08125557364903124,0.02202049722181468,0.01810119992139649
175,2.1848706930987523,0.08036653380498344,0.021848706930987522,0.018063757734581482
176,2.1878165878719966,0.08039316525535871,0.021878165878719966,0.018035451486913226
177,2.1422887882270842,0.07396185747313554,0.02142288788227084,0.016753460822021473
178,2.1384831867643452,0.07387845254394733,0.021384831867643454,0.016777171735191075
179,2.1106240867329573,0.07268947114676773,0.021106240867329575,0.016775616469088227
180,2.1084613431668076,0.07252323837537247,0.021084613431668075,0.01675325222727954
181,2.1069784160954232,0.07250766295752234,0.021069784160954234,0.016767254545274415
182,2.113888061300227,0.07281554834679929,0.02113888061300227,0.016772096168852293
183,2.10966245573111,0.07258884541764381,0.021096624557311098,0.016757711253757072
184,2.1103352903615806,0.07260152133198604,0.021103352903615806,0.016753020908042548
185,2.108000359952224,0.07253277933477836,0.02108000359952224,0.01676189850798271
186,2.108000359952224,0.07253277933477836,0.02108000359952224,0.01676189850798271
187,2.108489572945865,0.07255168760188363,0.02108489572945865,0.01676138562579755
188,2.106657448726894,0.07252087817366662,0.02106657448726894,0.016775226410067182
189,2.106657448726894,0.07252087817366662,0.02106657448726894,0.016775226410067182
190,2.102655883325031,0.07247637099795955,0.02102655883325031,0.01681212460135419
191,2.0790961974852795,0.07156384168689163,0.020790961974852796,0.016833725583754223
192,2.073649142861406,0.07087257185835708,0.02073649142861406,0.016695018473023217
193,2.073649142861406,0.07087257185835708,0.02073649142861406,0.016695018473023217
194,2.0624693486753,0.07003227456930639,0.020624693486753,0.016581458448235255
195,2.0624428036932025,0.07003119517428817,0.020624428036932027,0.016581463140877942
196,2.061073359299491,0.06996007241258469,0.02061073359299491,0.016577043912725756
197,2.042875152494432,0.06875168629798635,0.020428751524944323,0.016437243507107523
198,2.042875152494432,0.06875168629798635,0.020428751524944323,0.016437243507107523
199,2.042875152494432,0.06875168629798635,0.020428751524944323,0.016437243507107523
200,2.042875152494432,0.06875168629798635,0.020428751524944323,0.016437243507107523
201,2.0245281453710717,0.06766331495831039,0.02024528145371072,0.016332842019781513
202,2.0245281453710717,0.06766331495831039,0.02024528145371072,0.016332842019781513
203,2.0123974148923987,0.06722163755345992,0.020123974148923987,0.016347539264000507
204,1.99051756020231,0.06658378217519655,0.0199051756020231,0.01642016461563616
205,1.99051756020231,0.06658378217519655,0.0199051756020231,0.01642016461563616
206,1.9859245101942808,0.06639749374947398,0.01985924510194281,0.016419053610841897
207,1.9929675249310388,0.06695823822894177,0.01992967524931039,0.01650425480736536
208,1.9868473017390293,0.06671996892472841,0.019868473017390295,0.01650586166198293
209,1.9868473017390293,0.06671996892472841,0.019868473017390295,0.01650586166198293
210,1.9868473017390293,0.06671996892472841,0.019868473017390295,0.01650586166198293
211,1.9868473017390293,0.06671996892472841,0.019868473017390295,0.01650586166198293
212,1.962425527805169,0.0647305565001513,0.01962425527805169,0.0161924108700148
213,1.9714499886417745,0.06501362529653193,0.019714499886417745,0.016170180802754
214,1.9714499886417745,0.06501362529653193,0.019714499886417745,0.016170180802754
215,1.9714499886417745,0.06501362529653193,0.019714499886417745,0.016170180802754
216,1.9690072189349808,0.06491155718689753,0.019690072189349806,0.01616838362506187
217,1.965195321537887,0.06479187409310225,0.01965195321537887,0.016177746312499235
218,1.965195321537887,0.06479187409310225,0.01965195321537887,0.016177746312499235
219,1.9673774067817065,0.06487560770696242,0.019673774067817066,0.016177103912570785
220,1.9673774067817065,0.06487560770696242,0.019673774067817066,0.016177103912570785
221,1.9673690548470315,0.06487554830362813,0.019673690548470315,0.01617718712382691
222,1.9725500798809295,0.06497808953576878,0.019725500798809293,0.01614575837778646
223,1.976688193056586,0.0650246113836946,0.01976688193056586,0.01610951559110375
224,1.9526405204460637,0.06070704758201055,0.019526405204460636,0.015026309447476384
225,1.9466744889786671,0.06059047651501705,0.019466744889786673,0.015064879971182474
226,1.9466744889786671,0.06059047651501705,0.019466744889786673,0.015064879971182474
227,1.9399753513817846,0.06045376964639317,0.019399753513817845,0.015105868398309442
228,1.9390767222730085,0.06035391632124024,0.019390767222730084,0.015084339883677344
229,1.925211086858261,0.05838004204118984,0.01925211086858261,0.014599885188442466
230,1.9085914238487667,0.057419211744954686,0.019085914238487666,0.014488616052978997
231,1.9016045461370261,0.05680971399498301,0.01901604546137026,0.014369660920179349
232,1.894668425233242,0.05707343690371624,0.01894668425233242,0.014551890766480521
233,1.894668425233242,0.05707343690371624,0.01894668425233242,0.014551890766480521
234,1.894668425233242,0.05707343690371624,0.01894668425233242,0.014551890766480521
235,1.894668425233242,0.05707343690371624,0.01894668425233242,0.014551890766480521
236,1.888914244287865,0.05689959428293619,0.01888914244287865,0.014566957149727677
237,1.8858288959753258,0.05679554699423337,0.018858288959753257,0.014571218461500814
238,1.8858288959753258,0.05679554699423337,0.018858288959753257,0.014571218461500814
239,1.8858288959753258,0.05679554699423337,0.018858288959753257,0.014571218461500814
240,1.8858288959753258,0.05679554699423337,0.018858288959753257,0.014571218461500814
241,1.874643087419834,0.05513461477637523,0.01874643087419834,0.014139217702640258
242,1.8757319386108848,0.05517995905410317,0.018757319386108848,0.014140811857476109
243,1.8757319386108848,0.05517995905410317,0.018757319386108848,0.014140811857476109
244,1.8757319386108848,0.05517995905410317,0.018757319386108848,0.014140811857476109
245,1.8757319386108848,0.05517995905410317,0.018757319386108848,0.014140811857476109
246,1.872538029455994,0.05506710437921121,0.01872538029455994,0.014143237840615507
247,1.872538029455994,0.05506710437921121,0.01872538029455994,0.014143237840615507
248,1.8690363261355951,0.055131821748152454,0.018690363261355952,0.014212267188597328
249,1.8690363261355951,0.055131821748152454,0.018690363261355952,0.014212267188597328
250,1.877944047965013,0.05480264952922689,0.01877944047965013,0.01397709235011156
251,1.877944047965013,0.05480264952922689,0.01877944047965013,0.01397709235011156
252,1.877944047965013,0.05480264952922689,0.01877944047965013,0.01397709235011156
253,1.877944047965013,0.05480264952922689,0.01877944047965013,0.01397709235011156
254,1.8834591790682527,0.05485774252432739,0.018834591790682528,0.013922484595848123
255,1.8834591790682527,0.05485774252432739,0.018834591790682528,0.013922484595848123
256,1.8834591790682527,0.05485774252432739,0.018834591790682528,0.013922484595848123
257,1.8834591790682527,0.05485774252432739,0.018834591790682528,0.013922484595848123
258,1.8781715065264153,0.05463237271469083,0.018781715065264153,0.013912976186069534
259,1.878410906710543,0.054646085133257076,0.01878410906710543,0.013914672036654632
260,1.859245471277881,0.05411270982888869,0.01859245471277881,0.013980262016219722
261,1.859245471277881,0.05411270982888869,0.01859245471277881,0.013980262016219722
262,1.859245471277881,0.05411270982888869,0.01859245471277881,0.013980262016219722
263,1.8340818480236527,0.05323971235003226,0.018340818480236526,0.014000410743093822
264,1.8280210037622726,0.05297645538908807,0.018280210037622726,0.01398565246498275
265,1.8148313925881692,0.05223650157220652,0.01814831392588169,0.013892577779869148
266,1.8099758830260095,0.05216153782095006,0.018099758830260094,0.013928894733464044
267,1.808555685188227,0.05211790901117451,0.01808555685188227,0.01393168056872822
268,1.808555685188227,0.05211790901117451,0.01808555685188227,0.01393168056872822
269,1.8152341582793625,0.052375497129966496,0.018152341582793625,0.013937268970685986
270,1.8152341582793625,0.052375497129966496,0.018152341582793625,0.013937268970685986
271,1.8152341582793625,0.052375497129966496,0.018152341582793625,0.013937268970685986
272,1.8152341582793625,0.052375497129966496,0.018152341582793625,0.013937268970685986
273,1.8172660659995803,0.052431454713680735,0.0181726606599958,0.01393086327811196
274,1.8231060848349314,0.05260735072534245,0.018231060848349315,0.013917683988265048
275,1.8202062422702088,0.05245311940272853,0.018202062422702087,0.013900220055356748
276,1.8180054826368062,0.052259346474309756,0.018180054826368062,0.013859259404937511
277,1.7813067804906466,0.04902152042419719,0.017813067804906466,0.013149517847426063
278,1.7776910300751467,0.04898503117888748,0.01777691030075147,0.013184527748384129
279,1.7758848233943199,0.0489489217082223,0.0177588482339432,0.013195170574342552
280,1.7758848233943199,0.0489489217082223,0.0177588482339432,0.013195170574342552
281,1.7758848233943199,0.0489489217082223,0.0177588482339432,0.013195170574342552
282,1.778657264041498,0.048974562456818006,0.01778657264041498,0.013167515265813114
283,1.778657264041498,0.048974562456818006,0.01778657264041498,0.013167515265813114
284,1.7750405732793229,0.04872397509008214,0.01775040573279323,0.01312108407190666
285,1.7750405732793229,0.04872397509008214,0.01775040573279323,0.01312108407190666
286,1.758097680756852,0.04760358775440405,0.01758097680756852,0.01292072490364911
287,1.758097680756852,0.04760358775440405,0.01758097680756852,0.01292072490364911
288,1.7595203680785403,0.047652265880464,0.017595203680785404,0.012920196060289324
289,1.7576959393741314,0.047606092710709196,0.017576959393741313,0.012927158449476084
290,1.7576959393741314,0.047606092710709196,0.017576959393741313,0.012927158449476084
291,1.7576959393741314,0.047606092710709196,0.017576959393741313,0.012927158449476084
292,1.7576959393741314,0.047606092710709196,0.017576959393741313,0.012927158449476084
293,1.7576959393741314,0.047606092710709196,0.017576959393741313,0.012927158449476084
294,1.7590294258074155,0.04762233502626325,0.017590294258074155,0.012915297061120812
295,1.7590294258074155,0.04762233502626325,0.017590294258074155,0.012915297061120812
296,1.7474238341304003,0.047339417995922894,0.017474238341304002,0.012963223918089593
297,1.7461194407516958,0.04733260841846991,0.017461194407516957,0.012978165280485435
298,1.7267184681974928,0.04667539678683809,0.017267184681974926,0.01298454084775243
299,1.7267184681974928,0.04667539678683809,0.017267184681974926,0.01298454084775243
300,1.725447986484678,0.046660784246451446,0.01725447986484678,0.012995798053913868
301,1.725447986484678,0.046660784246451446,0.01725447986484678,0.012995798053913868
302,1.725447986484678,0.046660784246451446,0.01725447986484678,0.012995798053913868
303,1.725447986484678,0.046660784246451446,0.01725447986484678,0.012995798053913868
304,1.725447986484678,0.046660784246451446,0.01725447986484678,0.012995798053913868
305,1.725447986484678,0.046660784246451446,0.01725447986484678,0.012995798053913868
306,1.725447986484678,0.046660784246451446,0.01725447986484678,0.012995798053913868
307,1.721683120452194,0.04655961170169772,0.01721683120452194,0.013006799771349479
308,1.721683120452194,0.04655961170169772,0.01721683120452194,0.013006799771349479
309,1.7167623083144221,0.04634112884727929,0.01716762308314422,0.012987840703823196
310,1.7167623083144221,0.04634112884727929,0.01716762308314422,0.012987840703823196
311,1.7167623083144221,0.04634112884727929,0.01716762308314422,0.012987840703823196
312,1.7173273321826397,0.04621961245025947,0.017173273321826398,0.012933476250275501
313,1.7173273321826397,0.04621961245025947,0.017173273321826398,0.012933476250275501
314,1.7172422386777564,0.04621859374682131,0.017172422386777565,0.012934212261993918
315,1.7172422386777564,0.04621859374682131,0.017172422386777565,0.012934212261993918
316,1.7184188002478602,0.04637599013875773,0.017184188002478604,0.012979352221241542
317,1.7184188002478602,0.04637599013875773,0.017184188002478604,0.012979352221241542
318,1.7184188002478602,0.04637599013875773,0.017184188002478604,0.012979352221241542
319,1.7184188002478602,0.04637599013875773,0.017184188002478604,0.012979352221241542
320,1.7184188002478602,0.04637599013875773,0.017184188002478604,0.012979352221241542
321,1.6986960017947634,0.04541859810439743,0.016986960017947635,0.012869699700949621
322,1.6986960017947634,0.04541859810439743,0.016986960017947635,0.012869699700949621
323,1.6986960017947634,0.04541859810439743,0.016986960017947635,0.012869699700949621
324,1.6986960017947634,0.04541859810439743,0.016986960017947635,0.012869699700949621
325,1.6820160234180523,0.044533556662658486,0.016820160234180523,0.012744323297965925
326,1.6820160234180523,0.044533556662658486,0.016820160234180523,0.012744323297965925
327,1.6823658104341064,0.04454164038250108,0.016823658104341065,0.01274287768964491
328,1.6852367399986559,0.044570986404713325,0.016852367399986558,0.012716429414855552
329,1.6852367399986559,0.044570986404713325,0.016852367399986558,0.012716429414855552
330,1.6852367399986559,0.044570986404713325,0.016852367399986558,0.012716429414855552
331,1.6788350611698197,0.04445391182472519,0.016788350611698196,0.012755014777958698
332,1.6788350611698197,0.04445391182472519,0.016788350611698196,0.012755014777958698
333,1.6731797847156855,0.04434865069787013,0.016731797847156855,0.012788019697379988
334,1.6556693965164695,0.04370458904710802,0.016556693965164695,0.012764081455982611
335,1.648658367897713,0.04347139732542239,0.01648658367897713,0.012763484314649697
336,1.6546254775190814,0.043621997686313474,0.016546254775190814,0.012745251263808412
337,1.6429605474569304,0.04325959085870746,0.016429605474569304,0.012753978694394817
338,1.6429605474569304,0.04325959085870746,0.016429605474569304,0.012753978694394817
339,1.6429605474569304,0.04325959085870746,0.016429605474569304,0.012753978694394817
340,1.6429605474569304,0.04325959085870746,0.016429605474569304,0.012753978694394817
341,1.6429605474569304,0.04325959085870746,0.016429605474569304,0.012753978694394817
342,1.6429605474569304,0.04325959085870746,0.016429605474569304,0.012753978694394817
343,1.6429605474569304,0.04325959085870746,0.016429605474569304,0.012753978694394817
344,1.6429605474569304,0.04325959085870746,0.016429605474569304,0.012753978694394817
345,1.6429605474569304,0.04325959085870746,0.016429605474569304,0.012753978694394817
346,1.6429605474569304,0.04325959085870746,0.016429605474569304,0.012753978694394817
347,1.6429605474569304,0.04325959085870746,0.016429605474569304,0.012753978694394817
348,1.642592783409207,0.043253038071569994,0.01642592783409207,0.012756146577430794
349,1.6494116176716576,0.0434723096063969,0.016494116176716575,0.01275410630396915
350,1.6494116176716576,0.0434723096063969,0.016494116176716575,0.01275410630396915
351,1.6494116176716576,0.0434723096063969,0.016494116176716575,0.01275410630396915
352,1.652024303801209,0.04351019123819563,0.01652024303801209,0.012735127888912985
353,1.6473167417316743,0.04334887240627858,0.016473167417316744,0.012732771862553722
354,1.6473167417316743,0.04334887240627858,0.016473167417316744,0.012732771862553722
355,1.6473167417316743,0.04334887240627858,0.016473167417316744,0.012732771862553722
356,1.6473167417316743,0.04334887240627858,0.016473167417316744,0.012732771862553722
357,1.6424849508147523,0.04324019828949415,0.016424849508147522,0.012752501775324228
358,1.6424849508147523,0.04324019828949415,0.016424849508147522,0.012752501775324228
359,1.6424849508147523,0.04324019828949415,0.016424849508147522,0.012752501775324228
360,1.6424849508147523,0.04324019828949415,0.016424849508147522,0.012752501775324228
361,1.6634695957544503,0.044295404466440924,0.016634695957544503,0.012893445430313101
362,1.6634695957544503,0.044295404466440924,0.016634695957544503,0.012893445430313101
363,1.6634695957544503,0.044295404466440924,0.016634695957544503,0.012893445430313101
364,1.6634695957544503,0.044295404466440924,0.016634695957544503,0.012893445430313101
365,1.6545026913078669,0.04414073337338598,0.01654502691307867,0.01294872264663053
366,1.6545026913078669,0.04414073337338598,0.01654502691307867,0.01294872264663053
367,1.6545026913078669,0.04414073337338598,0.01654502691307867,0.01294872264663053
368,1.6545026913078669,0.04414073337338598,0.01654502691307867,0.01294872264663053
369,1.6545026913078669,0.04414073337338598,0.01654502691307867,0.01294872264663053
370,1.6545026913078669,0.04414073337338598,0.01654502691307867,0.01294872264663053
371,1.6566931284193602,0.044239526658073125,0.016566931284193603,0.012958860073538048
372,1.6556339149490746,0.044217623291889614,0.016556339149490746,0.01296394488132128
373,1.6514975566914925,0.04416668179950348,0.016514975566914926,0.012997015042664135
374,1.6505085691193515,0.04404975855738966,0.016505085691193515,0.012964556756798733
375,1.6547562474857833,0.0441020180428651,0.016547562474857832,0.012930520351839208
376,1.6547562474857833,0.0441020180428651,0.016547562474857832,0.012930520351839208
377,1.6547562474857833,0.0441020180428651,0.016547562474857832,0.012930520351839208
378,1.6455042491635656,0.04373256367934457,0.016455042491635655,0.012905704684050024
379,1.6455042491635656,0.04373256367934457,0.016455042491635655,0.012905704684050024
380,1.64681590355183,0.04389424686269814,0.0164681590355183,0.01295153298292748
381,1.64681590355183,0.04389424686269814,0.0164681590355183,0.01295153298292748
382,1.64681590355183,0.04389424686269814,0.0164681590355183,0.01295153298292748
383,1.64681590355183,0.04389424686269814,0.0164681590355183,0.01295153298292748
384,1.64681590355183,0.04389424686269814,0.0164681590355183,0.01295153298292748
385,1.6531476348662606,0.04441198263950602,0.016531476348662606,0.013070199544332485
386,1.6531476348662606,0.04441198263950602,0.016531476348662606,0.013070199544332485
387,1.6512308795670543,0.04434821485930694,0.016512308795670543,0.01307003469121221
388,1.6570918528657947,0.044407387780692816,0.016570918528657948,0.013018392255709185
389,1.6495549288101672,0.04425356661477739,0.016495549288101673,0.013054980652286786
390,1.6495549288101672,0.04425356661477739,0.016495549288101673,0.013054980652286786
391,1.6489265541144054,0.0442291539006851,0.016489265541144053,0.013053568895918478
392,1.6489265541144054,0.0442291539006851,0.016489265541144053,0.013053568895918478
393,1.6545909172654936,0.04431429842075996,0.016545909172654936,0.013014448657467316
394,1.6545909172654936,0.04431429842075996,0.016545909172654936,0.013014448657467316
395,1.6535722369404544,0.04430267370477654,0.016535722369404544,0.013022926812730677
396,1.6535722369404544,0.04430267370477654,0.016535722369404544,0.013022926812730677
397,1.6545103132434456,0.044324480528122163,0.016545103132434454,0.013019384302582409
398,1.6522411836380435,0.044281714859282936,0.016522411836380434,0.013031771011718441
399,1.6546489215000504,0.04456978610060195,0.016546489215000505,0.013111504706321525
400,1.6546489215000504,0.04456978610060195,0.016546489215000505,0.013111504706321525
401,1.6546489215000504,0.04456978610060195,0.016546489215000505,0.013111504706321525
402,1.6546489215000504,0.04456978610060195,0.016546489215000505,0.013111504706321525
403,1.6546489215000504,0.04456978610060195,0.016546489215000505,0.013111504706321525
404,1.6546489215000504,0.04456978610060195,0.016546489215000505,0.013111504706321525
405,1.6546489215000504,0.04456978610060195,0.016546489215000505,0.013111504706321525
406,1.6546489215000504,0.04456978610060195,0.016546489215000505,0.013111504706321525
407,1.6529024360260989,0.04449927567514302,0.016529024360260988,0.013106643752285676
408,1.6480402215339938,0.044449210193475246,0.01648040221533994,0.013148705060019064
409,1.6372188309057876,0.0442238214660348,0.016372188309057876,0.013198093219594132
410,1.6372188309057876,0.0442238214660348,0.016372188309057876,0.013198093219594132
411,1.6372188309057876,0.0442238214660348,0.016372188309057876,0.013198093219594132
412,1.6379651441318828,0.04425290417815068,0.016379651441318827,0.013199850773490163
413,1.6379651441318828,0.04425290417815068,0.016379651441318827,0.013199850773490163
414,1.6379651441318828,0.04425290417815068,0.016379651441318827,0.013199850773490163
415,1.6323297890753419,0.044206892662009015,0.01632329789075342,0.013252127096802804
416,1.6292558875228442,0.04416906370275289,0.016292558875228444,0.013275660523105574
417,1.6303755538532405,0.04384175082404898,0.016303755538532406,0.013137924629874526
418,1.6303755538532405,0.04384175082404898,0.016303755538532406,0.013137924629874526
419,1.6267686598654736,0.043742610580605835,0.016267686598654737,0.013144903139011994
420,1.6267686598654736,0.043742610580605835,0.016267686598654737,0.013144903139011994
421,1.615645964927754,0.0423652822143061,0.01615645964927754,0.012752318759516941
422,1.615645964927754,0.0423652822143061,0.01615645964927754,0.012752318759516941
423,1.615645964927754,0.0423652822143061,0.01615645964927754,0.012752318759516941
424,1.596699724943866,0.0408533873812839,0.01596699724943866,0.012393097782606945
425,1.596699724943866,0.0408533873812839,0.01596699724943866,0.012393097782606945
426,1.596699724943866,0.0408533873812839,0.01596699724943866,0.012393097782606945
427,1.603824546734216,0.04099071555439727,0.01603824546734216,0.01235644924212661
428,1.5822535812305936,0.039086394406160026,0.015822535812305936,0.011853746434351308
429,1.581207065478083,0.03906913789308146,0.01581207065478083,0.011860430031791996
430,1.581207065478083,0.03906913789308146,0.01581207065478083,0.011860430031791996
431,1.581207065478083,0.03906913789308146,0.01581207065478083,0.011860430031791996
432,1.581207065478083,0.03906913789308146,0.01581207065478083,0.011860430031791996
433,1.5852324497019818,0.039242893503170534,0.01585232449701982,0.011879930263805873
434,1.5852324497019818,0.039242893503170534,0.01585232449701982,0.011879930263805873
435,1.5852324497019818,0.039242893503170534,0.01585232449701982,0.011879930263805873
436,1.5852324497019818,0.039242893503170534,0.01585232449701982,0.011879930263805873
437,1.5852324497019818,0.039242893503170534,0.01585232449701982,0.011879930263805873
438,1.5852324497019818,0.039242893503170534,0.01585232449701982,0.011879930263805873
439,1.5856970195068603,0.039252224040792816,0.0158569701950686,0.011877657034981025
440,1.5829078189793861,0.03921636013870395,0.01582907818979386,0.011899743066488108
441,1.5643256861074768,0.03728041720132679,0.015643256861074768,0.011317803973903468
442,1.5643256861074768,0.03728041720132679,0.015643256861074768,0.011317803973903468
443,1.5643256861074768,0.03728041720132679,0.015643256861074768,0.011317803973903468
444,1.5643256861074768,0.03728041720132679,0.015643256861074768,0.011317803973903468
445,1.5643256861074768,0.03728041720132679,0.015643256861074768,0.011317803973903468
446,1.5674032685552266,0.03743543535648554,0.015674032685552265,0.011343678985985747
447,1.5725372089297154,0.03752533770981169,0.015725372089297154,0.011312207996287503
448,1.5725372089297154,0.03752533770981169,0.015725372089297154,0.011312207996287503
449,1.5489753115544933,0.036063581125168234,0.015489753115544933,0.01098650807450431
450,1.5373732485510243,0.03530329624610888,0.015373732485510242,0.010801912419801222
451,1.5373732485510243,0.03530329624610888,0.015373732485510242,0.010801912419801222
452,1.5374655832948365,0.035306799227573064,0.015374655832948366,0.010802219692920407
453,1.5374655832948365,0.035306799227573064,0.015374655832948366,0.010802219692920407
454,1.5374655832948365,0.035306799227573064,0.015374655832948366,0.010802219692920407
455,1.5374655832948365,0.035306799227573064,0.015374655832948366,0.010802219692920407
456,1.5374655832948365,0.035306799227573064,0.015374655832948366,0.010802219692920407
457,1.5374655832948365,0.035306799227573064,0.015374655832948366,0.010802219692920407
458,1.5374655832948365,0.035306799227573064,0.015374655832948366,0.010802219692920407
459,1.5374655832948365,0.035306799227573064,0.015374655832948366,0.010802219692920407
460,1.5374655832948365,0.035306799227573064,0.015374655832948366,0.010802219692920407
461,1.5326651473721449,0.035210059310809165,0.01532665147372145,0.010825633824915923
462,1.5326651473721449,0.035210059310809165,0.01532665147372145,0.010825633824915923
463,1.5326651473721449,0.035210059310809165,0.01532665147372145,0.010825633824915923
464,1.5303853183528182,0.03512411731950633,0.015303853183528181,0.010818190742082413
465,1.5392698471503654,0.03554736834352566,0.015392698471503654,0.01088753953841848
466,1.5392698471503654,0.03554736834352566,0.015392698471503654,0.01088753953841848
467,1.5392698471503654,0.03554736834352566,0.015392698471503654,0.01088753953841848
468,1.5397566355725285,0.035563144743175734,0.015397566355725286,0.010887901439340554
469,1.5416999545002978,0.03559474562017441,0.01541699954500298,0.01087490603320884
470,1.5270801793230602,0.03479588006573586,0.015270801793230602,0.010712675354421212
471,1.5238898297630752,0.034776280143259314,0.015238898297630752,0.010748896692547551
472,1.5238898297630752,0.034776280143259314,0.015238898297630752,0.010748896692547551
473,1.5238898297630752,0.034776280143259314,0.015238898297630752,0.010748896692547551
474,1.5238898297630752,0.034776280143259314,0.015238898297630752,0.010748896692547551
475,1.5238898297630752,0.034776280143259314,0.015238898297630752,0.010748896692547551
476,1.5238898297630752,0.034776280143259314,0.015238898297630752,0.010748896692547551
477,1.5238898297630752,0.034776280143259314,0.015238898297630752,0.010748896692547551
478,1.5409001174913102,0.03532051403789839,0.015409001174913102,0.010759545676770493
479,1.5409001174913102,0.03532051403789839,0.015409001174913102,0.010759545676770493
480,1.5409001174913102,0.03532051403789839,0.015409001174913102,0.010759545676770493
481,1.5409001174913102,0.03532051403789839,0.015409001174913102,0.010759545676770493
482,1.5409001174913102,0.03532051403789839,0.015409001174913102,0.010759545676770493
483,1.5409001174913102,0.03532051403789839,0.015409001174913102,0.010759545676770493
484,1.5384885269424582,0.035209474349214384,0.015384885269424583,0.010742441470112198
485,1.5384885269424582,0.035209474349214384,0.015384885269424583,0.010742441470112198
486,1.5479737651329657,0.03607908039998687,0.015479737651329657,0.011007657618488853
487,1.5386977920710851,0.03579387151052561,0.015386977920710851,0.011008161770832263
488,1.5386977920710851,0.03579387151052561,0.015386977920710851,0.011008161770832263
489,1.5386977920710851,0.03579387151052561,0.015386977920710851,0.011008161770832263
490,1.5386977920710851,0.03579387151052561,0.015386977920710851,0.011008161770832263
491,1.5386977920710851,0.03579387151052561,0.015386977920710851,0.011008161770832263
492,1.5386977920710851,0.03579387151052561,0.015386977920710851,0.011008161770832263
493,1.5386977920710851,0.03579387151052561,0.015386977920710851,0.011008161770832263
494,1.5386977920710851,0.03579387151052561,0.015386977920710851,0.011008161770832263
495,1.5386977920710851,0.03579387151052561,0.015386977920710851,0.011008161770832263
496,1.5386977920710851,0.03579387151052561,0.015386977920710851,0.011008161770832263
497,1.5386977920710851,0.03579387151052561,0.015386977920710851,0.011008161770832263
498,1.5386977920710851,0.03579387151052561,0.015386977920710851,0.011008161770832263
499,1.5217875188824443,0.03503537408674663,0.015217875188824443,0.010898165699090271
500,1.5220338652424448,0.03503936573804981,0.015220338652424448,0.010896556735318386
501,1.5220338652424448,0.03503936573804981,0.015220338652424448,0.010896556735318386
502,1.5220338652424448,0.03503936573804981,0.015220338652424448,0.010896556735318386
503,1.5124434586564641,0.034760900032644614,0.015124434586564641,0.010902315293696719
504,1.5153931441096131,0.03483039661570271,0.01515393144109613,0.010893223950492584
505,1.5153931441096131,0.03483039661570271,0.01515393144109613,0.010893223950492584
506,1.5153931441096131,0.03483039661570271,0.01515393144109613,0.010893223950492584
507,1.5153931441096131,0.03483039661570271,0.01515393144109613,0.010893223950492584
508,1.5153931441096131,0.03483039661570271,0.01515393144109613,0.010893223950492584
509,1.5166998582729523,0.0348563506994286,0.015166998582729524,0.010886949112849136
510,1.5166998582729523,0.0348563506994286,0.015166998582729524,0.010886949112849136
511,1.5166998582729523,0.0348563506994286,0.015166998582729524,0.010886949112849136
512,1.5166998582729523,0.0348563506994286,0.015166998582729524,0.010886949112849136
513,1.5166998582729523,0.0348563506994286,0.015166998582729524,0.010886949112849136
514,1.5166998582729523,0.0348563506994286,0.015166998582729524,0.010886949112849136
515,1.5166998582729523,0.0348563506994286,0.015166998582729524,0.010886949112849136
516,1.5166998582729523,0.0348563506994286,0.015166998582729524,0.010886949112849136
517,1.5268301121037133,0.03508749409253474,0.015268301121037133,0.0108514479127296
518,1.5268301121037133,0.03508749409253474,0.015268301121037133,0.0108514479127296
519,1.5268301121037133,0.03508749409253474,0.015268301121037133,0.0108514479127296
520,1.5268301121037133,0.03508749409253474,0.015268301121037133,0.0108514479127296
521,1.5268301121037133,0.03508749409253474,0.015268301121037133,0.0108514479127296
522,1.524669287327979,0.03502828828601591,0.01524669287327979,0.01085454924389025
523,1.524669287327979,0.03502828828601591,0.01524669287327979,0.01085454924389025
524,1.5281943355202299,0.03511640086285458,0.015281943355202299,0.010845562037853735
525,1.5281943355202299,0.03511640086285458,0.015281943355202299,0.010845562037853735
526,1.5281943355202299,0.03511640086285458,0.015281943355202299,0.010845562037853735
527,1.516546170121277,0.03464318704791515,0.01516546170121277,0.010790766509761953
528,1.5098877260772317,0.03456993588992757,0.015098877260772317,0.010850035224063026
529,1.5098877260772317,0.03456993588992757,0.015098877260772317,0.010850035224063026
530,1.5098877260772317,0.03456993588992757,0.015098877260772317,0.010850035224063026
531,1.510944874596364,0.03462284607410232,0.01510944874596364,0.010859697018523167
532,1.5156370328756732,0.03500200831853006,0.015156370328756733,0.010968341790940103
533,1.5099054012843758,0.034741933110118486,0.015099054012843758,0.010928764752633833
534,1.4992558988547748,0.03447581479205107,0.014992558988547748,0.010953598627639541
535,1.4992558988547748,0.03447581479205107,0.014992558988547748,0.010953598627639541
536,1.4992558988547748,0.03447581479205107,0.014992558988547748,0.010953598627639541
537,1.494359127067335,0.03438676553280297,0.014943591270673351,0.010979833116358594
538,1.494359127067335,0.03438676553280297,0.014943591270673351,0.010979833116358594
539,1.494359127067335,0.03438676553280297,0.014943591270673351,0.010979833116358594
540,1.5041874749380972,0.03485029416703121,0.015041874749380972,0.011056443627778656
541,1.5041874749380972,0.03485029416703121,0.015041874749380972,0.011056443627778656
542,1.5060543150415802,0.03487744660913469,0.015060543150415802,0.01104330141333698
543,1.5082349970860034,0.03495393756851255,0.015082349970860033,0.011048171570066417
544,1.5041248525330015,0.03484473003057306,0.015041248525330016,0.011054779197477816
545,1.5041248525330015,0.03484473003057306,0.015041248525330016,0.011054779197477816
546,1.502914315625353,0.034911427021903654,0.015029143156253531,0.011101311913817852
547,1.502914315625353,0.034911427021903654,0.015029143156253531,0.011101311913817852
548,1.502914315625353,0.034911427021903654,0.015029143156253531,0.011101311913817852
549,1.5081237627580175,0.035039865424183525,0.015081237627580174,0.011088504221142506
550,1.5081237627580175,0.035039865424183525,0.015081237627580174,0.011088504221142506
551,1.5081237627580175,0.035039865424183525,0.015081237627580174,0.011088504221142506
552,1.5085598446060096,0.035056632244552244,0.015085598446060096,0.011090132639862865
553,1.5085598446060096,0.035056632244552244,0.015085598446060096,0.011090132639862865
554,1.5085598446060096,0.035056632244552244,0.015085598446060096,0.011090132639862865
555,1.5085598446060096,0.035056632244552244,0.015085598446060096,0.011090132639862865
556,1.5056179280928417,0.035038125593252284,0.015056179280928417,0.01112172295074215
557,1.5056179280928417,0.035038125593252284,0.015056179280928417,0.01112172295074215
558,1.5110979714809543,0.03528540616623224,0.015110979714809543,0.01115851037195095
559,1.5110979714809543,0.03528540616623224,0.015110979714809543,0.01115851037195095
560,1.5110979714809543,0.03528540616623224,0.015110979714809543,0.01115851037195095
561,1.5110979714809543,0.03528540616623224,0.015110979714809543,0.01115851037195095
562,1.5132575789792604,0.03539837400217541,0.015132575789792603,0.01117984302161425
563,1.5132575789792604,0.03539837400217541,0.015132575789792603,0.01117984302161425
564,1.5132575789792604,0.03539837400217541,0.015132575789792603,0.01117984302161425
565,1.5132575789792604,0.03539837400217541,0.015132575789792603,0.01117984302161425
566,1.5194194535175294,0.035489534651479436,0.015194194535175294,0.011136956448780952
567,1.5194194535175294,0.035489534651479436,0.015194194535175294,0.011136956448780952
568,1.5194194535175294,0.035489534651479436,0.015194194535175294,0.011136956448780952
569,1.5194194535175294,0.035489534651479436,0.015194194535175294,0.011136956448780952
570,1.5194194535175294,0.035489534651479436,0.015194194535175294,0.011136956448780952
571,1.5194194535175294,0.035489534651479436,0.015194194535175294,0.011136956448780952
572,1.5194194535175294,0.035489534651479436,0.015194194535175294,0.011136956448780952
573,1.524398266791028,0.03574977534807505,0.01524398266791028,0.011185649105045334
574,1.524398266791028,0.03574977534807505,0.01524398266791028,0.011185649105045334
575,1.5215499160581554,0.03568061235017039,0.015215499160581554,0.011193511906280618
576,1.507341006311191,0.03530510766558749,0.015073410063111909,0.01121799383691895
577,1.501518105163338,0.03511847247323774,0.015015181051633379,0.011212897159924698
578,1.501518105163338,0.03511847247323774,0.015015181051633379,0.011212897159924698
579,1.501518105163338,0.03511847247323774,0.015015181051633379,0.011212897159924698
580,1.5054782214323765,0.03521903382717938,0.015054782214323765,0.011204636127562314
581,1.5054782214323765,0.03521903382717938,0.015054782214323765,0.011204636127562314
582,1.5054782214323765,0.03521903382717938,0.015054782214323765,0.011204636127562314
583,1.5054782214323765,0.03521903382717938,0.015054782214323765,0.011204636127562314
584,1.5054782214323765,0.03521903382717938,0.015054782214323765,0.011204636127562314
585,1.510041178514864,0.03530658534144227,0.01510041178514864,0.011182281401099099
586,1.510041178514864,0.03530658534144227,0.01510041178514864,0.011182281401099099
587,1.510041178514864,0.03530658534144227,0.01510041178514864,0.011182281401099099
588,1.510041178514864,0.03530658534144227,0.01510041178514864,0.011182281401099099
589,1.510041178514864,0.03530658534144227,0.01510041178514864,0.011182281401099099
590,1.510041178514864,0.03530658534144227,0.01510041178514864,0.011182281401099099
591,1.510041178514864,0.03530658534144227,0.01510041178514864,0.011182281401099099
592,1.510041178514864,0.03530658534144227,0.01510041178514864,0.011182281401099099
593,1.510041178514864,0.03530658534144227,0.01510041178514864,0.011182281401099099
594,1.510041178514864,0.03530658534144227,0.01510041178514864,0.011182281401099099
595,1.510041178514864,0.03530658534144227,0.01510041178514864,0.011182281401099099
596,1.510041178514864,0.03530658534144227,0.01510041178514864,0.011182281401099099
597,1.5148080960667194,0.03541564133402354,0.015148080960667195,0.011166559745477004
598,1.5148080960667194,0.03541564133402354,0.015148080960667195,0.011166559745477004
599,1.5148080960667194,0.03541564133402354,0.015148080960667195,0.011166559745477004
600,1.5148080960667194,0.03541564133402354,0.015148080960667195,0.011166559745477004
601,1.5148080960667194,0.03541564133402354,0.015148080960667195,0.011166559745477004
602,1.5148080960667194,0.03541564133402354,0.015148080960667195,0.011166559745477004
603,1.5148080960667194,0.03541564133402354,0.015148080960667195,0.011166559745477004
604,1.5148080960667194,0.03541564133402354,0.015148080960667195,0.011166559745477004
605,1.5148080960667194,0.03541564133402354,0.015148080960667195,0.011166559745477004
606,1.5148080960667194,0.03541564133402354,0.015148080960667195,0.011166559745477004
607,1.5148080960667194,0.03541564133402354,0.015148080960667195,0.011166559745477004
608,1.5130838170617955,0.03530552792407457,0.015130838170617954,0.011140602115474569
609,1.5130838170617955,0.03530552792407457,0.015130838170617954,0.011140602115474569
610,1.5130838170617955,0.03530552792407457,0.015130838170617954,0.011140602115474569
611,1.5130838170617955,0.03530552792407457,0.015130838170617954,0.011140602115474569
612,1.5130838170617955,0.03530552792407457,0.015130838170617954,0.011140602115474569
613,1.5130838170617955,0.03530552792407457,0.015130838170617954,0.011140602115474569
614,1.5130838170617955,0.03530552792407457,0.015130838170617954,0.011140602115474569
615,1.5130838170617955,0.03530552792407457,0.015130838170617954,0.011140602115474569
616,1.5130838170617955,0.03530552792407457,0.015130838170617954,0.011140602115474569
617,1.5130838170617955,0.03530552792407457,0.015130838170617954,0.011140602115474569
618,1.5130838170617955,0.03530552792407457,0.015130838170617954,0.011140602115474569
619,1.5130838170617955,0.03530552792407457,0.015130838170617954,0.011140602115474569
620,1.5130838170617955,0.03530552792407457,0.015130838170617954,0.011140602115474569
621,1.5130838170617955,0.03530552792407457,0.015130838170617954,0.011140602115474569
622,1.5145818192405702,0.03548973483141003,0.015145818192405703,0.011202746966556586
623,1.5203687323257444,0.035627379795154915,0.015203687323257444,0.01118578069372764
624,1.5203687323257444,0.035627379795154915,0.015203687323257444,0.01118578069372764
625,1.5094338752169465,0.03542358013640498,0.015094338752169464,0.011242630430588964
626,1.5094338752169465,0.03542358013640498,0.015094338752169464,0.011242630430588964
627,1.5094338752169465,0.03542358013640498,0.015094338752169464,0.011242630430588964
628,1.5202096498334132,0.03585079545614103,0.015202096498334133,0.011287347634264987
629,1.5202096498334132,0.03585079545614103,0.015202096498334133,0.011287347634264987
630,1.5202096498334132,0.03585079545614103,0.015202096498334133,0.011287347634264987
631,1.5202096498334132,0.03585079545614103,0.015202096498334133,0.011287347634264987
632,1.5202096498334132,0.03585079545614103,0.015202096498334133,0.011287347634264987
633,1.5202096498334132,0.03585079545614103,0.015202096498334133,0.011287347634264987
634,1.5202096498334132,0.03585079545614103,0.015202096498334133,0.011287347634264987
635,1.5202096498334132,0.03585079545614103,0.015202096498334133,0.011287347634264987
636,1.5226041255397438,0.035907217174592554,0.015226041255397438,0.011280063804556281
637,1.5226041255397438,0.035907217174592554,0.015226041255397438,0.011280063804556281
638,1.5226041255397438,0.035907217174592554,0.015226041255397438,0.011280063804556281
639,1.5226041255397438,0.035907217174592554,0.015226041255397438,0.011280063804556281
640,1.5226041255397438,0.035907217174592554,0.015226041255397438,0.011280063804556281
641,1.5226041255397438,0.035907217174592554,0.015226041255397438,0.011280063804556281
642,1.5226041255397438,0.035907217174592554,0.015226041255397438,0.011280063804556281
643,1.5226041255397438,0.035907217174592554,0.015226041255397438,0.011280063804556281
644,1.5226041255397438,0.035907217174592554,0.015226041255397438,0.011280063804556281
645,1.5226041255397438,0.035907217174592554,0.015226041255397438,0.011280063804556281
646,1.5226041255397438,0.035907217174592554,0.015226041255397438,0.011280063804556281
647,1.5226041255397438,0.035907217174592554,0.015226041255397438,0.011280063804556281
648,1.5226041255397438,0.035907217174592554,0.015226041255397438,0.011280063804556281
649,1.5226041255397438,0.035907217174592554,0.015226041255397438,0.011280063804556281
650,1.5226041255397438,0.035907217174592554,0.015226041255397438,0.011280063804556281
651,1.5226041255397438,0.035907217174592554,0.015226041255397438,0.011280063804556281
652,1.5226041255397438,0.035907217174592554,0.015226041255397438,0.011280063804556281
653,1.5226041255397438,0.035907217174592554,0.015226041255397438,0.011280063804556281
654,1.5209748146905069,0.03571427026290483,0.015209748146905068,0.011216339150398677
655,1.5209748146905069,0.03571427026290483,0.015209748146905068,0.011216339150398677
656,1.5209748146905069,0.03571427026290483,0.015209748146905068,0.011216339150398677
657,1.5209748146905069,0.03571427026290483,0.015209748146905068,0.011216339150398677
658,1.5209748146905069,0.03571427026290483,0.015209748146905068,0.011216339150398677
659,1.5209748146905069,0.03571427026290483,0.015209748146905068,0.011216339150398677
660,1.5209748146905069,0.03571427026290483,0.015209748146905068,0.011216339150398677
661,1.5209748146905069,0.03571427026290483,0.015209748146905068,0.011216339150398677
662,1.5209748146905069,0.03571427026290483,0.015209748146905068,0.011216339150398677
663,1.5209748146905069,0.03571427026290483,0.015209748146905068,0.011216339150398677
664,1.5209748146905069,0.03571427026290483,0.015209748146905068,0.011216339150398677
665,1.5209748146905069,0.03571427026290483,0.015209748146905068,0.011216339150398677
666,1.5209748146905069,0.03571427026290483,0.015209748146905068,0.011216339150398677
667,1.5209748146905069,0.03571427026290483,0.015209748146905068,0.011216339150398677
668,1.5209748146905069,0.03571427026290483,0.015209748146905068,0.011216339150398677
669,1.5209748146905069,0.03571427026290483,0.015209748146905068,0.011216339150398677
670,1.5209748146905069,0.03571427026290483,0.015209748146905068,0.011216339150398677
671,1.5209748146905069,0.03571427026290483,0.015209748146905068,0.011216339150398677
672,1.5063984992237134,0.034829778567833,0.015063984992237133,0.01101699332086502
673,1.5063984992237134,0.034829778567833,0.015063984992237133,0.01101699332086502
674,1.5063984992237134,0.034829778567833,0.015063984992237133,0.01101699332086502
675,1.5063984992237134,0.034829778567833,0.015063984992237133,0.01101699332086502
676,1.5063984992237134,0.034829778567833,0.015063984992237133,0.01101699332086502
677,1.5063984992237134,0.034829778567833,0.015063984992237133,0.01101699332086502
678,1.5037064594614105,0.03450195718492243,0.015037064594614104,0.010904414712703625
679,1.5032660655192478,0.03448912809304071,0.015032660655192478,0.010904604282422866
680,1.5032660655192478,0.03448912809304071,0.015032660655192478,0.010904604282422866
681,1.5032660655192478,0.03448912809304071,0.015032660655192478,0.010904604282422866
682,1.5032660655192478,0.03448912809304071,0.015032660655192478,0.010904604282422866
683,1.5032660655192478,0.03448912809304071,0.015032660655192478,0.010904604282422866
684,1.5032660655192478,0.03448912809304071,0.015032660655192478,0.010904604282422866
685,1.5032660655192478,0.03448912809304071,0.015032660655192478,0.010904604282422866
686,1.4958932418254283,0.03425807793415976,0.014958932418254283,0.01090005138738798
687,1.4958932418254283,0.03425807793415976,0.014958932418254283,0.01090005138738798
688,1.4958932418254283,0.03425807793415976,0.014958932418254283,0.01090005138738798
689,1.4958932418254283,0.03425807793415976,0.014958932418254283,0.01090005138738798
690,1.4958932418254283,0.03425807793415976,0.014958932418254283,0.01090005138738798
691,1.4958932418254283,0.03425807793415976,0.014958932418254283,0.01090005138738798
692,1.4940822800902667,0.034058346602590814,0.014940822800902667,0.010833064204459194
693,1.4940822800902667,0.034058346602590814,0.014940822800902667,0.010833064204459194
694,1.4940822800902667,0.034058346602590814,0.014940822800902667,0.010833064204459194
695,1.4940822800902667,0.034058346602590814,0.014940822800902667,0.010833064204459194
696,1.4904832573072433,0.03395941600344313,0.014904832573072433,0.010836979560888275
697,1.4904832573072433,0.03395941600344313,0.014904832573072433,0.010836979560888275
698,1.4904832573072433,0.03395941600344313,0.014904832573072433,0.010836979560888275
699,1.487311333109555,0.033825113312303874,0.01487311333109555,0.01081857813963677
700,1.487311333109555,0.033825113312303874,0.01487311333109555,0.01081857813963677
701,1.4773237987843078,0.033560815907303344,0.014773237987843078,0.010833263516945559
702,1.4726693061526217,0.03350591493484387,0.014726693061526217,0.010871230878793546
703,1.4726693061526217,0.03350591493484387,0.014726693061526217,0.010871230878793546
704,1.4639159558387829,0.033309383229019315,0.014639159558387828,0.010899029301467881
705,1.4639159558387829,0.033309383229019315,0.014639159558387828,0.010899029301467881
706,1.4639159558387829,0.033309383229019315,0.014639159558387828,0.010899029301467881
707,1.4680465640497995,0.033381334852962664,0.014680465640497995,0.01087645517196593
708,1.4680465640497995,0.033381334852962664,0.014680465640497995,0.01087645517196593
709,1.4680465640497995,0.033381334852962664,0.014680465640497995,0.01087645517196593
710,1.4680465640497995,0.033381334852962664,0.014680465640497995,0.01087645517196593
711,1.4680465640497995,0.033381334852962664,0.014680465640497995,0.01087645517196593
712,1.4680465640497995,0.033381334852962664,0.014680465640497995,0.01087645517196593
713,1.4680465640497995,0.033381334852962664,0.014680465640497995,0.01087645517196593
714,1.466541672320282,0.033339991914340415,0.01466541672320282,0.010877751214208165
715,1.466541672320282,0.033339991914340415,0.01466541672320282,0.010877751214208165
716,1.466541672320282,0.033339991914340415,0.01466541672320282,0.010877751214208165
717,1.4754149600761859,0.03364267836074815,0.014754149600761858,0.010896873550051877
718,1.4754149600761859,0.03364267836074815,0.014754149600761858,0.010896873550051877
719,1.4754149600761859,0.03364267836074815,0.014754149600761858,0.010896873550051877
720,1.4754149600761859,0.03364267836074815,0.014754149600761858,0.010896873550051877
721,1.4754149600761859,0.03364267836074815,0.014754149600761858,0.010896873550051877
722,1.4754149600761859,0.03364267836074815,0.014754149600761858,0.010896873550051877
723,1.4642504690007074,0.0332043918472573,0.014642504690007075,0.010846242431169138
724,1.4642504690007074,0.0332043918472573,0.014642504690007075,0.010846242431169138
725,1.4642504690007074,0.0332043918472573,0.014642504690007075,0.010846242431169138
726,1.4642504690007074,0.0332043918472573,0.014642504690007075,0.010846242431169138
727,1.4642504690007074,0.0332043918472573,0.014642504690007075,0.010846242431169138
728,1.4642504690007074,0.0332043918472573,0.014642504690007075,0.010846242431169138
729,1.4642504690007074,0.0332043918472573,0.014642504690007075,0.010846242431169138
730,1.4642504690007074,0.0332043918472573,0.014642504690007075,0.010846242431169138
731,1.4631903627430698,0.03320091184465446,0.014631903627430698,0.010858937088137356
732,1.4628020846910532,0.03315482555839536,0.014628020846910532,0.010842936027031813
733,1.4628020846910532,0.03315482555839536,0.014628020846910532,0.010842936027031813
734,1.4612264417734515,0.03309860400203915,0.014612264417734515,0.010838254869055316
735,1.4612264417734515,0.03309860400203915,0.014612264417734515,0.010838254869055316
736,1.4612264417734515,0.03309860400203915,0.014612264417734515,0.010838254869055316
737,1.4612264417734515,0.03309860400203915,0.014612264417734515,0.010838254869055316
738,1.4612264417734515,0.03309860400203915,0.014612264417734515,0.010838254869055316
739,1.4612264417734515,0.03309860400203915,0.014612264417734515,0.010838254869055316
740,1.4724285828147372,0.03339606592708795,0.014724285828147372,0.01082386558129294
741,1.4724285828147372,0.03339606592708795,0.014724285828147372,0.01082386558129294
742,1.4610948006903364,0.03220081304469889,0.014610948006903364,0.010417693064520357
743,1.4610948006903364,0.03220081304469889,0.014610948006903364,0.010417693064520357
744,1.4610948006903364,0.03220081304469889,0.014610948006903364,0.010417693064520357
745,1.4610948006903364,0.03220081304469889,0.014610948006903364,0.010417693064520357
746,1.4610948006903364,0.03220081304469889,0.014610948006903364,0.010417693064520357
747,1.4610948006903364,0.03220081304469889,0.014610948006903364,0.010417693064520357
748,1.4610948006903364,0.03220081304469889,0.014610948006903364,0.010417693064520357
749,1.4610948006903364,0.03220081304469889,0.014610948006903364,0.010417693064520357
750,1.4610948006903364,0.03220081304469889,0.014610948006903364,0.010417693064520357
751,1.4610948006903364,0.03220081304469889,0.014610948006903364,0.010417693064520357
752,1.4610948006903364,0.03220081304469889,0.014610948006903364,0.010417693064520357
753,1.4610948006903364,0.03220081304469889,0.014610948006903364,0.010417693064520357
754,1.4610948006903364,0.03220081304469889,0.014610948006903364,0.010417693064520357
755,1.4610948006903364,0.03220081304469889,0.014610948006903364,0.010417693064520357
756,1.4531234399217405,0.03195097485908793,0.014531234399217406,0.010409273530169148
757,1.4531234399217405,0.03195097485908793,0.014531234399217406,0.010409273530169148
758,1.4531234399217405,0.03195097485908793,0.014531234399217406,0.010409273530169148
759,1.4531234399217405,0.03195097485908793,0.014531234399217406,0.010409273530169148
760,1.4471650961239182,0.03184237776315373,0.014471650961239181,0.010440071651459217
761,1.4471650961239182,0.03184237776315373,0.014471650961239181,0.010440071651459217
762,1.4471650961239182,0.03184237776315373,0.014471650961239181,0.010440071651459217
763,1.4471650961239182,0.03184237776315373,0.014471650961239181,0.010440071651459217
764,1.4471650961239182,0.03184237776315373,0.014471650961239181,0.010440071651459217
765,1.4471650961239182,0.03184237776315373,0.014471650961239181,0.010440071651459217
766,1.4471650961239182,0.03184237776315373,0.014471650961239181,0.010440071651459217
767,1.4471650961239182,0.03184237776315373,0.014471650961239181,0.010440071651459217
768,1.4471650961239182,0.03184237776315373,0.014471650961239181,0.010440071651459217
769,1.4471650961239182,0.03184237776315373,0.014471650961239181,0.010440071651459217
770,1.4464531900867628,0.03183184678541686,0.014464531900867628,0.010444892758805679
771,1.4464531900867628,0.03183184678541686,0.014464531900867628,0.010444892758805679
772,1.4360328906883435,0.0313724525583388,0.014360328906883435,0.010368484907136433
773,1.4360328906883435,0.0313724525583388,0.014360328906883435,0.010368484907136433
774,1.4360328906883435,0.0313724525583388,0.014360328906883435,0.010368484907136433
775,1.4360328906883435,0.0313724525583388,0.014360328906883435,0.010368484907136433
776,1.4360328906883435,0.0313724525583388,0.014360328906883435,0.010368484907136433
777,1.4360328906883435,0.0313724525583388,0.014360328906883435,0.010368484907136433
778,1.4360328906883435,0.0313724525583388,0.014360328906883435,0.010368484907136433
779,1.4360328906883435,0.0313724525583388,0.014360328906883435,0.010368484907136433
780,1.4360328906883435,0.0313724525583388,0.014360328906883435,0.010368484907136433
781,1.4360328906883435,0.0313724525583388,0.014360328906883435,0.010368484907136433
782,1.4360328906883435,0.0313724525583388,0.014360328906883435,0.010368484907136433
783,1.4360328906883435,0.0313724525583388,0.014360328906883435,0.010368484907136433
784,1.4360328906883435,0.0313724525583388,0.014360328906883435,0.010368484907136433
785,1.4360328906883435,0.0313724525583388,0.014360328906883435,0.010368484907136433
786,1.4360328906883435,0.0313724525583388,0.014360328906883435,0.010368484907136433
787,1.4360328906883435,0.0313724525583388,0.014360328906883435,0.010368484907136433
788,1.4311761490800543,0.031176280783264794,0.014311761490800544,0.010341000476892289
789,1.4311761490800543,0.031176280783264794,0.014311761490800544,0.010341000476892289
790,1.4311761490800543,0.031176280783264794,0.014311761490800544,0.010341000476892289
791,1.4323944033261173,0.03121595945404109,0.014323944033261173,0.01034331774008768
792,1.4323944033261173,0.03121595945404109,0.014323944033261173,0.01034331774008768
793,1.4323944033261173,0.03121595945404109,0.014323944033261173,0.01034331774008768
794,1.4323944033261173,0.03121595945404109,0.014323944033261173,0.01034331774008768
795,1.4323944033261173,0.03121595945404109,0.014323944033261173,0.01034331774008768
796,1.4323944033261173,0.03121595945404109,0.014323944033261173,0.01034331774008768
797,1.4323944033261173,0.03121595945404109,0.014323944033261173,0.01034331774008768
798,1.4323944033261173,0.03121595945404109,0.014323944033261173,0.01034331774008768
799,1.4323944033261173,0.03121595945404109,0.014323944033261173,0.01034331774008768
800,1.4323944033261173,0.03121595945404109,0.014323944033261173,0.01034331774008768
801,1.4323944033261173,0.03121595945404109,0.014323944033261173,0.01034331774008768
802,1.4377470839623814,0.031549664004078846,0.014377470839623813,0.01043000346579786
803,1.4377470839623814,0.031549664004078846,0.014377470839623813,0.01043000346579786
804,1.4377470839623814,0.031549664004078846,0.014377470839623813,0.01043000346579786
805,1.4377470839623814,0.031549664004078846,0.014377470839623813,0.01043000346579786
806,1.4377470839623814,0.031549664004078846,0.014377470839623813,0.01043000346579786
807,1.4377470839623814,0.031549664004078846,0.014377470839623813,0.01043000346579786
808,1.4377470839623814,0.031549664004078846,0.014377470839623813,0.01043000346579786
809,1.4377470839623814,0.031549664004078846,0.014377470839623813,0.01043000346579786
810,1.4377470839623814,0.031549664004078846,0.014377470839623813,0.01043000346579786
811,1.4377470839623814,0.031549664004078846,0.014377470839623813,0.01043000346579786
812,1.4377470839623814,0.031549664004078846,0.014377470839623813,0.01043000346579786
813,1.4377470839623814,0.031549664004078846,0.014377470839623813,0.01043000346579786
814,1.4377470839623814,0.031549664004078846,0.014377470839623813,0.01043000346579786
815,1.4403649887936,0.03157683711186851,0.014403649887936,0.010406884309169886
816,1.4403649887936,0.03157683711186851,0.014403649887936,0.010406884309169886
817,1.4403649887936,0.03157683711186851,0.014403649887936,0.010406884309169886
818,1.4403649887936,0.03157683711186851,0.014403649887936,0.010406884309169886
819,1.434596032930623,0.0314225950143715,0.014345960329306231,0.010412462358812486
820,1.434596032930623,0.0314225950143715,0.014345960329306231,0.010412462358812486
821,1.434596032930623,0.0314225950143715,0.014345960329306231,0.010412462358812486
822,1.434596032930623,0.0314225950143715,0.014345960329306231,0.010412462358812486
823,1.434596032930623,0.0314225950143715,0.014345960329306231,0.010412462358812486
824,1.434596032930623,0.0314225950143715,0.014345960329306231,0.010412462358812486
825,1.434596032930623,0.0314225950143715,0.014345960329306231,0.010412462358812486
826,1.434596032930623,0.0314225950143715,0.014345960329306231,0.010412462358812486
827,1.434596032930623,0.0314225950143715,0.014345960329306231,0.010412462358812486
828,1.434596032930623,0.0314225950143715,0.014345960329306231,0.010412462358812486
829,1.434596032930623,0.0314225950143715,0.014345960329306231,0.010412462358812486
830,1.4260691704978616,0.031201513192293074,0.014260691704978616,0.010423425733341455
831,1.4260691704978616,0.031201513192293074,0.014260691704978616,0.010423425733341455
832,1.4286683117414456,0.031249614597173226,0.014286683117414456,0.010410899647692172
833,1.4286683117414456,0.031249614597173226,0.014286683117414456,0.010410899647692172
834,1.4286683117414456,0.031249614597173226,0.014286683117414456,0.010410899647692172
835,1.41482675916459,0.030721849596164186,0.0141482675916459,0.010346256333419552
836,1.41482675916459,0.030721849596164186,0.0141482675916459,0.010346256333419552
837,1.41482675916459,0.030721849596164186,0.0141482675916459,0.010346256333419552
838,1.41482675916459,0.030721849596164186,0.0141482675916459,0.010346256333419552
839,1.41482675916459,0.030721849596164186,0.0141482675916459,0.010346256333419552
840,1.41482675916459,0.030721849596164186,0.0141482675916459,0.010346256333419552
841,1.41482675916459,0.030721849596164186,0.0141482675916459,0.010346256333419552
842,1.41482675916459,0.030721849596164186,0.0141482675916459,0.010346256333419552
843,1.41482675916459,0.030721849596164186,0.0141482675916459,0.010346256333419552
844,1.41482675916459,0.030721849596164186,0.0141482675916459,0.010346256333419552
845,1.41482675916459,0.030721849596164186,0.0141482675916459,0.010346256333419552
846,1.41482675916459,0.030721849596164186,0.0141482675916459,0.010346256333419552
847,1.41482675916459,0.030721849596164186,0.0141482675916459,0.010346256333419552
848,1.41482675916459,0.030721849596164186,0.0141482675916459,0.010346256333419552
849,1.41482675916459,0.030721849596164186,0.0141482675916459,0.010346256333419552
850,1.41482675916459,0.030721849596164186,0.0141482675916459,0.010346256333419552
851,1.41482675916459,0.030721849596164186,0.0141482675916459,0.010346256333419552
852,1.41482675916459,0.030721849596164186,0.0141482675916459,0.010346256333419552
853,1.41482675916459,0.030721849596164186,0.0141482675916459,0.010346256333419552
854,1.41482675916459,0.030721849596164186,0.0141482675916459,0.010346256333419552
855,1.407434153426225,0.03062157944504198,0.01407434153426225,0.010398495315542548
856,1.407434153426225,0.03062157944504198,0.01407434153426225,0.010398495315542548
857,1.407434153426225,0.03062157944504198,0.01407434153426225,0.010398495315542548
858,1.407434153426225,0.03062157944504198,0.01407434153426225,0.010398495315542548
859,1.407434153426225,0.03062157944504198,0.01407434153426225,0.010398495315542548
860,1.407434153426225,0.03062157944504198,0.01407434153426225,0.010398495315542548
861,1.407434153426225,0.03062157944504198,0.01407434153426225,0.010398495315542548
862,1.407434153426225,0.03062157944504198,0.01407434153426225,0.010398495315542548
863,1.404370041625365,0.030588993512334062,0.01404370041625365,0.010424222452627231
864,1.404370041625365,0.030588993512334062,0.01404370041625365,0.010424222452627231
865,1.404370041625365,0.030588993512334062,0.01404370041625365,0.010424222452627231
866,1.404370041625365,0.030588993512334062,0.01404370041625365,0.010424222452627231
867,1.404370041625365,0.030588993512334062,0.01404370041625365,0.010424222452627231
868,1.404370041625365,0.030588993512334062,0.01404370041625365,0.010424222452627231
869,1.404370041625365,0.030588993512334062,0.01404370041625365,0.010424222452627231
870,1.404370041625365,0.030588993512334062,0.01404370041625365,0.010424222452627231
871,1.3928002665498957,0.03042914595222722,0.013928002665498958,0.01050248548069104
872,1.3928002665498957,0.03042914595222722,0.013928002665498958,0.01050248548069104
873,1.3928002665498957,0.03042914595222722,0.013928002665498958,0.01050248548069104
874,1.395334694979439,0.03044934296836745,0.013953346949794389,0.010478432066981116
875,1.395334694979439,0.03044934296836745,0.013953346949794389,0.010478432066981116
876,1.395334694979439,0.03044934296836745,0.013953346949794389,0.010478432066981116
877,1.395334694979439,0.03044934296836745,0.013953346949794389,0.010478432066981116
878,1.395334694979439,0.03044934296836745,0.013953346949794389,0.010478432066981116
879,1.395334694979439,0.03044934296836745,0.013953346949794389,0.010478432066981116
880,1.395334694979439,0.03044934296836745,0.013953346949794389,0.010478432066981116
881,1.395334694979439,0.03044934296836745,0.013953346949794389,0.010478432066981116
882,1.395334694979439,0.03044934296836745,0.013953346949794389,0.010478432066981116
883,1.395334694979439,0.03044934296836745,0.013953346949794389,0.010478432066981116
884,1.395334694979439,0.03044934296836745,0.013953346949794389,0.010478432066981116
885,1.394339848868504,0.030407568844998987,0.01394339848868504,0.010471739446516307
886,1.394339848868504,0.030407568844998987,0.01394339848868504,0.010471739446516307
887,1.394634207770817,0.030392015398777575,0.013946342077708168,0.010460387021488372
888,1.402284877899746,0.030670050097187117,0.014022848778997461,0.01049095863556999
889,1.402284877899746,0.030670050097187117,0.014022848778997461,0.01049095863556999
890,1.402284877899746,0.030670050097187117,0.014022848778997461,0.01049095863556999
891,1.402284877899746,0.030670050097187117,0.014022848778997461,0.01049095863556999
892,1.402284877899746,0.030670050097187117,0.014022848778997461,0.01049095863556999
893,1.402284877899746,0.030670050097187117,0.014022848778997461,0.01049095863556999
894,1.402284877899746,0.030670050097187117,0.014022848778997461,0.01049095863556999
895,1.402284877899746,0.030670050097187117,0.014022848778997461,0.01049095863556999
896,1.402284877899746,0.030670050097187117,0.014022848778997461,0.01049095863556999
897,1.402284877899746,0.030670050097187117,0.014022848778997461,0.01049095863556999
898,1.402284877899746,0.030670050097187117,0.014022848778997461,0.01049095863556999
899,1.402284877899746,0.030670050097187117,0.014022848778997461,0.01049095863556999
900,1.402284877899746,0.030670050097187117,0.014022848778997461,0.01049095863556999
901,1.402284877899746,0.030670050097187117,0.014022848778997461,0.01049095863556999
902,1.3967968225847818,0.03056716121166029,0.013967968225847817,0.010515107025528018
903,1.3967968225847818,0.03056716121166029,0.013967968225847817,0.010515107025528018
904,1.3967968225847818,0.03056716121166029,0.013967968225847817,0.010515107025528018
905,1.39064644080544,0.030397177088204257,0.0139064644080544,0.010515798521727142
906,1.39064644080544,0.030397177088204257,0.0139064644080544,0.010515798521727142
907,1.39064644080544,0.030397177088204257,0.0139064644080544,0.010515798521727142
908,1.3885162521800534,0.03017063355280551,0.013885162521800533,0.010435928194043927
909,1.3885162521800534,0.03017063355280551,0.013885162521800533,0.010435928194043927
910,1.3885162521800534,0.03017063355280551,0.013885162521800533,0.010435928194043927
911,1.3869804428717858,0.03015686090536237,0.013869804428717858,0.010449743258221332
912,1.3880966545893916,0.03018901043905907,0.013880966545893915,0.010450304882746946
913,1.3880966545893916,0.03018901043905907,0.013880966545893915,0.010450304882746946
914,1.3880966545893916,0.03018901043905907,0.013880966545893915,0.010450304882746946
915,1.3880966545893916,0.03018901043905907,0.013880966545893915,0.010450304882746946
916,1.3880966545893916,0.03018901043905907,0.013880966545893915,0.010450304882746946
917,1.387570395686148,0.03017562688372274,0.01387570395686148,0.010450890322779493
918,1.387570395686148,0.03017562688372274,0.01387570395686148,0.010450890322779493
919,1.387570395686148,0.03017562688372274,0.01387570395686148,0.010450890322779493
920,1.387570395686148,0.03017562688372274,0.01387570395686148,0.010450890322779493
921,1.387570395686148,0.03017562688372274,0.01387570395686148,0.010450890322779493
922,1.387570395686148,0.03017562688372274,0.01387570395686148,0.010450890322779493
923,1.387570395686148,0.03017562688372274,0.01387570395686148,0.010450890322779493
924,1.387570395686148,0.03017562688372274,0.01387570395686148,0.010450890322779493
925,1.387570395686148,0.03017562688372274,0.01387570395686148,0.010450890322779493
926,1.387570395686148,0.03017562688372274,0.01387570395686148,0.010450890322779493
927,1.387570395686148,0.03017562688372274,0.01387570395686148,0.010450890322779493
928,1.3919720907858304,0.030287294851870084,0.013919720907858304,0.010445779930959355
929,1.3919720907858304,0.030287294851870084,0.013919720907858304,0.010445779930959355
930,1.3919720907858304,0.030287294851870084,0.013919720907858304,0.010445779930959355
931,1.3919720907858304,0.030287294851870084,0.013919720907858304,0.010445779930959355
932,1.3919720907858304,0.030287294851870084,0.013919720907858304,0.010445779930959355
933,1.3940173221630396,0.03032161774803501,0.013940173221630396,0.010434929229816987
934,1.3940173221630396,0.03032161774803501,0.013940173221630396,0.010434929229816987
935,1.3940173221630396,0.03032161774803501,0.013940173221630396,0.010434929229816987
936,1.3940173221630396,0.03032161774803501,0.013940173221630396,0.010434929229816987
937,1.3940173221630396,0.03032161774803501,0.013940173221630396,0.010434929229816987
938,1.3940173221630396,0.03032161774803501,0.013940173221630396,0.010434929229816987
939,1.3940173221630396,0.03032161774803501,0.013940173221630396,0.010434929229816987
940,1.3890642172339978,0.030079487275600333,0.013890642172339977,0.010384841491135695
941,1.3890642172339978,0.030079487275600333,0.013890642172339977,0.010384841491135695
942,1.3890642172339978,0.030079487275600333,0.013890642172339977,0.010384841491135695
943,1.3890642172339978,0.030079487275600333,0.013890642172339977,0.010384841491135695
944,1.3890642172339978,0.030079487275600333,0.013890642172339977,0.010384841491135695
945,1.3890642172339978,0.030079487275600333,0.013890642172339977,0.010384841491135695
946,1.3890642172339978,0.030079487275600333,0.013890642172339977,0.010384841491135695
947,1.3890642172339978,0.030079487275600333,0.013890642172339977,0.010384841491135695
948,1.3890642172339978,0.030079487275600333,0.013890642172339977,0.010384841491135695
949,1.3919412163277225,0.03013782655651299,0.013919412163277224,0.010374402662030232
950,1.3919412163277225,0.03013782655651299,0.013919412163277224,0.010374402662030232
951,1.3919412163277225,0.03013782655651299,0.013919412163277224,0.010374402662030232
952,1.3919412163277225,0.03013782655651299,0.013919412163277224,0.010374402662030232
953,1.3919412163277225,0.03013782655651299,0.013919412163277224,0.010374402662030232
954,1.3919412163277225,0.03013782655651299,0.013919412163277224,0.010374402662030232
955,1.3919412163277225,0.03013782655651299,0.013919412163277224,0.010374402662030232
956,1.3919412163277225,0.03013782655651299,0.013919412163277224,0.010374402662030232
957,1.3919412163277225,0.03013782655651299,0.013919412163277224,0.010374402662030232
958,1.3919412163277225,0.03013782655651299,0.013919412163277224,0.010374402662030232
959,1.3919412163277225,0.03013782655651299,0.013919412163277224,0.010374402662030232
960,1.3919412163277225,0.03013782655651299,0.013919412163277224,0.010374402662030232
961,1.3919412163277225,0.03013782655651299,0.013919412163277224,0.010374402662030232
962,1.3919412163277225,0.03013782655651299,0.013919412163277224,0.010374402662030232
963,1.390322733308194,0.030120605904111575,0.01390322733308194,0.010387797108422893
964,1.390322733308194,0.030120605904111575,0.01390322733308194,0.010387797108422893
965,1.390322733308194,0.030120605904111575,0.01390322733308194,0.010387797108422893
966,1.3925518383042776,0.03017708485553448,0.013925518383042776,0.010385123317461498
967,1.3925518383042776,0.03017708485553448,0.013925518383042776,0.010385123317461498
968,1.3925518383042776,0.03017708485553448,0.013925518383042776,0.010385123317461498
969,1.3925518383042776,0.03017708485553448,0.013925518383042776,0.010385123317461498
970,1.3925518383042776,0.03017708485553448,0.013925518383042776,0.010385123317461498
971,1.3925518383042776,0.03017708485553448,0.013925518383042776,0.010385123317461498
972,1.3925518383042776,0.03017708485553448,0.013925518383042776,0.010385123317461498
973,1.3888457112139725,0.03005089108647017,0.013888457112139724,0.010373990066939393
974,1.3888457112139725,0.03005089108647017,0.013888457112139724,0.010373990066939393
975,1.3888457112139725,0.03005089108647017,0.013888457112139724,0.010373990066939393
976,1.3888457112139725,0.03005089108647017,0.013888457112139724,0.010373990066939393
977,1.3888457112139725,0.03005089108647017,0.013888457112139724,0.010373990066939393
978,1.3888457112139725,0.03005089108647017,0.013888457112139724,0.010373990066939393
979,1.3888457112139725,0.03005089108647017,0.013888457112139724,0.010373990066939393
980,1.3888457112139725,0.03005089108647017,0.013888457112139724,0.010373990066939393
981,1.3888457112139725,0.03005089108647017,0.013888457112139724,0.010373990066939393
982,1.3884783784079855,0.030044740294618365,0.013884783784079854,0.010375942473603869
983,1.3884783784079855,0.030044740294618365,0.013884783784079854,0.010375942473603869
984,1.3884783784079855,0.030044740294618365,0.013884783784079854,0.010375942473603869
985,1.3884783784079855,0.030044740294618365,0.013884783784079854,0.010375942473603869
986,1.3884783784079855,0.030044740294618365,0.013884783784079854,0.010375942473603869
987,1.3884783784079855,0.030044740294618365,0.013884783784079854,0.010375942473603869
988,1.3805423896670366,0.029675454548437397,0.013805423896670365,0.010303631229698431
989,1.3805423896670366,0.029675454548437397,0.013805423896670365,0.010303631229698431
990,1.3805423896670366,0.029675454548437397,0.013805423896670365,0.010303631229698431
991,1.3805698497043388,0.029675806755193407,0.013805698497043389,0.010303434211983304
992,1.3805698497043388,0.029675806755193407,0.013805698497043389,0.010303434211983304
993,1.3805698497043388,0.029675806755193407,0.013805698497043389,0.010303434211983304
994,1.3805698497043388,0.029675806755193407,0.013805698497043389,0.010303434211983304
995,1.3830703120700627,0.029714796905051542,0.013830703120700626,0.010288810438411108
996,1.3830703120700627,0.029714796905051542,0.013830703120700626,0.010288810438411108
997,1.3830703120700627,0.029714796905051542,0.013830703120700626,0.010288810438411108
998,1.3830703120700627,0.029714796905051542,0.013830703120700626,0.010288810438411108
999,1.3795790954479479,0.029601444484726458,0.013795790954479479,0.010280593211851484
