,Sum X,Sum X_square,Mean,StdDev
0,83.48430100506813,77.40564439238943,0.8348430100506813,0.2776573292629107
1,81.48146462533909,73.11450282462522,0.8148146462533908,0.25927229026105675
2,77.53990889669134,65.44325990548728,0.7753990889669135,0.23062708402126897
3,75.82167618010881,62.53280630504773,0.7582167618010881,0.22457828295351556
4,75.55172362245233,61.97504909446064,0.7555172362245233,0.22123335352578335
5,75.01091123530584,61.22470623306815,0.7501091123530584,0.22267326264189916
6,73.61195309283731,59.31125937105869,0.7361195309283731,0.22636393241057373
7,73.34195303180026,58.92429134597368,0.7334195303180026,0.22658046254665754
8,73.29474636462763,58.85025142091311,0.7329474636462763,0.2264741259915174
9,71.94156288982859,57.02262499558357,0.7194156288982859,0.22949379698091935
10,70.74883759731766,54.972637072438886,0.7074883759731766,0.22178045131892493
11,70.74883759731766,54.972637072438886,0.7074883759731766,0.22178045131892493
12,70.50227524443599,54.676034830349515,0.70502275244436,0.2229422948641058
13,68.86186056520224,51.89930702515334,0.6886186056520224,0.21165416651083885
14,68.17099699578746,50.70074358783762,0.6817099699578746,0.20561846400167952
15,67.83653500788182,50.27418012102596,0.6783653500788183,0.20630621178893752
16,67.26252047697548,49.70138962994422,0.6726252047697548,0.21116162105810687
17,66.43031994417771,48.65590640114836,0.6643031994417771,0.21274473723902582
18,66.33960244415408,48.50155197683401,0.6633960244415408,0.21194630103754752
19,65.70319621178128,47.73061949790498,0.6570319621178128,0.213577142350643
20,65.36417811534075,47.38304183732613,0.6536417811534075,0.2158305824109786
21,64.67186746226511,45.85011403135922,0.6467186746226511,0.20063921901740372
22,64.58335101420883,45.727746033012814,0.6458335101420883,0.20044085788001703
23,64.31636245504355,45.3041609155715,0.6431636245504354,0.19844939206473164
24,63.12765230489653,43.48704240632246,0.6312765230489653,0.19068396762820347
25,61.95916535424404,41.89431574751189,0.6195916535424404,0.1872146904910601
26,61.863606133066384,41.752895173426495,0.6186360613306638,0.186596825684544
27,61.2323302998889,40.751011247591094,0.612323302998889,0.1804723942336935
28,61.09013144875152,40.53216421233891,0.6109013144875152,0.17922395509756833
29,60.72493077315289,40.14523982642544,0.607249307731529,0.18083328378324948
30,60.482523355009754,39.841127319652784,0.6048252335500975,0.1805483593323346
31,59.994416547421444,39.38155559053926,0.5999441654742145,0.18407214405998795
32,58.45728987352735,37.316480148987566,0.5845728987352735,0.17731138585583067
33,58.2592695451357,37.11258176737189,0.5825926954513571,0.17807742383705252
34,57.15600823649057,36.071477748571965,0.5715600823649057,0.1844826542869053
35,57.093870605114354,36.00443410503697,0.5709387060511435,0.18458963942490295
36,56.295629524611854,35.20256357418931,0.5629562952461186,0.18736553948007117
37,55.57836261885926,34.22390268566602,0.5557836261885926,0.18260226646271122
38,54.871764064992156,33.42301674472397,0.5487176406499216,0.18204152901693393
39,54.63977237341398,33.20578806297692,0.5463977237341399,0.18305028852181524
40,53.94283094044621,32.32323316830747,0.5394283094044621,0.17958126488060672
41,52.95276942501786,31.127420405970877,0.5295276942501786,0.17571176705559055
42,52.34116318716937,30.355611733743274,0.5234116318716937,0.17203598739462442
43,52.27924667101959,30.331757258951544,0.522792466710196,0.17322127277151628
44,52.1532697432537,30.2214850535083,0.521532697432537,0.17383468021032156
45,51.857235266572744,29.863312721895202,0.5185723526657274,0.17238283635468013
46,51.84330258119377,29.851178854487628,0.5184330258119377,0.1724499530076913
47,51.697592534794104,29.6924361274167,0.516975925347941,0.17222152561398107
48,51.620543189157296,29.635164286711888,0.516205431891573,0.1728687217305476
49,51.40850320813256,29.50637294674873,0.5140850320813256,0.1754431795694257
50,51.32337796968547,29.452006361015687,0.5132337796968547,0.17638353377863053
51,51.203120543417526,29.39523789319487,0.5120312054341752,0.17825942778314458
52,50.779111586147685,28.919419297364904,0.5077911158614768,0.17703778022163863
53,50.55969013317137,28.679769478405163,0.5055969013317138,0.1765487698847572
54,49.858500943930046,27.969899078839667,0.49858500943930045,0.17638588138172892
55,49.77157396022806,27.89879857934929,0.4977157396022806,0.17682485217199442
56,49.22290871506079,27.184595028043393,0.49222908715060787,0.1719199698793402
57,48.897111352191246,26.89115026690523,0.48897111352191247,0.17268107253023787
58,48.7085090423263,26.660019008170615,0.487085090423263,0.17131346931595276
59,48.44222400608702,26.54004847102107,0.48442224006087015,0.17531565259445434
60,48.354611393557775,26.404646909394074,0.4835461139355777,0.17386668683719156
61,48.329201519133676,26.364043796906284,0.48329201519133674,0.1734049192536347
62,47.71950003047631,25.712208467083194,0.47719500030476314,0.17148474088084056
63,47.65734210751637,25.66541744102558,0.4765734210751637,0.17184862156843303
64,47.26366853462589,25.30540531529607,0.4726366853462589,0.1722458034840389
65,47.06347247930026,25.206673215773794,0.4706347247930026,0.17484189422662016
66,46.96060227829923,25.111873733338626,0.4696060227829923,0.17489688590516977
67,46.68475719435644,24.860308411428953,0.4668475719435644,0.17508977321559357
68,46.57499035219839,24.78502756692963,0.4657499035219839,0.17586160194470815
69,46.26494772633511,24.51235894010388,0.4626494772633511,0.17629251427382495
70,46.14772741845024,24.382525581037275,0.46147727418450235,0.17568147660358044
71,45.817338724817475,23.942968310466924,0.45817338724817475,0.17177552305903004
72,45.69385742545267,23.816083032377655,0.4569385742545267,0.17137085423728537
73,45.38791179180196,23.59341710496907,0.4538791179180196,0.17299687097647506
74,45.26441448270157,23.510128693647225,0.4526441448270157,0.17382337325656722
75,45.011487883370336,23.27969516693386,0.4501148788337034,0.17376290605839642
76,44.572454336321925,22.879609079927754,0.44572454336321926,0.17356763017028032
77,44.49890426936295,22.813170882624494,0.44498904269362954,0.1735409482192952
78,43.99300625685847,22.381592329538304,0.4399300625685847,0.1740042049600646
79,43.6719472431923,22.085559519023924,0.436719472431923,0.17358484262464305
80,43.536931247828164,21.99316744082399,0.43536931247828164,0.17431361438633597
81,43.38684699747461,21.85888587800421,0.43386846997474615,0.1742039309023045
82,43.096577468573074,21.62828669462525,0.4309657746857307,0.17478949623984977
83,42.51747585860293,21.215724888695245,0.42517475858602927,0.17715437772819553
84,42.521337764851296,21.219017447521146,0.42521337764851297,0.17715461592618625
85,42.38506564666939,21.107798411137775,0.4238506564666939,0.1772811471198514
86,42.27847052038998,21.030729950958158,0.4227847052038998,0.17765244877353395
87,41.796212857713684,20.705274272222617,0.4179621285771368,0.17988997136442914
88,41.405462014068576,20.36996802670655,0.4140546201406858,0.17960638019630018
89,41.37743715245086,20.354152645807876,0.4137743715245086,0.17981183478174267
90,41.09979846260409,20.085822496028154,0.4109979846260409,0.17871452541305696
91,41.01463256125565,20.041581240787423,0.41014632561255654,0.1794318923558267
92,40.447977730427674,19.593370442025606,0.40447977730427676,0.17980493367018258
93,40.361220768606294,19.50835501888926,0.40361220768606293,0.17938989936915353
94,40.120471282957844,19.3165460504053,0.4012047128295784,0.17944425013744106
95,39.97344686278743,19.21905342302665,0.3997344686278743,0.1800080243240769
96,39.831037825038685,19.111269579703187,0.39831037825038684,0.1801708588397847
97,39.553522698591905,18.878209445175006,0.39553522698591903,0.17981651388275655
98,39.2342627896217,18.679587540178336,0.39234262789621704,0.1812819288767469
99,38.79174510038814,18.351696192983788,0.3879174510038814,0.18176086800103353
100,38.69519180789118,18.250376000341454,0.38695191807891177,0.18103030988888488
101,38.39445415504711,17.943762009610587,0.3839445415504711,0.1789530919255223
102,38.258844234340074,17.835315902864295,0.3825884423434007,0.17882741068945024
103,37.886484905817106,17.597463778292816,0.3788648490581711,0.18010014972524976
104,37.52891875231019,17.412753914878675,0.3752891875231019,0.18244331962841717
105,37.14166267209199,17.08088073314111,0.3714166267209199,0.1812691278918281
106,36.947365621587224,16.96706842065907,0.36947365621587225,0.18209860397341365
107,36.785594395081034,16.86993014338263,0.36785594395081034,0.18270551697714155
108,36.59639467446409,16.80036325060199,0.3659639467446409,0.18459150085826148
109,36.40828341799988,16.613199507381637,0.3640828341799988,0.18323669100176382
110,36.33054444028082,16.54530496797463,0.36330544440280815,0.18292677154267054
111,36.11238552489769,16.391461969060362,0.3611238552489769,0.18304147306203478
112,35.892573603598215,16.219579643604277,0.35892573603598216,0.1826694075292062
113,35.80880808699335,16.162736684071156,0.35808808086993354,0.18275747092690758
114,35.596402658536796,15.984256366836917,0.35596402658536797,0.18202245862942462
115,35.449883514049674,15.938862095824117,0.35449883514049674,0.18362787599455607
116,35.029101456020655,15.618067895157951,0.35029101456020656,0.18296689337134373
117,34.75470232077797,15.461193072318398,0.34754702320777975,0.1839102971086584
118,34.61980438194575,15.319019369435152,0.34619804381945746,0.18258452330340746
119,34.402174362147036,15.190885232647473,0.34402174362147037,0.1831881334642559
120,34.32561326078663,15.165042416652064,0.3432561326078663,0.18391751301496967
121,34.09834474663447,15.031421327118762,0.3409834474663447,0.1845115222016072
122,33.82086322353736,14.854717140104494,0.33820863223537356,0.18482990148383133
123,33.768947052539446,14.821796426403349,0.33768947052539444,0.1848885766084867
124,33.67880968855232,14.760897550295212,0.3367880968855232,0.18488578447024953
125,33.23081771854161,14.360785866241024,0.3323081771854161,0.18215140416180253
126,32.99269571535289,14.186388488642846,0.3299269571535289,0.18169228885630223
127,32.8436641129128,14.078404452327575,0.32843664112912796,0.18142055365115653
128,32.61420097537482,13.883134155158853,0.3261420097537482,0.18017416858521795
129,32.41052741415143,13.705887825693821,0.3241052741415143,0.17892638019753285
130,32.117220655637375,13.575626731391578,0.32117220655637374,0.18056766335539087
131,31.794224938626144,13.367894703679934,0.3179422493862614,0.18053164014101153
132,31.56015852789465,13.155408813999063,0.3156015852789465,0.17874486708548165
133,31.303862178992773,13.041971696793912,0.31303862178992775,0.18007370223272934
134,31.107904275260267,12.910836029832426,0.3110790427526027,0.17982822208554655
135,30.96127241342508,12.840480984932986,0.3096127241342508,0.18040169318356797
136,30.65386433445287,12.653637964807908,0.3065386433445287,0.18047282284204155
137,30.455744476217404,12.539682876816366,0.30455744476217406,0.18066984144593407
138,30.356214017357,12.47013400642653,0.30356214017357,0.18041997427532
139,30.051491512434517,12.296676934645134,0.30051491512434514,0.18071401476990925
140,29.657043554347275,11.993441388416155,0.29657043554347273,0.1788306199891854
141,29.326445795415935,11.660588445899716,0.29326445795415934,0.17493382222957993
142,29.126525439512324,11.436221674344727,0.29126525439512324,0.17183354831228803
143,29.111258211832713,11.43404355141627,0.29111258211832713,0.17202877679784548
144,29.002876024666953,11.368336906010663,0.2900287602466695,0.1719496649891663
145,28.984930754959315,11.361743619091751,0.28984930754959315,0.17206049838338508
146,28.84236613518515,11.250188222678524,0.2884236613518515,0.1712123646211854
147,28.781612551196154,11.21851619409834,0.28781612551196156,0.17130977741000716
148,28.773833286140874,11.217782203515096,0.28773833286140876,0.17141900080588526
149,28.64447605531926,11.143600942452295,0.28644476055319257,0.17142172725809035
150,28.423221093404635,11.029449388285617,0.2842322109340463,0.17177469007510962
151,28.33501994920193,10.99063138182056,0.2833501994920193,0.1721016509683695
152,28.228880092250648,10.891336958106537,0.28228880092250647,0.1709573117909816
153,28.176977862283024,10.855491986900537,0.28176977862283026,0.17076507758861764
154,27.98873909072791,10.72154390905852,0.2798873909072791,0.1699367161672284
155,27.982172283315165,10.719514644409301,0.27982172283315165,0.16998514604158763
156,27.847337535428,10.646690434372374,0.27847337535428,0.17005729494061117
157,27.75356318163736,10.551097117458763,0.2775356318163736,0.16877483297836188
158,27.80643831678377,10.596913701230239,0.2780643831678377,0.16926114682877558
159,27.819873924239722,10.598440349397022,0.27819873924239724,0.16908537777676366
160,27.639740548282383,10.416956702684427,0.2763974054828238,0.16665545676397078
161,27.510390407799193,10.321078104227468,0.2751039040779919,0.16591751867515891
162,27.409393744970743,10.270492760909242,0.27409393744970745,0.16606456895559715
163,27.320153124689387,10.18542298711412,0.2732015312468939,0.16497015849993493
164,27.148520319426485,10.077516328745558,0.27148520319426483,0.16453251269589336
165,26.976368499200113,9.979197959266052,0.26976368499200115,0.1643761961240036
166,26.762231646614296,9.86717843132813,0.267622316466143,0.16446908537040303
167,26.708304332086662,9.821703876817763,0.26708304332086663,0.16396245527144837
168,26.65556500809825,9.818502271099465,0.2665556500809825,0.16472130439290322
169,26.385833604729882,9.683625245732062,0.2638583360472988,0.1649697880088089
170,26.19456696041147,9.582042427538763,0.2619456696041147,0.16493905071583145
171,26.157919027616522,9.571034830933417,0.2615791902761652,0.16518678979809467
172,26.095985146078196,9.500449007403766,0.26095985146078193,0.16402574797757907
173,25.808094024389035,9.28831877080758,0.25808094024389033,0.16210310296507374
174,25.73413792778954,9.2543327866796,0.2573413792778954,0.1622305223382652
175,25.600135475698245,9.174167334516426,0.25600135475698244,0.16187952220016555
176,25.466912823756427,9.05337177117662,0.25466912823756427,0.16024154528238063
177,25.315197930232017,8.974142565778589,0.2531519793023202,0.16017334682494322
178,25.303536266561448,8.95169607702925,0.2530353626656145,0.15965608667061038
179,25.125523988232718,8.83743464063426,0.2512552398823272,0.15888722679314668
180,25.030332556034086,8.762791931614295,0.25030332556034085,0.15803849065837397
181,24.940560315822072,8.686927364579557,0.24940560315822072,0.15705450887854092
182,24.838960403639778,8.622243918619436,0.2483896040363978,0.1566047374533602
183,24.616705469894338,8.469864095148544,0.24616705469894337,0.15524310655334383
184,24.469308407378676,8.367684452269776,0.24469308407378676,0.1542794190070616
185,24.10319401687562,8.13130401226132,0.2410319401687562,0.15237008873495586
186,24.020073334964657,8.055018733331822,0.24020073334964656,0.15117471690600323
187,23.819384165309472,7.937380873473739,0.23819384165309473,0.1504576436518857
188,23.719712002388324,7.877635951203656,0.23719712002388324,0.15004627874230034
189,23.63551066007765,7.830529373058519,0.2363551066007765,0.1498050643814179
190,23.555593266882504,7.789607210961384,0.23555593266882505,0.14969794485607946
191,23.50038464640741,7.765236074383973,0.23500384646407413,0.1497516373564229
192,23.293724186043107,7.639758474321506,0.23293724186043108,0.14878785601543595
193,22.97254994406027,7.399185736375164,0.2297254994406027,0.14566417634585824
194,22.842613827847835,7.324504415175063,0.22842613827847835,0.145143182764235
195,22.73179391875732,7.270775583254905,0.22731793918757318,0.14503210112269574
196,22.459086238511798,7.077864606164736,0.22459086238511797,0.1426099246011874
197,22.38223548596215,7.006766640815327,0.2238223548596215,0.14131956649115132
198,22.207440668735494,6.901751050141967,0.22207440668735492,0.14035835705749397
199,22.118353951465146,6.85937504972254,0.22118353951465144,0.14025545388681332
200,21.995502501191332,6.79217023999799,0.21995502501191333,0.1397908772845656
201,21.864453076304116,6.715528635498731,0.21864453076304116,0.13910375811744577
202,21.802598305298773,6.679439679878964,0.21802598305298773,0.13877704245503988
203,21.689278152163354,6.614740265885921,0.21689278152163355,0.13822056280694328
204,21.41154032062876,6.422772199509169,0.2141154032062876,0.13558140029111873
205,21.33524533125714,6.392583901790443,0.2133524533125714,0.13567081367564462
206,21.18310416107383,6.322914891583371,0.21183104161073832,0.1354871164574084
207,20.989455650304414,6.207073122360309,0.20989455650304414,0.1342199924526652
208,20.728608104276127,6.070428087901194,0.20728608104276128,0.13317943341577085
209,20.686527159948113,6.035437602939062,0.20686527159948112,0.132518434323167
210,20.570383927614373,5.984491649336344,0.20570383927614372,0.1324041049228379
211,20.484673459767198,5.9422845204702925,0.20484673459767197,0.13213879267411924
212,20.395243441212248,5.887430049987515,0.2039524344121225,0.131444684172636
213,20.23006139937813,5.827123708417414,0.2023006139937813,0.13170307005500378
214,20.182124331675002,5.805633611561839,0.20182124331675003,0.13162264950113858
215,20.03732862024331,5.74668275590571,0.2003732862024331,0.13159549283883143
216,19.866768450589056,5.658910748949815,0.19866768450589056,0.13084440615695453
217,19.790501798237063,5.628384044728952,0.19790501798237062,0.13083365127018004
218,19.715033876141288,5.590559099370189,0.19715033876141289,0.1305271424645542
219,19.5338403852288,5.520454903735225,0.19533840385228798,0.13056591062675085
220,19.453910069163022,5.495510377740944,0.19453910069163022,0.13080383052304392
221,19.126891999311724,5.349631545090025,0.19126891999311724,0.1300481283816371
222,19.027120382541852,5.303497036667551,0.1902712038254185,0.12973757883320297
223,19.009358919415064,5.297547126238165,0.19009358919415065,0.12976863492256957
224,18.911571372221374,5.240802702654964,0.18911571372221375,0.129008813070609
225,18.762984325543655,5.174181724904022,0.18762984325543655,0.1285957198703772
226,18.461001652071104,5.021655595573478,0.18461001652071105,0.12702636638099027
227,18.42035013631672,4.996620013819467,0.1842035013631672,0.12663044745930707
228,18.266602367500518,4.908808263976862,0.18266602367500517,0.12538423519139508
229,18.20140585638125,4.870499225024616,0.1820140585638125,0.12480334424756094
230,18.13462106580669,4.853217418437677,0.18134621065806691,0.12508287678310245
231,18.08454624013971,4.836464569888078,0.1808454624013971,0.1251381813344978
232,17.923155981318715,4.768981102227793,0.17923155981318714,0.12476321168200924
233,17.836186667466677,4.747590441263126,0.17836186667466677,0.125151703659837
234,17.63129786192118,4.661597260210131,0.1763129786192118,0.12461824173259176
235,17.541067942855015,4.61694468243827,0.17541067942855015,0.12409891364068062
236,17.45193614062108,4.586174874362467,0.1745193614062108,0.12411583798207645
237,17.38454754405644,4.552738310922481,0.1738454754405644,0.12371391909590827
238,17.31227804581418,4.512230712078132,0.17312278045814178,0.12308862663635241
239,17.21923131184497,4.483259047118375,0.17219231311844968,0.12321687292778345
240,17.216561940970653,4.483750870932784,0.17216561940970654,0.12327411813758768
241,17.095200314895855,4.4643505789159175,0.17095200314895856,0.12417293750458527
242,17.037630299127663,4.433027320403852,0.17037630299127662,0.12370201527486617
243,17.0362106038674,4.431720289944838,0.170362106038674,0.12366873382353351
244,17.036772723823603,4.432300617377738,0.17036772723823604,0.12368445209263526
245,17.043188624044475,4.43410046473554,0.17043188624044475,0.12366881902840139
246,16.996887089947165,4.425246123362861,0.16996887089947166,0.12394774769550009
247,16.940931233283607,4.3915083458793,0.16940931233283607,0.12335140191221419
248,16.811978159629696,4.334647105150616,0.16811978159629695,0.12280964981433491
249,16.76692905712228,4.3077513115624395,0.1676692905712228,0.12232956353624114
250,16.709393912561602,4.266684357897152,0.16709393912561601,0.12143499942955675
251,16.636188356027958,4.236933993736888,0.1663618835602796,0.12121494807013225
252,16.6672983794544,4.254978424010878,0.166672983794544,0.12153148033794557
253,16.633932644660206,4.249257505984328,0.16633932644660207,0.12175304323561702
254,16.533930579576342,4.204072459789068,0.16533930579576342,0.12125856075702744
255,16.47972660989419,4.184612739975446,0.1647972660989419,0.12119401175829186
256,16.36761781345279,4.130141833406349,0.1636761781345279,0.12046379972978516
257,16.367096570985442,4.130109220561276,0.16367096570985443,0.12046952805260099
258,16.328553648581178,4.09313951852449,0.1632855364858118,0.11945387712328773
259,16.32871438303863,4.099484815141598,0.1632871438303863,0.11971698630992478
260,16.259475410292726,4.0927026937043705,0.16259475410292726,0.1203743032181384
261,16.158320630135837,4.062103966120534,0.16158320630135836,0.1204653771943541
262,16.103794029486348,4.046914763100739,0.16103794029486349,0.12056504226597099
263,16.091858573920973,4.045392942205371,0.16091858573920972,0.12066125387110115
264,15.9943173137061,3.995713635944928,0.159943173137061,0.1198971130857512
265,15.977121656668652,3.990708269167774,0.15977121656668652,0.11991764277402508
266,15.949807724091425,3.975564027668255,0.15949807724091425,0.11964950327157195
267,15.91388932915906,3.9604486222559725,0.1591388932915906,0.11949602028723579
268,15.824792175059262,3.8994709587416256,0.15824792175059263,0.11811987491118744
269,15.661636553399722,3.7937634012004127,0.15661636553399721,0.11579701230569592
270,15.638537251730176,3.7838566605837736,0.15638537251730175,0.11568138082017564
271,15.579757162431692,3.7603338832895488,0.15579757162431693,0.11545759181994628
272,15.579757162431692,3.7603338832895488,0.15579757162431693,0.11545759181994628
273,15.511442282057043,3.725791623437286,0.15511442282057042,0.11488007689505679
274,15.430122755044003,3.7031885095667807,0.15430122755044004,0.11499137477261123
275,15.40915861330869,3.6927546880401754,0.1540915861330869,0.11481868298927321
276,15.331515358078185,3.656674840796718,0.15331515358078185,0.11428566003864374
277,15.162855588328672,3.6142680342824973,0.15162855588328672,0.11467982116995985
278,15.162855588328672,3.6142680342824973,0.15162855588328672,0.11467982116995985
279,15.138139095132793,3.6083132623437586,0.15138139095132794,0.11474670843679478
280,15.129845484391232,3.6048252380239814,0.15129845484391233,0.11470409732038536
281,15.037034123292731,3.555145024747967,0.1503703412329273,0.11375504703076988
282,15.000188561708429,3.5253566889973214,0.15000188561708427,0.1129291866670985
283,14.934520738205022,3.51941793006397,0.1493452073820502,0.11353496524266046
284,14.895148587535836,3.4909711948346165,0.14895148587535836,0.11279701593512605
285,14.8463039185316,3.465306105141118,0.148463039185316,0.1123022130114563
286,14.814893763753368,3.4449707525657853,0.14814893763753367,0.11181055318049371
287,14.79415039648884,3.444621520289253,0.1479415039648884,0.11206929377621438
288,14.751659763134725,3.4272023208389397,0.14751659763134725,0.11185203007393558
289,14.719879093147958,3.4214509146376195,0.14719879093147958,0.11201350407288738
290,14.634963320024243,3.376241140594101,0.1463496332002424,0.11110443856163224
291,14.522012118052302,3.335642229990465,0.14522012118052302,0.1107589215558677
292,14.479208508107531,3.3126056158368167,0.1447920850810753,0.11027832178738856
293,14.455544476830216,3.3070869192312022,0.14455544476830215,0.11033853624255839
294,14.427285643328151,3.3007176817570234,0.1442728564332815,0.11041974331681803
295,14.446581946147703,3.309773902696127,0.14446581946147702,0.11057742099671702
296,14.433456013503637,3.2985370113953496,0.14433456013503637,0.11024021437106818
297,14.414539442475277,3.292810924558338,0.14414539442475277,0.11022801146585126
298,14.403426930609886,3.2837696013420823,0.14403426930609886,0.10996283589867537
299,14.354222280821773,3.2649462066977506,0.14354222280821774,0.10975013593728929
300,14.342348930057627,3.264357688269668,0.14342348930057627,0.10987847650720392
301,14.314280790366816,3.2609358540137285,0.14314280790366815,0.1100885783612035
302,14.304101593513476,3.250585921934243,0.14304101593513477,0.10975029375626724
303,14.21471915559227,3.2300920910504343,0.1421471915559227,0.1099777106656988
304,14.14922808882994,3.1707989625605544,0.1414922808882994,0.10811070286808855
305,14.14183814365158,3.1675248365369986,0.1414183814365158,0.10805595660233687
306,14.154601854870737,3.176850037116877,0.14154601854870738,0.10832001202076076
307,14.0633007468359,3.138428719118252,0.140633007468359,0.1077341375868717
308,14.024879906661987,3.1301215442441026,0.14024879906661986,0.1078493848049766
309,14.001296466185694,3.112606692129292,0.14001296466185695,0.10734261338299213
310,14.006210020351611,3.118121682732572,0.14006210020351612,0.10753522638608212
311,13.971430900523432,3.112330666431392,0.13971430900523432,0.10771823672667419
312,13.815312491110149,3.0251011839127884,0.1381531249111015,0.10566326663711223
313,13.785007651401298,3.0077333317114543,0.137850076514013,0.1052363517145825
314,13.743842437556973,2.984606517249145,0.13743842437556972,0.10467447003759922
315,13.703743949394932,2.956663086356467,0.1370374394939493,0.1038622695713263
316,13.692401993838478,2.950384248267706,0.1369240199383848,0.10370947520159314
317,13.673914225107662,2.9463449440852143,0.1367391422510766,0.103758645024364
318,13.663615043385114,2.9437212522800404,0.13663615043385113,0.10376788962592622
319,13.5995887549702,2.926696527702611,0.13599588754970202,0.10378864989291901
320,13.568784562428748,2.9102993529031225,0.13568784562428748,0.10340117058752649
321,13.365410183602993,2.815730096636316,0.13365410183602994,0.10145877009291657
322,13.366634246597805,2.8159849804045756,0.13366634246597806,0.10145520536578508
323,13.35002101902029,2.808419868963366,0.1335002101902029,0.10130099984109392
324,13.344591069985404,2.8046579143094794,0.13344591069985404,0.10118679785713834
325,13.332360934650824,2.803334705416367,0.13332360934650825,0.10128258608953135
326,13.276598062420984,2.765126638308629,0.13276598062420983,0.10012222916005331
327,13.258362146633752,2.7611130797760848,0.1325836214663375,0.1001634370248534
328,13.258362146633752,2.7611130797760848,0.1325836214663375,0.1001634370248534
329,13.203830081457033,2.735606983495936,0.13203830081457033,0.0996090204397192
330,13.194386598000069,2.7187084407017883,0.13194386598000069,0.09888326773155053
331,13.201469451872908,2.719628853947348,0.13201469451872908,0.09883526177736429
332,13.15352951070207,2.6976191427160767,0.1315352951070207,0.09835983717081757
333,13.145972946797185,2.6970150856675703,0.13145972946797185,0.09843012945680484
334,13.115361662570054,2.693899496827922,0.13115361662570055,0.09867990582827885
335,13.08021079666388,2.6855789873473395,0.1308021079666388,0.09872486224329291
336,13.006636819992796,2.65534533215787,0.13006636819992795,0.09816411352861835
337,13.000518656262317,2.65326774206374,0.13000518656262317,0.0981393340483567
338,12.95973219876319,2.6274146220038075,0.1295973219876319,0.09735851454121584
339,12.929366239135287,2.6129926051645893,0.12929366239135287,0.09702100245347271
340,12.929604390420605,2.6162119517295293,0.12929604390420604,0.09718360225890432
341,12.896687713035474,2.606166314504562,0.12896687713035473,0.09710410778277923
342,12.863084862923854,2.5889597511686775,0.12863084862923854,0.09666282787405248
343,12.811126799509108,2.5665449483994434,0.12811126799509107,0.09619226838308986
344,12.780818462647398,2.5577552327083457,0.12780818462647398,0.09613854726158806
345,12.666506655162607,2.506795113332216,0.12666506655162607,0.0949942737684451
346,12.626410976725253,2.4943808618259773,0.12626410976725252,0.09487456562716365
347,12.667530628919444,2.5236455113782665,0.12667530628919443,0.09586355871926225
348,12.679503716763369,2.5257192846039076,0.12679503716763368,0.09581341970568355
349,12.650887061939939,2.5101628889728715,0.1265088706193994,0.0953788998905564
350,12.650887061939939,2.5101628889728715,0.1265088706193994,0.0953788998905564
351,12.650887061939939,2.5101628889728715,0.1265088706193994,0.0953788998905564
352,12.655424487700518,2.5161168822675233,0.12655424487700517,0.09563049684220114
353,12.620705255000873,2.507497126166424,0.12620705255000872,0.09563864882098437
354,12.543675038826578,2.4698184090325674,0.12543675038826577,0.0946773771413086
355,12.495944952951637,2.46038541221892,0.12495944952951638,0.09481028475576607
356,12.488361586487155,2.4594163079194384,0.12488361586487155,0.09485908268431435
357,12.454616583258966,2.444864949822113,0.12454616583258966,0.09453518961012458
358,12.489126906794425,2.456528324168847,0.12489126906794425,0.09469664277199494
359,12.429321427220007,2.427762317123438,0.12429321427220007,0.0939618010529776
360,12.356906374362984,2.3956902409208136,0.12356906374362983,0.09320723627879374
361,12.34215851183141,2.393054435849875,0.12342158511831411,0.09326122820004835
362,12.34215851183141,2.393054435849875,0.12342158511831411,0.09326122820004835
363,12.313197055914616,2.381428419245882,0.12313197055914615,0.09302043871472757
364,12.314185677520861,2.381661505752594,0.12314185677520861,0.09301988049594531
365,12.3078975191242,2.3809346244202922,0.123078975191242,0.09306402156621302
366,12.292170017600926,2.3758023624043303,0.12292170017600926,0.0929961249186362
367,12.270440951614352,2.368088234737543,0.12270440951614353,0.09286824124893275
368,12.25123731456987,2.3572821560210944,0.1225123731456987,0.09253939694216744
369,12.239462098881601,2.3507842089676436,0.12239462098881601,0.0923439161108111
370,12.215432905908484,2.3390755724654713,0.12215432905908484,0.09202758073957792
371,12.177785919585363,2.3355416245902987,0.12177785919585363,0.09233400920342316
372,12.134750456845907,2.31999326951665,0.12134750456845907,0.09205821978603707
373,12.134750456845907,2.31999326951665,0.12134750456845907,0.09205821978603707
374,12.134750456845907,2.31999326951665,0.12134750456845907,0.09205821978603707
375,12.111044480712803,2.3147899015246924,0.12111044480712803,0.09208777972058248
376,12.099064664817046,2.3105739874119644,0.12099064664817046,0.09201632082286927
377,12.099064664817046,2.3105739874119644,0.12099064664817046,0.09201632082286927
378,12.065353247354162,2.291019068376995,0.12065353247354162,0.09139428748792776
379,12.050209738609873,2.282681168552695,0.12050209738609872,0.09113756750691852
380,12.027707848440475,2.2788542416555067,0.12027707848440475,0.09122481464936723
381,12.020330231014334,2.2769205391635183,0.12020330231014334,0.09121607043373153
382,12.020330231014334,2.2769205391635183,0.12020330231014334,0.09121607043373153
383,12.009224558686949,2.272050104416316,0.12009224558686948,0.09109529951685866
384,12.009266919117735,2.2726826008989245,0.12009266919117735,0.09112945086813422
385,11.988033648238128,2.265135934264453,0.11988033648238128,0.0909948584674737
386,11.965928097235576,2.25323220191798,0.11965928097235576,0.09063100185013193
387,11.918080553554823,2.2234564044149203,0.11918080553554823,0.08961305505364182
388,11.919877992354097,2.224190796882803,0.11919877992354097,0.08963012235608783
389,11.919877992354097,2.224190796882803,0.11919877992354097,0.08963012235608783
390,11.869923273353713,2.210807895650053,0.11869923273353714,0.08954647455355302
391,11.869923273353713,2.210807895650053,0.11869923273353714,0.08954647455355302
392,11.864725269371803,2.2102691165015034,0.11864725269371804,0.08958526995688551
393,11.857472891483855,2.2069314657461234,0.11857472891483856,0.08949496254110498
394,11.857472891483855,2.2069314657461234,0.11857472891483856,0.08949496254110498
395,11.825101733607736,2.1957866061733577,0.11825101733607736,0.08930040851371458
396,11.827681855744096,2.196405272533607,0.11827681855744096,0.0893008785917936
397,11.800243184888709,2.182041992388711,0.11800243184888709,0.08885857303398399
398,11.777457243428657,2.17559249781047,0.11777457243428657,0.08879794516781166
399,11.773148095285297,2.1715295220312987,0.11773148095285296,0.08862614519971522
400,11.754013346047318,2.159440323944548,0.11754013346047318,0.08819705361030852
401,11.754013346047318,2.159440323944548,0.11754013346047318,0.08819705361030852
402,11.764348642790193,2.1648464189490286,0.11764348642790193,0.08836557186245297
403,11.756150988881917,2.161742388720653,0.11756150988881917,0.08829901063923423
404,11.72769268293559,2.1527069173456552,0.11727692682935591,0.08816570539001234
405,11.728019028277782,2.15290200335951,0.11728019028277782,0.08817242766778359
406,11.655486174977801,2.1126701851651233,0.11655486174977801,0.08684276627411962
407,11.64160362166424,2.1058838844262797,0.1164160362166424,0.08663801334211331
408,11.64160362166424,2.1058838844262797,0.1164160362166424,0.08663801334211331
409,11.572992164441885,2.083742446233501,0.11572992164441885,0.08627867464508064
410,11.572501105938223,2.0835411694278774,0.11572501105938222,0.08627359682767746
411,11.586560712822067,2.0854930009409074,0.11586560712822067,0.08619797616080029
412,11.56198860052784,2.0735142858788835,0.11561988600527841,0.08583230638235968
413,11.552249434553273,2.0715688577649134,0.11552249434553273,0.08585011285860661
414,11.556647593775036,2.073129135036629,0.11556647593775037,0.08588178497036293
415,11.556647593775036,2.073129135036629,0.11556647593775037,0.08588178497036293
416,11.569006422134425,2.079872145883421,0.11569006422134426,0.08610766806327676
417,11.56116924888967,2.079659165817601,0.11561169248889669,0.08620051170398467
418,11.532845254466608,2.065621462851321,0.11532845254466607,0.08576457696605234
419,11.532845254466608,2.065621462851321,0.11532845254466607,0.08576457696605234
420,11.519028528044274,2.059976976223715,0.11519028528044274,0.08562107181790803
421,11.519028528044274,2.059976976223715,0.11519028528044274,0.08562107181790803
422,11.448923404607989,2.0372539553733793,0.11448923404607989,0.0852335312026654
423,11.40664941382853,2.024042148024148,0.1140664941382853,0.08502503393261307
424,11.362183431693252,2.006842242674122,0.11362183431693251,0.08460792630242603
425,11.325047153405936,1.9971853778461468,0.11325047153405937,0.08453510794796842
426,11.273710009033795,1.98280521658185,0.11273710009033795,0.08437060168707831
427,11.27933470845718,1.9868860484702486,0.1127933470845718,0.08453710036523493
428,11.255246961786526,1.9765146496340797,0.11255246961786526,0.0842442168891154
429,11.255246961786526,1.9765146496340797,0.11255246961786526,0.0842442168891154
430,11.222530997053298,1.9646827428554094,0.11222530997053298,0.08397801635292348
431,11.213643650335458,1.964200370916732,0.11213643650335457,0.08406796843921262
432,11.165125244610085,1.9518064576330252,0.11165125244610084,0.08397655865506345
433,11.043907736243314,1.9247374609265442,0.11043907736243314,0.08396776048341381
434,11.019423423278585,1.9109887906430807,0.11019423423278585,0.0834692676874593
435,11.014296789972436,1.9092278568388554,0.11014296789972436,0.08343144006085981
436,10.977098811254995,1.8854668067367781,0.10977098811254996,0.08249241320365285
437,10.967593005744355,1.8831968426256303,0.10967593005744355,0.0824812632801599
438,10.943847057102506,1.8786796919730746,0.10943847057102506,0.08252283368138558
439,10.892838524244624,1.864731676866892,0.10892838524244625,0.08235243564790382
440,10.852038052908732,1.861326362441455,0.10852038052908732,0.08268367816102909
441,10.854593478690315,1.8620456606196747,0.10854593478690315,0.08269363123865171
442,10.854593478690315,1.8620456606196747,0.10854593478690315,0.08269363123865171
443,10.862979149060775,1.865813779321738,0.10862979149060775,0.08281126852019877
444,10.86223947755361,1.865733417342083,0.10862239477553609,0.08281611876107464
445,10.852657781111482,1.8613346484609437,0.10852657781111481,0.0826760448571258
446,10.849780998809672,1.8612201946096891,0.10849780998809672,0.0827068750097823
447,10.836862199714474,1.8579934273297902,0.10836862199714474,0.0826811710109252
448,10.803563159744503,1.8517910440620653,0.10803563159744503,0.08274184398453899
449,10.730081445811111,1.8306211136518338,0.10730081445811111,0.08241811908278635
450,10.728579643046395,1.8302141302696802,0.10728579643046394,0.08241297948125557
451,10.723003466983739,1.8285927465900071,0.1072300346698374,0.08238717819300248
452,10.734652627340779,1.8333706179426674,0.1073465262734078,0.0825253262729645
453,10.715649937049134,1.8313342683703997,0.10715649937049135,0.0826488192678267
454,10.693764202950442,1.8299980071782826,0.10693764202950443,0.08285119666578386
455,10.679121825015358,1.819206899215649,0.10679121825015357,0.08238752755608432
456,10.65100258550402,1.8134512863075658,0.1065100258550402,0.08240222846157941
457,10.615596180809725,1.8054527321830058,0.10615596180809725,0.08237377674010012
458,10.528795856153302,1.7597241957723484,0.10528795856153302,0.08069502921288516
459,10.485193957441851,1.7450111627429112,0.1048519395744185,0.08035037271171555
460,10.485646028014738,1.745030323465862,0.10485646028014738,0.08034566554691357
461,10.489913024020945,1.7467301555577635,0.10489913024020944,0.08039573390687599
462,10.48936089030486,1.7466134323443439,0.10489360890304861,0.0803956785824818
463,10.478133023362554,1.7424061145772554,0.10478133023362554,0.08028034616420426
464,10.47568705716518,1.7416726216814444,0.1047568705716518,0.08026658261598434
465,10.47568705716518,1.7416726216814444,0.1047568705716518,0.08026658261598434
466,10.469898477620339,1.740620357988853,0.10469898477620339,0.08027656050629513
467,10.459873206224222,1.739459777190719,0.10459873206224221,0.0803349427265524
468,10.435825287178984,1.7289363860031481,0.10435825287178985,0.07999199283415215
469,10.425380573691124,1.7224442734732448,0.10425380573691123,0.0797219337704676
470,10.394872355127411,1.715093566256599,0.10394872355127412,0.07965926521520758
471,10.348070113906822,1.6937641309974052,0.10348070113906821,0.07892645818571171
472,10.349197949882853,1.694067194809233,0.10349197949882853,0.0789308692939992
473,10.324186631814229,1.6843492555188082,0.10324186631814229,0.07864228884216759
474,10.322529779631079,1.6838182300431077,0.10322529779631079,0.0786302753097942
475,10.305695394325276,1.6795509837981397,0.10305695394325276,0.0785797307320385
476,10.292099257510925,1.6763316068471217,0.10292099257510925,0.07855307349700279
477,10.292099257510925,1.6763316068471217,0.10292099257510925,0.07855307349700279
478,10.28333485727244,1.674669719425073,0.1028333485727244,0.07856207491895369
479,10.311187836112236,1.690056261769561,0.10311187836112236,0.07917387926921807
480,10.30453720919746,1.68885049316734,0.10304537209197459,0.07918431803141267
481,10.284638964423445,1.6725478537945502,0.10284638964423445,0.07840981236485524
482,10.235388466972315,1.6506838804235817,0.10235388466972316,0.07765642985131899
483,10.235388466972315,1.6506838804235817,0.10235388466972316,0.07765642985131899
484,10.220822369825463,1.6490431577078923,0.10220822369825462,0.07774259183694911
485,10.19720901936275,1.638466522321935,0.1019720901936275,0.07737155837103221
486,10.174243603385884,1.6300993284785037,0.10174243603385884,0.07713280751198662
487,10.136715818557764,1.62128975875509,0.10136715818557765,0.0770558033436222
488,10.088560915506928,1.608075697657144,0.10088560915506928,0.07683001263817443
489,10.10407649552123,1.6116250741410425,0.1010407649552123,0.07685710480284803
490,10.048015022462979,1.587829693877581,0.10048015022462979,0.07603970245609619
491,10.031349447827207,1.5842358111814416,0.10031349447827206,0.07602342360991181
492,10.034114803233663,1.584828700406607,0.10034114803233664,0.0760259233131619
493,9.986328411000692,1.568544197529202,0.09986328411000692,0.07558284502488685
494,9.986328411000692,1.568544197529202,0.09986328411000692,0.07558284502488685
495,9.969526469315086,1.557328157338677,0.09969526469315086,0.07506088043148279
496,9.965253641906303,1.5568946045424712,0.09965253641906303,0.07508873437921317
497,9.911853848768633,1.5441377445517932,0.09911853848768633,0.07494593233513729
498,9.911853848768633,1.5441377445517932,0.09911853848768633,0.07494593233513729
499,9.893318783386686,1.5414729872484236,0.09893318783386686,0.0750130269854047
500,9.882432709179561,1.5401277030463814,0.09882432709179562,0.0750668329245187
501,9.888615163839518,1.5409088010915286,0.09888615163839518,0.0750374374899863
502,9.872472684709122,1.534749800547737,0.09872472684709122,0.07483933667827766
503,9.857423435513299,1.531618812850279,0.09857423435513299,0.0748285269787005
504,9.862689923807762,1.5325600345412407,0.09862689923807762,0.07482202277467839
505,9.848807527275266,1.5308872320393332,0.09848807527275266,0.07489306609734933
506,9.846833075970373,1.5304235686995895,0.09846833075970374,0.0748880733120667
507,9.846833075970373,1.5304235686995895,0.09846833075970374,0.0748880733120667
508,9.836294647179326,1.5293177207243747,0.09836294647179326,0.07495270487868252
509,9.820734236384816,1.5270316957019943,0.09820734236384815,0.07500423229958333
510,9.77420827177453,1.518630909822505,0.0977420827177453,0.07505194443998427
511,9.748290382609113,1.5128437938476715,0.09748290382609114,0.07500347592018505
512,9.748290382609113,1.5128437938476715,0.09748290382609114,0.07500347592018505
513,9.748886933736486,1.5130764315529894,0.09748886933736486,0.07501123029821664
514,9.723477290082705,1.5049452228423212,0.09723477290082705,0.07479873773900066
515,9.695188248351908,1.4992645924976054,0.09695188248351908,0.07478621803432743
516,9.658412871208245,1.4909402831114815,0.09658412871208245,0.07470548113788375
517,9.658412871208245,1.4909402831114815,0.09658412871208245,0.07470548113788375
518,9.637301187555366,1.4843061631356913,0.09637301187555365,0.07453391317642799
519,9.637301187555366,1.4843061631356913,0.09637301187555365,0.07453391317642799
520,9.637301187555366,1.4843061631356913,0.09637301187555365,0.07453391317642799
521,9.637301187555366,1.4843061631356913,0.09637301187555365,0.07453391317642799
522,9.637301187555366,1.4843061631356913,0.09637301187555365,0.07453391317642799
523,9.585052890881254,1.4707718160310317,0.09585052890881254,0.07429935577251803
524,9.580984540747693,1.4702882148309786,0.09580984540747693,0.07431928196171676
525,9.561557074019507,1.4691123427059292,0.09561557074019507,0.07449017424523884
526,9.559856761014391,1.4680733938966841,0.0955985676101439,0.07444224479323273
527,9.559856761014391,1.4680733938966841,0.0955985676101439,0.07444224479323273
528,9.559856761014391,1.4680733938966841,0.0955985676101439,0.07444224479323273
529,9.559856761014391,1.4680733938966841,0.0955985676101439,0.07444224479323273
530,9.5479706533072,1.4664159609983582,0.095479706533072,0.07448345621909626
531,9.510713194090801,1.443477312689287,0.09510713194090802,0.07341257781107803
532,9.491131613808683,1.4423431444240293,0.09491131613808683,0.07358854199653933
533,9.491131613808683,1.4423431444240293,0.09491131613808683,0.07358854199653933
534,9.491131613808683,1.4423431444240293,0.09491131613808683,0.07358854199653933
535,9.486518672551307,1.4420784515464389,0.09486518672551307,0.07363002691156596
536,9.510052272576402,1.449628249473913,0.09510052272576403,0.07383883173524329
537,9.498153763459618,1.4490835993561908,0.09498153763459617,0.0739550099866784
538,9.498153763459618,1.4490835993561908,0.09498153763459617,0.0739550099866784
539,9.490965554143314,1.4463227865514083,0.09490965554143313,0.07386057913745732
540,9.45209973060207,1.4392179648051122,0.0945209973060207,0.07387801240102734
541,9.45209973060207,1.4392179648051122,0.0945209973060207,0.07387801240102734
542,9.42075418988009,1.4338920534755664,0.09420754189880091,0.07391792464714722
543,9.410394875492036,1.4318047902856046,0.09410394875492037,0.0739086918541207
544,9.410832623751068,1.4317988654882325,0.09410832623751068,0.07390271705192296
545,9.410832623751068,1.4317988654882325,0.09410832623751068,0.07390271705192296
546,9.412469141218702,1.4324183257925422,0.09412469141218702,0.07392378321275224
547,9.417108229117993,1.4348231633374045,0.09417108229117993,0.07402728479068958
548,9.417108229117993,1.4348231633374045,0.09417108229117993,0.07402728479068958
549,9.417108229117993,1.4348231633374045,0.09417108229117993,0.07402728479068958
550,9.417108229117993,1.4348231633374045,0.09417108229117993,0.07402728479068958
551,9.417108229117993,1.4348231633374045,0.09417108229117993,0.07402728479068958
552,9.395728432302555,1.4240980920509692,0.09395728432302555,0.07357315844213723
553,9.387048214661162,1.4220098047136238,0.09387048214661162,0.07354203307428282
554,9.37977808807804,1.4211292799358375,0.0937977808807804,0.07357492168666903
555,9.387005249206442,1.4246952292118031,0.09387005249206443,0.073724931585286
556,9.354459766185967,1.4181719558706891,0.09354459766185967,0.07369618583744812
557,9.332634135930668,1.4122658428694987,0.09332634135930667,0.07357209006940846
558,9.317969000244824,1.4071933604082014,0.09317969000244825,0.07341307087385503
559,9.313766459942235,1.4063360899903656,0.09313766459942235,0.07340801272932788
560,9.267224113767115,1.3925042221268005,0.09267224113767115,0.07305407547693239
561,9.267224113767115,1.3925042221268005,0.09267224113767115,0.07305407547693239
562,9.289408019785194,1.3976273960654328,0.09289408019785193,0.0731229363801084
563,9.287355032653387,1.3968297804391847,0.09287355032653387,0.07309446938131933
564,9.277421197175048,1.39519350853696,0.09277421197175048,0.07310869085403124
565,9.263750324280284,1.393257242062412,0.09263750324280284,0.07314960979775499
566,9.25350505394774,1.3914919596682724,0.09253505053947739,0.0731586223102861
567,9.240922685769576,1.391186809188147,0.09240922685769576,0.07329667716509658
568,9.231985765031594,1.388453253415892,0.09231985765031593,0.073222786191078
569,9.218154146346444,1.3863736727276832,0.09218154146346444,0.07325503491703775
570,9.216111141759354,1.3859586115562479,0.09216111141759355,0.07325241059403019
571,9.185474776891732,1.36894786813542,0.09185474776891732,0.07247195315197996
572,9.149161262002675,1.3600398926570836,0.09149161262002675,0.07231655237051747
573,9.156630212869127,1.3644158825737018,0.09156630212869127,0.0725242796600852
574,9.153653538349609,1.364363936853572,0.09153653538349608,0.07255826664496395
575,9.147727397826008,1.3556017657201813,0.09147727397826008,0.0720272587477002
576,9.133798672546387,1.3534361405938653,0.09133798672546387,0.07205368544965371
577,9.129254681950849,1.3527204033792857,0.09129254681950849,0.07206160509592266
578,9.129254681950849,1.3527204033792857,0.09129254681950849,0.07206160509592266
579,9.12190036079276,1.3492381039017118,0.09121900360792759,0.07191296419835587
580,9.074962353704551,1.3373752798927632,0.0907496235370455,0.07168164776853381
581,9.037353411500213,1.325379754754944,0.09037353411500212,0.07131915506449854
582,9.03947884313548,1.3254983999044172,0.0903947884313548,0.07130053452460772
583,9.039300003790352,1.3265561488124473,0.09039300003790351,0.07137693627686781
584,9.034788656957907,1.3248330383557572,0.09034788656957908,0.07131332116770361
585,9.025701701804834,1.3233655518912224,0.09025701701804835,0.07132549612807439
586,9.020072852118501,1.3206938943821358,0.090200728521185,0.07120932184811789
587,9.020072852118501,1.3206938943821358,0.090200728521185,0.07120932184811789
588,9.026493297501208,1.3220600815766976,0.09026493297501208,0.07122389129206262
589,8.975843874054629,1.3088556071424504,0.08975843874054629,0.07093644159586879
590,8.975843874054629,1.3088556071424504,0.08975843874054629,0.07093644159586879
591,8.964478743313682,1.308395595917331,0.08964478743313682,0.07104764630331552
592,8.922362652014526,1.3009372010485205,0.08922362652014526,0.07105291324835904
593,8.909049463978942,1.2966336762939608,0.08909049463978942,0.0709169974532006
594,8.913802842251005,1.2971182735890534,0.08913802842251005,0.0708914284299472
595,8.913802842251005,1.2971182735890534,0.08913802842251005,0.0708914284299472
596,8.923313874012496,1.2979753243309826,0.08923313874012496,0.07083219743799733
597,8.909358477810102,1.2981527870640113,0.08909358477810102,0.07102014518449988
598,8.912618179671263,1.2985372044041836,0.08912618179671263,0.07100630790557391
599,8.907591812848853,1.2979711603518063,0.08907591812848853,0.07102951789984832
600,8.904797362418623,1.2975650616783057,0.08904797362418623,0.07103596983366448
601,8.886862718853779,1.2941678263238656,0.08886862718853779,0.07102144299338994
602,8.886862718853779,1.2941678263238656,0.08886862718853779,0.07102144299338994
603,8.886862718853779,1.2941678263238656,0.08886862718853779,0.07102144299338994
604,8.867956637352805,1.2919734132675567,0.08867956637352804,0.07110322524666939
605,8.864860686739176,1.2913714876726454,0.08864860686739176,0.07109950335408172
606,8.847440040442846,1.288272415767419,0.08847440040442846,0.07109855575713939
607,8.827741668730194,1.2831734224170173,0.08827741668730195,0.07098473023958488
608,8.829297612668142,1.2838473870590428,0.08829297612668142,0.07101284557939987
609,8.821357663778073,1.2824752948238851,0.08821357663778073,0.07101491283532801
610,8.78581026930048,1.2677797294540563,0.0878581026930048,0.07041840019288982
611,8.78523040548438,1.2677237243408523,0.0878523040548438,0.07042165800138334
612,8.777046473677041,1.2665985753355051,0.08777046473677041,0.07044381643016222
613,8.776464906481007,1.2665441322135416,0.08776464906481006,0.07044719793338944
614,8.737015268303873,1.2602509866807678,0.08737015268303873,0.0704908950641867
615,8.74073281219297,1.260780600653676,0.0874073281219297,0.07048237366265468
616,8.742293831526464,1.2607938089140358,0.08742293831526464,0.0704639478418985
617,8.723480863612961,1.2540469890072357,0.0872348086361296,0.07021793255494073
618,8.71086390307541,1.2522832661831156,0.0871086390307541,0.07024896915998796
619,8.718932648072432,1.2546660414807074,0.08718932648072432,0.07031843117309101
620,8.718932648072432,1.2546660414807074,0.08718932648072432,0.07031843117309101
621,8.715163067340693,1.2542921337855641,0.08715163067340694,0.070338571273674
622,8.715163067340693,1.2542921337855641,0.08715163067340694,0.070338571273674
623,8.705183403260513,1.2531122154598244,0.08705183403260514,0.07037826614913169
624,8.693397986527525,1.2497751407233846,0.08693397986527525,0.07028680211830499
625,8.697500547172787,1.2506157051711555,0.08697500547172787,0.07029584251507667
626,8.67711878554227,1.2431880301861131,0.08677118785542269,0.07001886360131873
627,8.654000020190066,1.2388909093874712,0.08654000020190067,0.06999812468152089
628,8.656285647482605,1.239186803270952,0.08656285647482605,0.06999099879004576
629,8.656285647482605,1.239186803270952,0.08656285647482605,0.06999099879004576
630,8.672600022733068,1.2442328720980185,0.08672600022733068,0.07014933788389754
631,8.664058895112873,1.2424758051190397,0.08664058895112874,0.07012963993485169
632,8.659332306543073,1.240855355411029,0.08659332306543073,0.07007246217021515
633,8.659332306543073,1.240855355411029,0.08659332306543073,0.07007246217021515
634,8.629095860691576,1.237330926946059,0.08629095860691577,0.07019387246875712
635,8.629095860691576,1.237330926946059,0.08629095860691577,0.07019387246875712
636,8.629095860691576,1.237330926946059,0.08629095860691577,0.07019387246875712
637,8.630180475272116,1.2373604928875612,0.08630180475272116,0.07018264333365343
638,8.630180475272116,1.2373604928875612,0.08630180475272116,0.07018264333365343
639,8.623237378686337,1.236377776497113,0.08623237378686337,0.07019797344691518
640,8.623237378686337,1.236377776497113,0.08623237378686337,0.07019797344691518
641,8.619344382719326,1.2358204925380811,0.08619344382719327,0.07020609066590512
642,8.522525157305141,1.2160677961654902,0.08522525157305141,0.0699809578097142
643,8.515868354460055,1.2156453387456645,0.08515868354460056,0.07003179281160252
644,8.551386266632644,1.2232702218177185,0.08551386266632643,0.0701432926947534
645,8.546989285312968,1.2213509345805904,0.08546989285312968,0.07006002256266006
646,8.550139703231386,1.221866562918084,0.08550139703231385,0.07005838090266911
647,8.550139703231386,1.221866562918084,0.08550139703231385,0.07005838090266911
648,8.532983793599259,1.2141146353032581,0.0853298379359926,0.06971344999962216
649,8.5099385172287,1.2078515182266771,0.085099385172287,0.06954573908993641
650,8.521097618761061,1.2100095714999846,0.08521097618761062,0.06956425268882217
651,8.501441375803054,1.204676754419201,0.08501441375803054,0.06942130074818821
652,8.502478934209506,1.2047266065313784,0.08502478934209506,0.06941218381988959
653,8.486716767910771,1.2003232856702377,0.08486716767910771,0.06928778180046315
654,8.458616461806741,1.192501250574325,0.08458616461806741,0.06906658570501696
655,8.447074053269144,1.1890145254829447,0.08447074053269145,0.06895534242310863
656,8.427228943652569,1.1853517457244882,0.08427228943652569,0.0689325662540669
657,8.388190556044808,1.1712181219449909,0.08388190556044808,0.0683813361890361
658,8.388190556044808,1.1712181219449909,0.08388190556044808,0.0683813361890361
659,8.341222642003046,1.1638854232291707,0.08341222642003046,0.0684196953803894
660,8.341222642003046,1.1638854232291707,0.08341222642003046,0.0684196953803894
661,8.341222642003046,1.1638854232291707,0.08341222642003046,0.0684196953803894
662,8.347773893612604,1.1654325058735646,0.08347773893612605,0.06845284625819172
663,8.321537541300653,1.1570811257487048,0.08321537541300654,0.06816166482972254
664,8.321537541300653,1.1570811257487048,0.08321537541300654,0.06816166482972254
665,8.321537541300653,1.1570811257487048,0.08321537541300654,0.06816166482972254
666,8.321537541300653,1.1570811257487048,0.08321537541300654,0.06816166482972254
667,8.29455388437663,1.1540211590627758,0.08294553884376629,0.06826601772877201
668,8.291660296794355,1.153208650547413,0.08291660296794355,0.06824165485779594
669,8.291660296794355,1.153208650547413,0.08291660296794355,0.06824165485779594
670,8.282823432961454,1.1521225357859781,0.08282823432961454,0.06826938520082222
671,8.2745658518316,1.1515446448854747,0.082745658518316,0.06832717208567164
672,8.2745658518316,1.1515446448854747,0.082745658518316,0.06832717208567164
673,8.2745658518316,1.1515446448854747,0.082745658518316,0.06832717208567164
674,8.277214677890038,1.151915361892243,0.08277214677890038,0.06832221700541195
675,8.284123212091398,1.153875062612042,0.08284123212091397,0.06838187542623608
676,8.285115164800605,1.1540175030419464,0.08285115164800605,0.06838027274747131
677,8.239980932030232,1.143907323648654,0.08239980932030232,0.06818610313300182
678,8.234003780471888,1.1421753051774637,0.08234003780471888,0.06813127935164658
679,8.216710681597439,1.1371607980830942,0.08216710681597439,0.06797186578521439
680,8.211731593383789,1.1393134187656053,0.08211731593383789,0.0681900330801966
681,8.211731593383789,1.1393134187656053,0.08211731593383789,0.0681900330801966
682,8.193885567839056,1.1361663476171822,0.08193885567839056,0.06817394961631389
683,8.163392665349225,1.128748689180561,0.08163392665349224,0.06799550654960855
684,8.163392665349225,1.128748689180561,0.08163392665349224,0.06799550654960855
685,8.14061827302567,1.1264532229899544,0.0814061827302567,0.06809967432512141
686,8.14061827302567,1.1264532229899544,0.0814061827302567,0.06809967432512141
687,8.152837600799165,1.1292569477257637,0.08152837600799165,0.06815932352038985
688,8.137430900694618,1.1236816664946014,0.08137430900694617,0.06793407465026703
689,8.137430900694618,1.1236816664946014,0.08137430900694617,0.06793407465026703
690,8.137430900694618,1.1236816664946014,0.08137430900694617,0.06793407465026703
691,8.114724801618939,1.116593295246181,0.08114724801618939,0.06768350679346379
692,8.114097742532094,1.1165029897505991,0.08114097742532093,0.06768435328766575
693,8.114097742532094,1.1165029897505991,0.08114097742532093,0.06768435328766575
694,8.122739047807627,1.1195715899522605,0.08122739047807627,0.0678072778958478
695,8.132424716287979,1.1211901414762893,0.08132424716287978,0.06781053191174459
696,8.124352913939221,1.1174905203468968,0.08124352913939221,0.06763426776749858
697,8.111456442201714,1.1141036553455765,0.08111456442201714,0.06753861112047091
698,8.111456442201714,1.1141036553455765,0.08111456442201714,0.06753861112047091
699,8.076535735362052,1.1070736199783777,0.08076535735362052,0.06743658688965326
700,8.076303746745204,1.1070104154948823,0.08076303746745203,0.06743467901591704
701,8.076303746745204,1.1070104154948823,0.08076303746745203,0.06743467901591704
702,8.076303746745204,1.1070104154948823,0.08076303746745203,0.06743467901591704
703,8.079819853372019,1.107905346135558,0.0807981985337202,0.06745891027181743
704,8.058277954637147,1.1050219399374703,0.08058277954637147,0.06750285208756442
705,8.04601163118479,1.1012003787173594,0.08046011631184789,0.06736596670617519
706,8.04601163118479,1.1012003787173594,0.08046011631184789,0.06736596670617519
707,8.0470878387918,1.101286510601431,0.080470878387918,0.0673595044332366
708,8.0470878387918,1.101286510601431,0.080470878387918,0.0673595044332366
709,8.046418849167475,1.1009857341221116,0.08046418849167475,0.06734516843543681
710,8.046418849167475,1.1009857341221116,0.08046418849167475,0.06734516843543681
711,8.046418849167475,1.1009857341221116,0.08046418849167475,0.06734516843543681
712,8.045155355373534,1.1001791105562593,0.08045155355373534,0.0673003613389486
713,8.045155355373534,1.1001791105562593,0.08045155355373534,0.0673003613389486
714,8.045155355373534,1.1001791105562593,0.08045155355373534,0.0673003613389486
715,8.03235149687624,1.0966366770618337,0.0803235149687624,0.0671900268915063
716,8.02660655037635,1.0963073137194217,0.0802660655037635,0.06723415698690483
717,8.02660655037635,1.0963073137194217,0.0802660655037635,0.06723415698690483
718,8.02660655037635,1.0963073137194217,0.0802660655037635,0.06723415698690483
719,7.990264919318063,1.091206952956704,0.07990264919318063,0.06728771196495352
720,7.990264919318063,1.091206952956704,0.07990264919318063,0.06728771196495352
721,7.965943248464612,1.083321219932475,0.07965943248464612,0.06698945451001119
722,7.965943248464612,1.083321219932475,0.07965943248464612,0.06698945451001119
723,7.950811427866792,1.079938997709964,0.07950811427866791,0.06691673737526303
724,7.945134527928756,1.0780650909467342,0.07945134527928756,0.0668441070160921
725,7.948913203131154,1.079351164156883,0.07948913203131154,0.06689536254836767
726,7.948913203131154,1.079351164156883,0.07948913203131154,0.06689536254836767
727,7.942401292421318,1.0775577215640157,0.07942401292421318,0.06683863692995673
728,7.937654862929124,1.0770398912746428,0.07937654862929124,0.06685628198193638
729,7.935487518813538,1.0768210792742523,0.07935487518813539,0.06686564571301154
730,7.935487518813538,1.0768210792742523,0.07935487518813539,0.06686564571301154
731,7.9305021024580284,1.076720726437357,0.07930502102458029,0.06691726910644553
732,7.9305021024580284,1.076720726437357,0.07930502102458029,0.06691726910644553
733,7.925861458977104,1.076588794545111,0.07925861458977104,0.06696237718869635
734,7.918344420167061,1.0757878287878624,0.07918344420167062,0.06699149537246904
735,7.916327849522281,1.074886598033329,0.07916327849522281,0.06694804939817951
736,7.889274299721477,1.0693425412560913,0.07889274299721477,0.0668532760224683
737,7.838590698254722,1.0591298715362165,0.07838590698254723,0.0666854429533584
738,7.838590698254722,1.0591298715362165,0.07838590698254723,0.0666854429533584
739,7.838590698254722,1.0591298715362165,0.07838590698254723,0.0666854429533584
740,7.809267816712676,1.0512088251045368,0.07809267816712677,0.06643509515106402
741,7.812093554364561,1.0515383942650276,0.07812093554364562,0.06642667666258671
742,7.791439880406095,1.048701307934848,0.07791439880406095,0.06645569605647228
743,7.786866671079264,1.04817314408527,0.07786866671079264,0.06646955833715305
744,7.786866671079264,1.04817314408527,0.07786866671079264,0.06646955833715305
745,7.785958804866023,1.047898927701651,0.07785958804866022,0.06645956534547481
746,7.785958804866023,1.047898927701651,0.07785958804866022,0.06645956534547481
747,7.767517907801392,1.0467432719388432,0.07767517907801393,0.06658828181134349
748,7.767517907801392,1.0467432719388432,0.07767517907801393,0.06658828181134349
749,7.767517907801392,1.0467432719388432,0.07767517907801393,0.06658828181134349
750,7.767517907801392,1.0467432719388432,0.07767517907801393,0.06658828181134349
751,7.756607549129146,1.045656727524067,0.07756607549129146,0.06663385932181884
752,7.754336469942132,1.045561441871567,0.07754336469942132,0.06665313953452014
753,7.751090308295407,1.0450339595563247,0.07751090308295407,0.06665132780994051
754,7.751090308295407,1.0450339595563247,0.07751090308295407,0.06665132780994051
755,7.7573975708689815,1.0454367601263206,0.07757397570868982,0.06660815185854362
756,7.745838614985573,1.040575696999535,0.07745838614985573,0.06637737103151335
757,7.745838614985573,1.040575696999535,0.07745838614985573,0.06637737103151335
758,7.740372994941613,1.0395598462411144,0.07740372994941613,0.06636460692514501
759,7.760161701560307,1.0459105520880996,0.07760161701560307,0.06661151970526315
760,7.74285165854087,1.0447169051330627,0.0774285165854087,0.06672326333981063
761,7.7457766102654855,1.045473597197228,0.07745776610265485,0.06674601443051632
762,7.749162180559136,1.0458195239820893,0.07749162180559135,0.066732629123691
763,7.747334249774495,1.0456321161993958,0.07747334249774494,0.06673981093935662
764,7.747334249774495,1.0456321161993958,0.07747334249774494,0.06673981093935662
765,7.747334249774495,1.0456321161993958,0.07747334249774494,0.06673981093935662
766,7.747334249774495,1.0456321161993958,0.07747334249774494,0.06673981093935662
767,7.7422234721599565,1.0453425389120865,0.07742223472159956,0.06677741354555751
768,7.726428036103712,1.0383114844147143,0.07726428036103712,0.06643301757739292
769,7.660365186786556,1.004784461670657,0.07660365186786555,0.06465079378641402
770,7.660284336805019,1.0047806335474372,0.07660284336805019,0.06465145569439516
771,7.660284336805019,1.0047806335474372,0.07660284336805019,0.06465145569439516
772,7.660284336805019,1.0047806335474372,0.07660284336805019,0.06465145569439516
773,7.660284336805019,1.0047806335474372,0.07660284336805019,0.06465145569439516
774,7.660284336805019,1.0047806335474372,0.07660284336805019,0.06465145569439516
775,7.660243058409656,1.0047793121096138,0.07660243058409656,0.06465184258553507
776,7.647805650519179,1.0022244735967627,0.0764780565051918,0.0646014830259826
777,7.651554695254974,1.0024435939454148,0.07651554695254974,0.0645740428810703
778,7.651554695254974,1.0024435939454148,0.07651554695254974,0.0645740428810703
779,7.648303199772841,1.0009023276621907,0.0764830319977284,0.06449317090247897
780,7.648303199772841,1.0009023276621907,0.0764830319977284,0.06449317090247897
781,7.648303199772841,1.0009023276621907,0.0764830319977284,0.06449317090247897
782,7.635659606259268,0.9996806895589989,0.07635659606259268,0.06454825430113541
783,7.620548245636885,0.9964794444422194,0.07620548245636885,0.06447882511347623
784,7.620548245636885,0.9964794444422194,0.07620548245636885,0.06447882511347623
785,7.617283217181881,0.9951547532093519,0.0761728321718188,0.06441465028250518
786,7.617283217181881,0.9951547532093519,0.0761728321718188,0.06441465028250518
787,7.617283217181881,0.9951547532093519,0.0761728321718188,0.06441465028250518
788,7.617283217181881,0.9951547532093519,0.0761728321718188,0.06441465028250518
789,7.617283217181881,0.9951547532093519,0.0761728321718188,0.06441465028250518
790,7.6148010656137854,0.99451151551631,0.07614801065613785,0.0643940651634591
791,7.614783763794025,0.9945095962459174,0.07614783763794025,0.0643941207372619
792,7.614783763794025,0.9945095962459174,0.07614783763794025,0.0643941207372619
793,7.60452599885831,0.991982028651127,0.0760452599885831,0.06431903854831843
794,7.5913331699474345,0.9868465440914203,0.07591333169947434,0.0640752019988996
795,7.583327205960725,0.9847313000865832,0.07583327205960724,0.06400490488704302
796,7.583327205960725,0.9847313000865832,0.07583327205960724,0.06400490488704302
797,7.5833998422659885,0.9847484582466954,0.07583399842265988,0.06400538466175305
798,7.56176819528587,0.9779401802084988,0.0756176819528587,0.06372886299127968
799,7.56176819528587,0.9779401802084988,0.0756176819528587,0.06372886299127968
800,7.56176819528587,0.9779401802084988,0.0756176819528587,0.06372886299127968
801,7.585441369077728,0.9806098239099457,0.07585441369077728,0.06365694119833183
802,7.57495273017561,0.9791652105089941,0.0757495273017561,0.06366836905913681
803,7.5804895334487234,0.9820258794783543,0.07580489533448724,0.06382692721814968
804,7.58076274574446,0.9821068854663293,0.0758076274574446,0.06383002799573713
805,7.586299878983393,0.9831364237841722,0.07586299878983394,0.06384488744179426
806,7.586299878983393,0.9831364237841722,0.07586299878983394,0.06384488744179426
807,7.586299878983393,0.9831364237841722,0.07586299878983394,0.06384488744179426
808,7.576524876026111,0.9783382505474727,0.07576524876026111,0.06358466470596882
809,7.576524876026111,0.9783382505474727,0.07576524876026111,0.06358466470596882
810,7.5765363396151155,0.9783414590402582,0.07576536339615116,0.06358478041050185
811,7.5765363396151155,0.9783414590402582,0.07576536339615116,0.06358478041050185
812,7.568420555569983,0.9782027570932763,0.07568420555569982,0.06367046882452916
813,7.568446815637827,0.9782153911485911,0.07568446815637828,0.0636711488146089
814,7.566007848149864,0.9779897604231194,0.07566007848149864,0.06368241616337009
815,7.566007848149864,0.9779897604231194,0.07566007848149864,0.06368241616337009
816,7.566007848149864,0.9779897604231194,0.07566007848149864,0.06368241616337009
817,7.553337075469875,0.9747127416321513,0.07553337075469875,0.06357544587932304
818,7.553337075469875,0.9747127416321513,0.07553337075469875,0.06357544587932304
819,7.553337075469875,0.9747127416321513,0.07553337075469875,0.06357544587932304
820,7.550088561520344,0.9749284433165085,0.07550088561520343,0.06363097283937322
821,7.559249212556841,0.9788948013916584,0.07559249212556841,0.06383355816623777
822,7.5624576402664125,0.9791950205055164,0.07562457640266412,0.06381906963418364
823,7.551859661912857,0.9779913925775059,0.07551859661912858,0.0638502583428791
824,7.551859661912857,0.9779913925775059,0.07551859661912858,0.0638502583428791
825,7.53437618148684,0.9746537629038663,0.0753437618148684,0.06379541664275766
826,7.53437618148684,0.9746537629038663,0.0753437618148684,0.06379541664275766
827,7.53437618148684,0.9746537629038663,0.0753437618148684,0.06379541664275766
828,7.516869590833867,0.9684646924504537,0.07516869590833868,0.06351625051862118
829,7.516869590833867,0.9684646924504537,0.07516869590833868,0.06351625051862118
830,7.516869590833867,0.9684646924504537,0.07516869590833868,0.06351625051862118
831,7.516869590833867,0.9684646924504537,0.07516869590833868,0.06351625051862118
832,7.516869590833867,0.9684646924504537,0.07516869590833868,0.06351625051862118
833,7.516869590833867,0.9684646924504537,0.07516869590833868,0.06351625051862118
834,7.516869590833867,0.9684646924504537,0.07516869590833868,0.06351625051862118
835,7.525968487305999,0.9698926153318008,0.07525968487305999,0.06352090983389416
836,7.525968487305999,0.9698926153318008,0.07525968487305999,0.06352090983389416
837,7.516854147736764,0.9679364417527894,0.07516854147736764,0.06347483587763858
838,7.516854147736764,0.9679364417527894,0.07516854147736764,0.06347483587763858
839,7.516854147736764,0.9679364417527894,0.07516854147736764,0.06347483587763858
840,7.5069908124677305,0.9663232430978095,0.0750699081246773,0.06346448869352532
841,7.4953150203749175,0.964328934070642,0.07495315020374918,0.06344536716924755
842,7.4953150203749175,0.964328934070642,0.07495315020374918,0.06344536716924755
843,7.4953150203749175,0.964328934070642,0.07495315020374918,0.06344536716924755
844,7.4953150203749175,0.964328934070642,0.07495315020374918,0.06344536716924755
845,7.495713236704415,0.9644212994442507,0.07495713236704414,0.06344794166678641
846,7.494180683226242,0.963971257804136,0.07494180683226243,0.06343057753762947
847,7.494180683226242,0.963971257804136,0.07494180683226243,0.06343057753762947
848,7.494180683226242,0.963971257804136,0.07494180683226243,0.06343057753762947
849,7.494180683226242,0.963971257804136,0.07494180683226243,0.06343057753762947
850,7.494180683226242,0.963971257804136,0.07494180683226243,0.06343057753762947
851,7.485357527449445,0.9628283081270288,0.07485357527449445,0.06344466368336964
852,7.464298850404374,0.9597279025010544,0.07464298850404374,0.06344843017912845
853,7.464298850404374,0.9597279025010544,0.07464298850404374,0.06344843017912845
854,7.458535788548637,0.9591527528349261,0.07458535788548637,0.06347087456025147
855,7.458121105678789,0.959072900015993,0.07458121105678789,0.06346945688646462
856,7.459728952332371,0.9592266810731214,0.07459728952332371,0.06346267569607061
857,7.439191332125503,0.9486450316099864,0.07439191332125503,0.06286726929414656
858,7.439191332125503,0.9486450316099864,0.07439191332125503,0.06286726929414656
859,7.439191332125503,0.9486450316099864,0.07439191332125503,0.06286726929414656
860,7.403740074939645,0.9427057956713424,0.07403740074939645,0.06281338429814695
861,7.403740074939645,0.9427057956713424,0.07403740074939645,0.06281338429814695
862,7.403740074939645,0.9427057956713424,0.07403740074939645,0.06281338429814695
863,7.403740074939645,0.9427057956713424,0.07403740074939645,0.06281338429814695
864,7.403740074939645,0.9427057956713424,0.07403740074939645,0.06281338429814695
865,7.403740074939645,0.9427057956713424,0.07403740074939645,0.06281338429814695
866,7.403740074939645,0.9427057956713424,0.07403740074939645,0.06281338429814695
867,7.3938035375551525,0.9414654201770074,0.07393803537555152,0.06283168887252487
868,7.394725829412117,0.9419347506607009,0.07394725829412117,0.06285817764928868
869,7.394725829412117,0.9419347506607009,0.07394725829412117,0.06285817764928868
870,7.394725829412117,0.9419347506607009,0.07394725829412117,0.06285817764928868
871,7.38993846047641,0.9415560693209539,0.0738993846047641,0.06288435137811867
872,7.38993846047641,0.9415560693209539,0.0738993846047641,0.06288435137811867
873,7.38993846047641,0.9415560693209539,0.0738993846047641,0.06288435137811867
874,7.38993846047641,0.9415560693209539,0.0738993846047641,0.06288435137811867
875,7.3882751183829445,0.9413813551735006,0.07388275118382945,0.06289000420769071
876,7.3882751183829445,0.9413813551735006,0.07388275118382945,0.06289000420769071
877,7.392824532307655,0.9426773270737563,0.07392824532307656,0.06293955683184124
878,7.392824532307655,0.9426773270737563,0.07392824532307656,0.06293955683184124
879,7.392824532307655,0.9426773270737563,0.07392824532307656,0.06293955683184124
880,7.378540477113798,0.9394994997823686,0.07378540477113799,0.06285466602077378
881,7.378540477113798,0.9394994997823686,0.07378540477113799,0.06285466602077378
882,7.360433731632483,0.934917792096518,0.07360433731632483,0.06270230816477056
883,7.360433731632483,0.934917792096518,0.07360433731632483,0.06270230816477056
884,7.352041831669629,0.9340270317224156,0.07352041831669628,0.06272972507322302
885,7.352041831669629,0.9340270317224156,0.07352041831669628,0.06272972507322302
886,7.34845190398026,0.9333648850711207,0.0734845190398026,0.06271901077185525
887,7.34845190398026,0.9333648850711207,0.0734845190398026,0.06271901077185525
888,7.34845190398026,0.9333648850711207,0.0734845190398026,0.06271901077185525
889,7.319708720723765,0.9219452552322746,0.07319708720723765,0.06214208699986501
890,7.319708720723765,0.9219452552322746,0.07319708720723765,0.06214208699986501
891,7.319708720723765,0.9219452552322746,0.07319708720723765,0.06214208699986501
892,7.319708720723765,0.9219452552322746,0.07319708720723765,0.06214208699986501
893,7.2831834508931355,0.9073588760393722,0.07283183450893135,0.06139309930649663
894,7.254517150822996,0.9041181199402604,0.07254517150822996,0.06146852275957267
895,7.254517150822996,0.9041181199402604,0.07254517150822996,0.06146852275957267
896,7.254517150822996,0.9041181199402604,0.07254517150822996,0.06146852275957267
897,7.239761660724855,0.9012443991055598,0.07239761660724855,0.061408705414179234
898,7.223401201909074,0.897827323007735,0.07223401201909074,0.06132308486779839
899,7.219698170495677,0.8971320138437631,0.07219698170495677,0.06130999894904394
900,7.219698170495677,0.8971320138437631,0.07219698170495677,0.06130999894904394
901,7.206836797794823,0.8960925028003721,0.07206836797794823,0.06137650499172111
902,7.1913402536271125,0.8892699368771994,0.07191340253627113,0.06100132707104189
903,7.1913402536271125,0.8892699368771994,0.07191340253627113,0.06100132707104189
904,7.1913402536271125,0.8892699368771994,0.07191340253627113,0.06100132707104189
905,7.1913402536271125,0.8892699368771994,0.07191340253627113,0.06100132707104189
906,7.183436704761238,0.8853597396210956,0.07183436704761238,0.06077352307608846
907,7.183436704761238,0.8853597396210956,0.07183436704761238,0.06077352307608846
908,7.183436704761238,0.8853597396210956,0.07183436704761238,0.06077352307608846
909,7.1928293614522545,0.8891139854992243,0.07192829361452255,0.06097098025040501
910,7.1928293614522545,0.8891139854992243,0.07192829361452255,0.06097098025040501
911,7.1928293614522545,0.8891139854992243,0.07192829361452255,0.06097098025040501
912,7.1928293614522545,0.8891139854992243,0.07192829361452255,0.06097098025040501
913,7.19211436964382,0.88908070074879,0.07192114369643819,0.060976684863021116
914,7.19211436964382,0.88908070074879,0.07192114369643819,0.060976684863021116
915,7.15333966045919,0.8826155267845646,0.0715333966045919,0.06090261437783936
916,7.139034215296821,0.879841926316284,0.0713903421529682,0.06084273424530633
917,7.139034215296821,0.879841926316284,0.0713903421529682,0.06084273424530633
918,7.1361268998048395,0.8795616856682891,0.0713612689980484,0.060853809606885474
919,7.137025423309558,0.8796621551233885,0.07137025423309558,0.060851527194781145
920,7.137025423309558,0.8796621551233885,0.07137025423309558,0.060851527194781145
921,7.132446547398498,0.8785729441493163,0.07132446547398498,0.06081570575388801
922,7.132446547398498,0.8785729441493163,0.07132446547398498,0.06081570575388801
923,7.1338307848606135,0.8788902240086507,0.07133830784860613,0.06082555444370407
924,7.1338307848606135,0.8788902240086507,0.07133830784860613,0.06082555444370407
925,7.073007944405729,0.8616598881791759,0.07073007944405729,0.060115345325707836
926,7.073007944405729,0.8616598881791759,0.07073007944405729,0.060115345325707836
927,7.073007944405729,0.8616598881791759,0.07073007944405729,0.060115345325707836
928,7.05523856685978,0.8542685958671536,0.0705523856685978,0.05970801315687009
929,7.084646897025584,0.8604409024025048,0.07084646897025584,0.05987642990753226
930,7.081600378585817,0.8600978521337275,0.07081600378585817,0.0598838219316252
931,7.081600378585817,0.8600978521337275,0.07081600378585817,0.0598838219316252
932,7.081600378585817,0.8600978521337275,0.07081600378585817,0.0598838219316252
933,7.064987520381537,0.8568764761600913,0.07064987520381537,0.05981103489562965
934,7.064987520381537,0.8568764761600913,0.07064987520381537,0.05981103489562965
935,7.051670855349448,0.8526396301122258,0.07051670855349448,0.059613673900404555
936,7.051670855349448,0.8526396301122258,0.07051670855349448,0.059613673900404555
937,7.051670855349448,0.8526396301122258,0.07051670855349448,0.059613673900404555
938,7.024986729949356,0.8479458503688377,0.07024986729949356,0.05953498675646047
939,7.024986729949356,0.8479458503688377,0.07024986729949356,0.05953498675646047
940,7.024986729949356,0.8479458503688377,0.07024986729949356,0.05953498675646047
941,6.998211316006417,0.8387560593508647,0.06998211316006417,0.05907676727073529
942,6.965786808902557,0.8309543403038656,0.06965786808902558,0.05879902053887095
943,6.958440402467911,0.8305065112410218,0.06958440402467911,0.0588479042017678
944,6.957161180751615,0.8304634849609935,0.06957161180751614,0.05885937206693779
945,6.962794513634974,0.8326476918861099,0.06962794513634975,0.05897818388989753
946,6.962794513634974,0.8326476918861099,0.06962794513634975,0.05897818388989753
947,6.937834678059652,0.8295948268262063,0.06937834678059651,0.05901350071172999
948,6.937834678059652,0.8295948268262063,0.06937834678059651,0.05901350071172999
949,6.936142086438009,0.8292966212040276,0.06936142086438009,0.05900813086104842
950,6.8878712573162915,0.8148459206873957,0.06887871257316291,0.05834536966321806
951,6.8878712573162915,0.8148459206873957,0.06887871257316291,0.05834536966321806
952,6.8878712573162915,0.8148459206873957,0.06887871257316291,0.05834536966321806
953,6.8878712573162915,0.8148459206873957,0.06887871257316291,0.05834536966321806
954,6.873015919334643,0.8124744899351308,0.06873015919334642,0.058317322611798346
955,6.873015919334643,0.8124744899351308,0.06873015919334642,0.058317322611798346
956,6.873015919334643,0.8124744899351308,0.06873015919334642,0.058317322611798346
957,6.873015919334643,0.8124744899351308,0.06873015919334642,0.058317322611798346
958,6.864709050299487,0.8101868997809778,0.06864709050299486,0.05821894849001835
959,6.864709050299487,0.8101868997809778,0.06864709050299486,0.05821894849001835
960,6.846218207096908,0.805466738359149,0.06846218207096907,0.058031000419370427
961,6.846218207096908,0.805466738359149,0.06846218207096907,0.058031000419370427
962,6.856178468579954,0.8100790229482642,0.06856178468579954,0.05831013556990503
963,6.856178468579954,0.8100790229482642,0.06856178468579954,0.05831013556990503
964,6.856178468579954,0.8100790229482642,0.06856178468579954,0.05831013556990503
965,6.848800516634912,0.8093979415361618,0.06848800516634912,0.058338431275581575
966,6.827586050218983,0.807147336829212,0.06827586050218983,0.058394179855338624
967,6.827586050218983,0.807147336829212,0.06827586050218983,0.058394179855338624
968,6.834261677675739,0.8089329757019345,0.06834261677675739,0.058468936103922946
969,6.834261677675739,0.8089329757019345,0.06834261677675739,0.058468936103922946
970,6.8045618173212,0.8033255075776429,0.068045618173212,0.058335657390672035
971,6.8045618173212,0.8033255075776429,0.068045618173212,0.058335657390672035
972,6.796643788484387,0.8021412964309549,0.06796643788484387,0.05832646299541237
973,6.796643788484387,0.8021412964309549,0.06796643788484387,0.05832646299541237
974,6.792949383440595,0.8019987906764867,0.06792949383440595,0.0583572769598297
975,6.791793728761933,0.8016051398588768,0.06791793728761933,0.05833699677892046
976,6.798380066946779,0.8022145769668974,0.06798380066946778,0.05831250823110807
977,6.798380066946779,0.8022145769668974,0.06798380066946778,0.05831250823110807
978,6.7887127669013765,0.8017022545240302,0.06788712766901377,0.05838116513132749
979,6.796823880544926,0.8039407439090609,0.06796823880544926,0.0584784229675872
980,6.7651745309068385,0.7985270608388063,0.06765174530906838,0.058382462820824946
981,6.7651745309068385,0.7985270608388063,0.06765174530906838,0.058382462820824946
982,6.7651745309068385,0.7985270608388063,0.06765174530906838,0.058382462820824946
983,6.7651745309068385,0.7985270608388063,0.06765174530906838,0.058382462820824946
984,6.785039377313062,0.8013727815490131,0.06785039377313062,0.05839564949823958
985,6.785039377313062,0.8013727815490131,0.06785039377313062,0.05839564949823958
986,6.786589123711,0.8015287892123587,0.06786589123711,0.058390998439111684
987,6.756127825278707,0.7951956881971854,0.06756127825278707,0.05820163711461504
988,6.756127825278707,0.7951956881971854,0.06756127825278707,0.05820163711461504
989,6.756127825278707,0.7951956881971854,0.06756127825278707,0.05820163711461504
990,6.756127825278707,0.7951956881971854,0.06756127825278707,0.05820163711461504
991,6.756127825278707,0.7951956881971854,0.06756127825278707,0.05820163711461504
992,6.756127825278707,0.7951956881971854,0.06756127825278707,0.05820163711461504
993,6.763599205462093,0.7989475632625297,0.06763599205462092,0.058436702605576166
994,6.763599205462093,0.7989475632625297,0.06763599205462092,0.058436702605576166
995,6.763599205462093,0.7989475632625297,0.06763599205462092,0.058436702605576166
996,6.764746916666438,0.799066195321871,0.06764746916666438,0.05843356799446618
997,6.764746916666438,0.799066195321871,0.06764746916666438,0.05843356799446618
998,6.764746916666438,0.799066195321871,0.06764746916666438,0.05843356799446618
999,6.764746916666438,0.799066195321871,0.06764746916666438,0.05843356799446618
